Exp4/simulation/qsim/sig.msim.vcd
$comment
	File created using the following command:
		vcd file sig.msim.vcd -direction
$end
$date
	Sun Dec 30 12:48:03 2018
$end
$version
	ModelSim Version 10.1d
$end
$timescale
	1ps
$end
$scope module sig_vlg_vec_tst $end
$var reg 1 ! clk $end
$var reg 1 " load $end
$var reg 1 # rst_n $end
$var wire 1 $ led $end
$var wire 1 % seq_last6 [5] $end
$var wire 1 & seq_last6 [4] $end
$var wire 1 ' seq_last6 [3] $end
$var wire 1 ( seq_last6 [2] $end
$var wire 1 ) seq_last6 [1] $end
$var wire 1 * seq_last6 [0] $end
$var wire 1 + state [2] $end
$var wire 1 , state [1] $end
$var wire 1 - state [0] $end
$var wire 1 . sampler $end
$scope module i1 $end
$var wire 1 / gnd $end
$var wire 1 0 vcc $end
$var wire 1 1 unknown $end
$var tri1 1 2 devclrn $end
$var tri1 1 3 devpor $end
$var tri1 1 4 devoe $end
$var wire 1 5 ~QUARTUS_CREATED_GND~I_combout $end
$var wire 1 6 clk~input_o $end
$var wire 1 7 clk~inputCLKENA0_outclk $end
$var wire 1 8 load~input_o $end
$var wire 1 9 seq_n~1_combout $end
$var wire 1 : rst_n~input_o $end
$var wire 1 ; seq_n~2_combout $end
$var wire 1 < seq_n~3_combout $end
$var wire 1 = seq_n~4_combout $end
$var wire 1 > seq_n~5_combout $end
$var wire 1 ? seq_n~15_combout $end
$var wire 1 @ seq_n~14_combout $end
$var wire 1 A seq_n~13_combout $end
$var wire 1 B seq_n~12_combout $end
$var wire 1 C seq_n~11_combout $end
$var wire 1 D seq_n~10_combout $end
$var wire 1 E seq_n~9_combout $end
$var wire 1 F seq_n~8_combout $end
$var wire 1 G seq_n~7_combout $end
$var wire 1 H seq_n~6_combout $end
$var wire 1 I seq_n~0_combout $end
$var wire 1 J state[1]~reg0_q $end
$var wire 1 K state[0]~reg0_q $end
$var wire 1 L Mux1~0_combout $end
$var wire 1 M state[1]~reg0DUPLICATE_q $end
$var wire 1 N Mux0~0_combout $end
$var wire 1 O state[2]~reg0_q $end
$var wire 1 P Mux2~0_combout $end
$var wire 1 Q state[0]~reg0DUPLICATE_q $end
$var wire 1 R led~0_combout $end
$var wire 1 S seq_n [15] $end
$var wire 1 T seq_n [14] $end
$var wire 1 U seq_n [13] $end
$var wire 1 V seq_n [12] $end
$var wire 1 W seq_n [11] $end
$var wire 1 X seq_n [10] $end
$var wire 1 Y seq_n [9] $end
$var wire 1 Z seq_n [8] $end
$var wire 1 [ seq_n [7] $end
$var wire 1 \ seq_n [6] $end
$var wire 1 ] seq_n [5] $end
$var wire 1 ^ seq_n [4] $end
$var wire 1 _ seq_n [3] $end
$var wire 1 ` seq_n [2] $end
$var wire 1 a seq_n [1] $end
$var wire 1 b seq_n [0] $end
$upscope $end
$upscope $end
$enddefinitions $end
#0
$dumpvars
0!
1"
1#
0$
0*
1)
0(
1'
1&
0%
0-
0,
0+
x.
0/
10
x1
12
13
14
05
06
07
18
19
1:
1;
1<
0=
1>
1?
0@
1A
0B
1C
1D
1E
0F
0G
1H
0I
0J
0K
0L
0M
0N
0O
0P
0Q
0R
0b
0a
0`
0_
0^
0]
0\
0[
0Z
0Y
0X
0W
0V
0U
0T
0S
$end
#5000
1!
16
17
0.
1S
1V
1W
1X
1Z
1\
1_
1a
1]
1`
1I
1P
1F
0E
0D
1B
1@
1=
0;
0?
0<
0'
0)
1%
1(
#10000
0!
06
07
1.
#15000
1!
16
17
0.
1K
1U
0V
0W
1Y
1[
0\
1^
0_
1Q
1b
0`
1L
0P
1G
0F
1E
0C
0A
0@
0>
0=
09
1<
0&
1'
1-
1*
0(
#20000
0!
06
07
1.
#25000
1!
16
17
0.
0K
1J
1T
0U
1V
0X
0Z
0[
0^
1_
0a
0Q
1M
0]
0H
0G
1F
1D
0B
1A
1>
1=
1;
1?
1&
0'
1)
0-
1,
0%
#30000
0!
06
07
1.
#35000
1!
16
17
0.
0S
0T
1U
1W
0Y
1Z
1\
1^
1]
1`
0I
1P
1H
1G
0E
1C
1B
1@
0>
0?
0<
0&
1%
1(
#40000
0!
06
07
1.
#45000
1!
16
17
0.
1K
1S
1T
0V
1X
1Y
1[
0\
0_
1Q
0b
0]
0L
1N
0P
1I
0H
0F
0D
0C
0A
0@
0=
19
1?
1'
1-
0*
0%
#50000
0!
06
07
1.
#55000
1!
16
17
0.
0K
0J
0S
0U
0W
0X
0Z
0[
1\
0^
1a
0Q
1O
0M
1b
1P
0I
0G
1E
1D
0B
1A
1@
1>
0;
09
1&
0)
0-
1+
0,
1*
#60000
0!
06
07
1.
#65000
1!
16
17
0.
1K
0T
1V
1W
0Y
1Z
1[
0a
1Q
0b
1]
0`
0N
0P
1H
1F
0E
1C
1B
0A
1;
19
0?
1<
1)
1-
0*
1%
0(
1R
1$
#70000
0!
06
07
1.
#75000
1!
16
17
0.
0K
1S
1U
0V
1X
1Y
0Z
0\
1_
1a
0Q
0O
1`
1P
1I
1G
0F
0D
0C
0B
0@
1=
0;
0<
0'
0)
0-
0+
1(
0R
0$
#80000
0!
06
07
1.
#85000
1!
16
17
0.
1K
1T
0U
0W
0X
0Y
0[
1^
0_
1Q
1b
0`
1L
0P
0H
0G
1E
1D
1C
1A
0>
0=
09
1<
0&
1'
1-
1*
0(
#90000
0!
06
07
1.
#95000
1!
16
17
0.
0K
1J
0S
0T
1V
1W
1X
1Z
0^
1_
0a
0Q
1M
0]
1P
0I
1H
1F
0E
0D
1B
1>
1=
1;
1?
1&
0'
1)
0-
1,
0%
#100000
0!
06
07
1.
#105000
1!
16
17
0.
1K
1S
1U
0V
0W
1Y
1\
1^
1Q
0b
1]
1`
0L
1N
0P
1I
1G
0F
1E
0C
1@
0>
19
0?
0<
0&
1-
0*
1%
1(
#110000
0!
06
07
1.
#115000
1!
16
17
0.
0K
0J
1T
0U
1V
0X
1[
0\
0_
1a
0Q
1O
0M
1b
0]
1L
0N
0H
0G
1F
1D
0A
0@
0=
0;
09
1?
1'
0)
0-
1+
0,
1*
0%
#120000
0!
06
07
1.
#125000
1!
16
17
0.
1J
0S
0T
1U
1W
0Z
0[
1\
0^
0a
0O
1M
0`
0I
1P
1H
1G
0E
0B
1A
1@
1>
1;
1<
1&
1)
0+
1,
0(
#130000
0!
06
07
1.
#135000
1!
16
17
0.
1K
1S
1T
0V
0Y
1Z
1[
1_
1Q
0b
1]
1`
0L
1N
0P
1I
0H
0F
1C
1B
0A
1=
19
0?
0<
0'
1-
0*
1%
1(
#140000
0!
06
07
1.
#145000
1!
16
17
0.
0K
0J
0S
0U
1X
1Y
0Z
0\
1^
0_
1a
0Q
1O
0M
1b
1P
0I
0G
0D
0C
0B
0@
0>
0=
0;
09
0&
1'
0)
0-
1+
0,
1*
#150000
0!
06
07
1.
#155000
1!
16
17
0.
1K
0T
0W
0X
0Y
0[
0^
0a
1Q
0b
0]
0`
0N
0P
1H
1E
1D
1C
1A
1>
1;
19
1?
1<
1&
1)
1-
0*
0%
0(
1R
1$
#160000
0!
06
07
1.
#165000
1!
16
17
0.
0K
1S
1V
1W
1X
1Z
1\
1_
1a
0Q
0O
1]
1`
1P
1I
1F
0E
0D
1B
1@
1=
0;
0?
0<
0'
0)
0-
0+
1%
1(
0R
0$
#170000
0!
06
07
1.
#175000
1!
16
17
0.
1K
1U
0V
0W
1Y
1[
0\
1^
0_
1Q
1b
0`
1L
0P
1G
0F
1E
0C
0A
0@
0>
0=
09
1<
0&
1'
1-
1*
0(
#180000
0!
06
07
1.
#185000
1!
16
17
0.
0K
1J
1T
0U
1V
0X
0Z
0[
0^
1_
0a
0Q
1M
0]
0H
0G
1F
1D
0B
1A
1>
1=
1;
1?
1&
0'
1)
0-
1,
0%
#190000
0!
06
07
1.
#195000
1!
16
17
0.
0S
0T
1U
1W
0Y
1Z
1\
1^
1]
1`
0I
1P
1H
1G
0E
1C
1B
1@
0>
0?
0<
0&
1%
1(
#200000
0!
06
07
1.
#205000
1!
16
17
0.
1K
1S
1T
0V
1X
1Y
1[
0\
0_
1Q
0b
0]
0L
1N
0P
1I
0H
0F
0D
0C
0A
0@
0=
19
1?
1'
1-
0*
0%
#210000
0!
06
07
1.
#215000
1!
16
17
0.
0K
0J
0S
0U
0W
0X
0Z
0[
1\
0^
1a
0Q
1O
0M
1b
1P
0I
0G
1E
1D
0B
1A
1@
1>
0;
09
1&
0)
0-
1+
0,
1*
#220000
0!
06
07
1.
#225000
1!
16
17
0.
1K
0T
1V
1W
0Y
1Z
1[
0a
1Q
0b
1]
0`
0N
0P
1H
1F
0E
1C
1B
0A
1;
19
0?
1<
1)
1-
0*
1%
0(
1R
1$
#230000
0!
06
07
1.
#235000
1!
16
17
0.
0K
1S
1U
0V
1X
1Y
0Z
0\
1_
1a
0Q
0O
1`
1P
1I
1G
0F
0D
0C
0B
0@
1=
0;
0<
0'
0)
0-
0+
1(
0R
0$
#240000
0!
06
07
1.
#245000
1!
16
17
0.
1K
1T
0U
0W
0X
0Y
0[
1^
0_
1Q
1b
0`
1L
0P
0H
0G
1E
1D
1C
1A
0>
0=
09
1<
0&
1'
1-
1*
0(
#250000
0!
06
07
1.
#255000
1!
16
17
0.
0K
1J
0S
0T
1V
1W
1X
1Z
0^
1_
0a
0Q
1M
0]
1P
0I
1H
1F
0E
0D
1B
1>
1=
1;
1?
1&
0'
1)
0-
1,
0%
#260000
0!
06
07
1.
#265000
1!
16
17
0.
1K
1S
1U
0V
0W
1Y
1\
1^
1Q
0b
1]
1`
0L
1N
0P
1I
1G
0F
1E
0C
1@
0>
19
0?
0<
0&
1-
0*
1%
1(
#270000
0!
06
07
1.
#275000
1!
16
17
0.
0K
0J
1T
0U
1V
0X
1[
0\
0_
1a
0Q
1O
0M
1b
0]
1L
0N
0H
0G
1F
1D
0A
0@
0=
0;
09
1?
1'
0)
0-
1+
0,
1*
0%
#280000
0!
06
07
1.
#285000
1!
16
17
0.
1J
0S
0T
1U
1W
0Z
0[
1\
0^
0a
0O
1M
0`
0I
1P
1H
1G
0E
0B
1A
1@
1>
1;
1<
1&
1)
0+
1,
0(
#290000
0!
06
07
1.
#295000
1!
16
17
0.
1K
1S
1T
0V
0Y
1Z
1[
1_
1Q
0b
1]
1`
0L
1N
0P
1I
0H
0F
1C
1B
0A
1=
19
0?
0<
0'
1-
0*
1%
1(
#300000
0!
06
07
1.
#305000
1!
16
17
0.
0K
0J
0S
0U
1X
1Y
0Z
0\
1^
0_
1a
0Q
1O
0M
1b
1P
0I
0G
0D
0C
0B
0@
0>
0=
0;
09
0&
1'
0)
0-
1+
0,
1*
#310000
0!
06
07
1.
#315000
1!
16
17
0.
1K
0T
0W
0X
0Y
0[
0^
0a
1Q
0b
0]
0`
0N
0P
1H
1E
1D
1C
1A
1>
1;
19
1?
1<
1&
1)
1-
0*
0%
0(
1R
1$
#320000
0!
06
07
1.
#325000
1!
16
17
0.
0K
1S
1V
1W
1X
1Z
1\
1_
1a
0Q
0O
1]
1`
1P
1I
1F
0E
0D
1B
1@
1=
0;
0?
0<
0'
0)
0-
0+
1%
1(
0R
0$
#330000
0!
06
07
1.
#335000
1!
16
17
0.
1K
1U
0V
0W
1Y
1[
0\
1^
0_
1Q
1b
0`
1L
0P
1G
0F
1E
0C
0A
0@
0>
0=
09
1<
0&
1'
1-
1*
0(
#340000
0!
06
07
1.
#345000
1!
16
17
0.
0K
1J
1T
0U
1V
0X
0Z
0[
0^
1_
0a
0Q
1M
0]
0H
0G
1F
1D
0B
1A
1>
1=
1;
1?
1&
0'
1)
0-
1,
0%
#350000
0!
06
07
1.
#355000
1!
16
17
0.
0S
0T
1U
1W
0Y
1Z
1\
1^
1]
1`
0I
1P
1H
1G
0E
1C
1B
1@
0>
0?
0<
0&
1%
1(
#360000
0!
06
07
1.
#365000
1!
16
17
0.
1K
1S
1T
0V
1X
1Y
1[
0\
0_
1Q
0b
0]
0L
1N
0P
1I
0H
0F
0D
0C
0A
0@
0=
19
1?
1'
1-
0*
0%
#370000
0!
06
07
1.
#375000
1!
16
17
0.
0K
0J
0S
0U
0W
0X
0Z
0[
1\
0^
1a
0Q
1O
0M
1b
1P
0I
0G
1E
1D
0B
1A
1@
1>
0;
09
1&
0)
0-
1+
0,
1*
#380000
0!
06
07
1.
#385000
1!
16
17
0.
1K
0T
1V
1W
0Y
1Z
1[
0a
1Q
0b
1]
0`
0N
0P
1H
1F
0E
1C
1B
0A
1;
19
0?
1<
1)
1-
0*
1%
0(
1R
1$
#390000
0!
06
07
1.
#395000
1!
16
17
0.
0K
1S
1U
0V
1X
1Y
0Z
0\
1_
1a
0Q
0O
1`
1P
1I
1G
0F
0D
0C
0B
0@
1=
0;
0<
0'
0)
0-
0+
1(
0R
0$
#400000
0!
06
07
1.
#405000
1!
16
17
0.
1K
1T
0U
0W
0X
0Y
0[
1^
0_
1Q
1b
0`
1L
0P
0H
0G
1E
1D
1C
1A
0>
0=
09
1<
0&
1'
1-
1*
0(
#410000
0!
06
07
1.
#415000
1!
16
17
0.
0K
1J
0S
0T
1V
1W
1X
1Z
0^
1_
0a
0Q
1M
0]
1P
0I
1H
1F
0E
0D
1B
1>
1=
1;
1?
1&
0'
1)
0-
1,
0%
#420000
0!
06
07
1.
#425000
1!
16
17
0.
1K
1S
1U
0V
0W
1Y
1\
1^
1Q
0b
1]
1`
0L
1N
0P
1I
1G
0F
1E
0C
1@
0>
19
0?
0<
0&
1-
0*
1%
1(
#430000
0!
06
07
1.
#435000
1!
16
17
0.
0K
0J
1T
0U
1V
0X
1[
0\
0_
1a
0Q
1O
0M
1b
0]
1L
0N
0H
0G
1F
1D
0A
0@
0=
0;
09
1?
1'
0)
0-
1+
0,
1*
0%
#440000
0!
06
07
1.
#445000
1!
16
17
0.
1J
0S
0T
1U
1W
0Z
0[
1\
0^
0a
0O
1M
0`
0I
1P
1H
1G
0E
0B
1A
1@
1>
1;
1<
1&
1)
0+
1,
0(
#450000
0!
06
07
1.
#455000
1!
16
17
0.
1K
1S
1T
0V
0Y
1Z
1[
1_
1Q
0b
1]
1`
0L
1N
0P
1I
0H
0F
1C
1B
0A
1=
19
0?
0<
0'
1-
0*
1%
1(
#460000
0!
06
07
1.
#465000
1!
16
17
0.
0K
0J
0S
0U
1X
1Y
0Z
0\
1^
0_
1a
0Q
1O
0M
1b
1P
0I
0G
0D
0C
0B
0@
0>
0=
0;
09
0&
1'
0)
0-
1+
0,
1*
#470000
0!
06
07
1.
#475000
1!
16
17
0.
1K
0T
0W
0X
0Y
0[
0^
0a
1Q
0b
0]
0`
0N
0P
1H
1E
1D
1C
1A
1>
1;
19
1?
1<
1&
1)
1-
0*
0%
0(
1R
1$
#480000
0!
06
07
1.
#485000
1!
16
17
0.
0K
1S
1V
1W
1X
1Z
1\
1_
1a
0Q
0O
1]
1`
1P
1I
1F
0E
0D
1B
1@
1=
0;
0?
0<
0'
0)
0-
0+
1%
1(
0R
0$
#490000
0!
06
07
1.
#495000
1!
16
17
0.
1K
1U
0V
0W
1Y
1[
0\
1^
0_
1Q
1b
0`
1L
0P
1G
0F
1E
0C
0A
0@
0>
0=
09
1<
0&
1'
1-
1*
0(
#500000
0!
06
07
1.
#505000
1!
16
17
0.
0K
1J
1T
0U
1V
0X
0Z
0[
0^
1_
0a
0Q
1M
0]
0H
0G
1F
1D
0B
1A
1>
1=
1;
1?
1&
0'
1)
0-
1,
0%
#510000
0!
06
07
1.
#515000
1!
16
17
0.
0S
0T
1U
1W
0Y
1Z
1\
1^
1]
1`
0I
1P
1H
1G
0E
1C
1B
1@
0>
0?
0<
0&
1%
1(
#520000
0!
06
07
1.
#525000
1!
16
17
0.
1K
1S
1T
0V
1X
1Y
1[
0\
0_
1Q
0b
0]
0L
1N
0P
1I
0H
0F
0D
0C
0A
0@
0=
19
1?
1'
1-
0*
0%
#530000
0!
06
07
1.
#535000
1!
16
17
0.
0K
0J
0S
0U
0W
0X
0Z
0[
1\
0^
1a
0Q
1O
0M
1b
1P
0I
0G
1E
1D
0B
1A
1@
1>
0;
09
1&
0)
0-
1+
0,
1*
#540000
0!
06
07
1.
#545000
1!
16
17
0.
1K
0T
1V
1W
0Y
1Z
1[
0a
1Q
0b
1]
0`
0N
0P
1H
1F
0E
1C
1B
0A
1;
19
0?
1<
1)
1-
0*
1%
0(
1R
1$
#550000
0!
06
07
1.
#555000
1!
16
17
0.
0K
1S
1U
0V
1X
1Y
0Z
0\
1_
1a
0Q
0O
1`
1P
1I
1G
0F
0D
0C
0B
0@
1=
0;
0<
0'
0)
0-
0+
1(
0R
0$
#560000
0!
06
07
1.
#565000
1!
16
17
0.
1K
1T
0U
0W
0X
0Y
0[
1^
0_
1Q
1b
0`
1L
0P
0H
0G
1E
1D
1C
1A
0>
0=
09
1<
0&
1'
1-
1*
0(
#570000
0!
06
07
1.
#575000
1!
16
17
0.
0K
1J
0S
0T
1V
1W
1X
1Z
0^
1_
0a
0Q
1M
0]
1P
0I
1H
1F
0E
0D
1B
1>
1=
1;
1?
1&
0'
1)
0-
1,
0%
#580000
0!
06
07
1.
#585000
1!
16
17
0.
1K
1S
1U
0V
0W
1Y
1\
1^
1Q
0b
1]
1`
0L
1N
0P
1I
1G
0F
1E
0C
1@
0>
19
0?
0<
0&
1-
0*
1%
1(
#590000
0!
06
07
1.
#595000
1!
16
17
0.
0K
0J
1T
0U
1V
0X
1[
0\
0_
1a
0Q
1O
0M
1b
0]
1L
0N
0H
0G
1F
1D
0A
0@
0=
0;
09
1?
1'
0)
0-
1+
0,
1*
0%
#600000
0!
06
07
1.
#605000
1!
16
17
0.
1J
0S
0T
1U
1W
0Z
0[
1\
0^
0a
0O
1M
0`
0I
1P
1H
1G
0E
0B
1A
1@
1>
1;
1<
1&
1)
0+
1,
0(
#610000
0!
06
07
1.
#615000
1!
16
17
0.
1K
1S
1T
0V
0Y
1Z
1[
1_
1Q
0b
1]
1`
0L
1N
0P
1I
0H
0F
1C
1B
0A
1=
19
0?
0<
0'
1-
0*
1%
1(
#620000
0!
06
07
1.
#625000
1!
16
17
0.
0K
0J
0S
0U
1X
1Y
0Z
0\
1^
0_
1a
0Q
1O
0M
1b
1P
0I
0G
0D
0C
0B
0@
0>
0=
0;
09
0&
1'
0)
0-
1+
0,
1*
#630000
0!
06
07
1.
#635000
1!
16
17
0.
1K
0T
0W
0X
0Y
0[
0^
0a
1Q
0b
0]
0`
0N
0P
1H
1E
1D
1C
1A
1>
1;
19
1?
1<
1&
1)
1-
0*
0%
0(
1R
1$
#640000
0!
06
07
1.
#645000
1!
16
17
0.
0K
1S
1V
1W
1X
1Z
1\
1_
1a
0Q
0O
1]
1`
1P
1I
1F
0E
0D
1B
1@
1=
0;
0?
0<
0'
0)
0-
0+
1%
1(
0R
0$
#650000
0!
06
07
1.
#655000
1!
16
17
0.
1K
1U
0V
0W
1Y
1[
0\
1^
0_
1Q
1b
0`
1L
0P
1G
0F
1E
0C
0A
0@
0>
0=
09
1<
0&
1'
1-
1*
0(
#660000
0!
06
07
1.
#665000
1!
16
17
0.
0K
1J
1T
0U
1V
0X
0Z
0[
0^
1_
0a
0Q
1M
0]
0H
0G
1F
1D
0B
1A
1>
1=
1;
1?
1&
0'
1)
0-
1,
0%
#670000
0!
06
07
1.
#675000
1!
16
17
0.
0S
0T
1U
1W
0Y
1Z
1\
1^
1]
1`
0I
1P
1H
1G
0E
1C
1B
1@
0>
0?
0<
0&
1%
1(
#680000
0!
06
07
1.
#685000
1!
16
17
0.
1K
1S
1T
0V
1X
1Y
1[
0\
0_
1Q
0b
0]
0L
1N
0P
1I
0H
0F
0D
0C
0A
0@
0=
19
1?
1'
1-
0*
0%
#690000
0!
06
07
1.
#695000
1!
16
17
0.
0K
0J
0S
0U
0W
0X
0Z
0[
1\
0^
1a
0Q
1O
0M
1b
1P
0I
0G
1E
1D
0B
1A
1@
1>
0;
09
1&
0)
0-
1+
0,
1*
#700000
0!
06
07
1.
#705000
1!
16
17
0.
1K
0T
1V
1W
0Y
1Z
1[
0a
1Q
0b
1]
0`
0N
0P
1H
1F
0E
1C
1B
0A
1;
19
0?
1<
1)
1-
0*
1%
0(
1R
1$
#710000
0!
06
07
1.
#715000
1!
16
17
0.
0K
1S
1U
0V
1X
1Y
0Z
0\
1_
1a
0Q
0O
1`
1P
1I
1G
0F
0D
0C
0B
0@
1=
0;
0<
0'
0)
0-
0+
1(
0R
0$
#720000
0!
06
07
1.
#725000
1!
16
17
0.
1K
1T
0U
0W
0X
0Y
0[
1^
0_
1Q
1b
0`
1L
0P
0H
0G
1E
1D
1C
1A
0>
0=
09
1<
0&
1'
1-
1*
0(
#730000
0!
06
07
1.
#735000
1!
16
17
0.
0K
1J
0S
0T
1V
1W
1X
1Z
0^
1_
0a
0Q
1M
0]
1P
0I
1H
1F
0E
0D
1B
1>
1=
1;
1?
1&
0'
1)
0-
1,
0%
#740000
0!
06
07
1.
#745000
1!
16
17
0.
1K
1S
1U
0V
0W
1Y
1\
1^
1Q
0b
1]
1`
0L
1N
0P
1I
1G
0F
1E
0C
1@
0>
19
0?
0<
0&
1-
0*
1%
1(
#750000
0!
06
07
1.
#755000
1!
16
17
0.
0K
0J
1T
0U
1V
0X
1[
0\
0_
1a
0Q
1O
0M
1b
0]
1L
0N
0H
0G
1F
1D
0A
0@
0=
0;
09
1?
1'
0)
0-
1+
0,
1*
0%
#760000
0!
06
07
1.
#765000
1!
16
17
0.
1J
0S
0T
1U
1W
0Z
0[
1\
0^
0a
0O
1M
0`
0I
1P
1H
1G
0E
0B
1A
1@
1>
1;
1<
1&
1)
0+
1,
0(
#770000
0!
06
07
1.
#775000
1!
16
17
0.
1K
1S
1T
0V
0Y
1Z
1[
1_
1Q
0b
1]
1`
0L
1N
0P
1I
0H
0F
1C
1B
0A
1=
19
0?
0<
0'
1-
0*
1%
1(
#780000
0!
06
07
1.
#785000
1!
16
17
0.
0K
0J
0S
0U
1X
1Y
0Z
0\
1^
0_
1a
0Q
1O
0M
1b
1P
0I
0G
0D
0C
0B
0@
0>
0=
0;
09
0&
1'
0)
0-
1+
0,
1*
#790000
0!
06
07
1.
#795000
1!
16
17
0.
1K
0T
0W
0X
0Y
0[
0^
0a
1Q
0b
0]
0`
0N
0P
1H
1E
1D
1C
1A
1>
1;
19
1?
1<
1&
1)
1-
0*
0%
0(
1R
1$
#800000
0!
06
07
1.
#805000
1!
16
17
0.
0K
1S
1V
1W
1X
1Z
1\
1_
1a
0Q
0O
1]
1`
1P
1I
1F
0E
0D
1B
1@
1=
0;
0?
0<
0'
0)
0-
0+
1%
1(
0R
0$
#810000
0!
06
07
1.
#815000
1!
16
17
0.
1K
1U
0V
0W
1Y
1[
0\
1^
0_
1Q
1b
0`
1L
0P
1G
0F
1E
0C
0A
0@
0>
0=
09
1<
0&
1'
1-
1*
0(
#820000
0!
06
07
1.
#825000
1!
16
17
0.
0K
1J
1T
0U
1V
0X
0Z
0[
0^
1_
0a
0Q
1M
0]
0H
0G
1F
1D
0B
1A
1>
1=
1;
1?
1&
0'
1)
0-
1,
0%
#830000
0!
06
07
1.
#835000
1!
16
17
0.
0S
0T
1U
1W
0Y
1Z
1\
1^
1]
1`
0I
1P
1H
1G
0E
1C
1B
1@
0>
0?
0<
0&
1%
1(
#840000
0!
06
07
1.
#845000
1!
16
17
0.
1K
1S
1T
0V
1X
1Y
1[
0\
0_
1Q
0b
0]
0L
1N
0P
1I
0H
0F
0D
0C
0A
0@
0=
19
1?
1'
1-
0*
0%
#850000
0!
06
07
1.
#855000
1!
16
17
0.
0K
0J
0S
0U
0W
0X
0Z
0[
1\
0^
1a
0Q
1O
0M
1b
1P
0I
0G
1E
1D
0B
1A
1@
1>
0;
09
1&
0)
0-
1+
0,
1*
#860000
0!
06
07
1.
#865000
1!
16
17
0.
1K
0T
1V
1W
0Y
1Z
1[
0a
1Q
0b
1]
0`
0N
0P
1H
1F
0E
1C
1B
0A
1;
19
0?
1<
1)
1-
0*
1%
0(
1R
1$
#870000
0!
06
07
1.
#875000
1!
16
17
0.
0K
1S
1U
0V
1X
1Y
0Z
0\
1_
1a
0Q
0O
1`
1P
1I
1G
0F
0D
0C
0B
0@
1=
0;
0<
0'
0)
0-
0+
1(
0R
0$
#880000
0!
06
07
1.
#885000
1!
16
17
0.
1K
1T
0U
0W
0X
0Y
0[
1^
0_
1Q
1b
0`
1L
0P
0H
0G
1E
1D
1C
1A
0>
0=
09
1<
0&
1'
1-
1*
0(
#890000
0!
06
07
1.
#895000
1!
16
17
0.
0K
1J
0S
0T
1V
1W
1X
1Z
0^
1_
0a
0Q
1M
0]
1P
0I
1H
1F
0E
0D
1B
1>
1=
1;
1?
1&
0'
1)
0-
1,
0%
#900000
0!
06
07
1.
#905000
1!
16
17
0.
1K
1S
1U
0V
0W
1Y
1\
1^
1Q
0b
1]
1`
0L
1N
0P
1I
1G
0F
1E
0C
1@
0>
19
0?
0<
0&
1-
0*
1%
1(
#910000
0!
06
07
1.
#915000
1!
16
17
0.
0K
0J
1T
0U
1V
0X
1[
0\
0_
1a
0Q
1O
0M
1b
0]
1L
0N
0H
0G
1F
1D
0A
0@
0=
0;
09
1?
1'
0)
0-
1+
0,
1*
0%
#920000
0!
06
07
1.
#925000
1!
16
17
0.
1J
0S
0T
1U
1W
0Z
0[
1\
0^
0a
0O
1M
0`
0I
1P
1H
1G
0E
0B
1A
1@
1>
1;
1<
1&
1)
0+
1,
0(
#930000
0!
06
07
1.
#935000
1!
16
17
0.
1K
1S
1T
0V
0Y
1Z
1[
1_
1Q
0b
1]
1`
0L
1N
0P
1I
0H
0F
1C
1B
0A
1=
19
0?
0<
0'
1-
0*
1%
1(
#940000
0!
06
07
1.
#945000
1!
16
17
0.
0K
0J
0S
0U
1X
1Y
0Z
0\
1^
0_
1a
0Q
1O
0M
1b
1P
0I
0G
0D
0C
0B
0@
0>
0=
0;
09
0&
1'
0)
0-
1+
0,
1*
#950000
0!
06
07
1.
#955000
1!
16
17
0.
1K
0T
0W
0X
0Y
0[
0^
0a
1Q
0b
0]
0`
0N
0P
1H
1E
1D
1C
1A
1>
1;
19
1?
1<
1&
1)
1-
0*
0%
0(
1R
1$
#960000
0!
06
07
1.
#965000
1!
16
17
0.
0K
1S
1V
1W
1X
1Z
1\
1_
1a
0Q
0O
1]
1`
1P
1I
1F
0E
0D
1B
1@
1=
0;
0?
0<
0'
0)
0-
0+
1%
1(
0R
0$
#970000
0!
06
07
1.
#975000
1!
16
17
0.
1K
1U
0V
0W
1Y
1[
0\
1^
0_
1Q
1b
0`
1L
0P
1G
0F
1E
0C
0A
0@
0>
0=
09
1<
0&
1'
1-
1*
0(
#980000
0!
06
07
1.
#985000
1!
16
17
0.
0K
1J
1T
0U
1V
0X
0Z
0[
0^
1_
0a
0Q
1M
0]
0H
0G
1F
1D
0B
1A
1>
1=
1;
1?
1&
0'
1)
0-
1,
0%
#990000
0!
06
07
1.
#995000
1!
16
17
0.
0S
0T
1U
1W
0Y
1Z
1\
1^
1]
1`
0I
1P
1H
1G
0E
1C
1B
1@
0>
0?
0<
0&
1%
1(
#1000000
0!
06
07
1.
#1005000
1!
16
17
0.
1K
1S
1T
0V
1X
1Y
1[
0\
0_
1Q
0b
0]
0L
1N
0P
1I
0H
0F
0D
0C
0A
0@
0=
19
1?
1'
1-
0*
0%
#1010000
0!
06
07
1.
#1015000
1!
16
17
0.
0K
0J
0S
0U
0W
0X
0Z
0[
1\
0^
1a
0Q
1O
0M
1b
1P
0I
0G
1E
1D
0B
1A
1@
1>
0;
09
1&
0)
0-
1+
0,
1*
#1020000
0!
06
07
1.
#1025000
1!
16
17
0.
1K
0T
1V
1W
0Y
1Z
1[
0a
1Q
0b
1]
0`
0N
0P
1H
1F
0E
1C
1B
0A
1;
19
0?
1<
1)
1-
0*
1%
0(
1R
1$
#1030000
0!
06
07
1.
#1035000
1!
16
17
0.
0K
1S
1U
0V
1X
1Y
0Z
0\
1_
1a
0Q
0O
1`
1P
1I
1G
0F
0D
0C
0B
0@
1=
0;
0<
0'
0)
0-
0+
1(
0R
0$
#1040000
0!
06
07
1.
#1045000
1!
16
17
0.
1K
1T
0U
0W
0X
0Y
0[
1^
0_
1Q
1b
0`
1L
0P
0H
0G
1E
1D
1C
1A
0>
0=
09
1<
0&
1'
1-
1*
0(
#1050000
0!
06
07
1.
#1055000
1!
16
17
0.
0K
1J
0S
0T
1V
1W
1X
1Z
0^
1_
0a
0Q
1M
0]
1P
0I
1H
1F
0E
0D
1B
1>
1=
1;
1?
1&
0'
1)
0-
1,
0%
#1060000
0!
06
07
1.
#1065000
1!
16
17
0.
1K
1S
1U
0V
0W
1Y
1\
1^
1Q
0b
1]
1`
0L
1N
0P
1I
1G
0F
1E
0C
1@
0>
19
0?
0<
0&
1-
0*
1%
1(
#1070000
0!
06
07
1.
#1075000
1!
16
17
0.
0K
0J
1T
0U
1V
0X
1[
0\
0_
1a
0Q
1O
0M
1b
0]
1L
0N
0H
0G
1F
1D
0A
0@
0=
0;
09
1?
1'
0)
0-
1+
0,
1*
0%
#1080000
0!
06
07
1.
#1085000
1!
16
17
0.
1J
0S
0T
1U
1W
0Z
0[
1\
0^
0a
0O
1M
0`
0I
1P
1H
1G
0E
0B
1A
1@
1>
1;
1<
1&
1)
0+
1,
0(
#1090000
0!
06
07
1.
#1095000
1!
16
17
0.
1K
1S
1T
0V
0Y
1Z
1[
1_
1Q
0b
1]
1`
0L
1N
0P
1I
0H
0F
1C
1B
0A
1=
19
0?
0<
0'
1-
0*
1%
1(
#1100000
0!
06
07
1.
