Exp4/simulation/qsim/sig.msim.vcd
$comment
	File created using the following command:
		vcd file sig.msim.vcd -direction
$end
$date
	Fri Nov 30 10:57:02 2018
$end
$version
	ModelSim Version 10.1d
$end
$timescale
	1ps
$end
$scope module sig_vlg_vec_tst $end
$var reg 1 ! clk $end
$var reg 1 " load $end
$var reg 1 # rst_n $end
$var wire 1 $ led $end
$var wire 1 % seq_last6 [5] $end
$var wire 1 & seq_last6 [4] $end
$var wire 1 ' seq_last6 [3] $end
$var wire 1 ( seq_last6 [2] $end
$var wire 1 ) seq_last6 [1] $end
$var wire 1 * seq_last6 [0] $end
$var wire 1 + state [2] $end
$var wire 1 , state [1] $end
$var wire 1 - state [0] $end
$var wire 1 . sampler $end
$scope module i1 $end
$var wire 1 / gnd $end
$var wire 1 0 vcc $end
$var wire 1 1 unknown $end
$var tri1 1 2 devclrn $end
$var tri1 1 3 devpor $end
$var tri1 1 4 devoe $end
$var wire 1 5 ~QUARTUS_CREATED_GND~I_combout $end
$var wire 1 6 clk~input_o $end
$var wire 1 7 clk~inputCLKENA0_outclk $end
$var wire 1 8 load~input_o $end
$var wire 1 9 seq_n~1_combout $end
$var wire 1 : rst_n~input_o $end
$var wire 1 ; seq_n~2_combout $end
$var wire 1 < seq_n~3_combout $end
$var wire 1 = seq_n~4_combout $end
$var wire 1 > seq_n~5_combout $end
$var wire 1 ? seq_n~15_combout $end
$var wire 1 @ seq_n~14_combout $end
$var wire 1 A seq_n~13_combout $end
$var wire 1 B seq_n~12_combout $end
$var wire 1 C seq_n~11_combout $end
$var wire 1 D seq_n~10_combout $end
$var wire 1 E seq_n~9_combout $end
$var wire 1 F seq_n~8_combout $end
$var wire 1 G seq_n~7_combout $end
$var wire 1 H seq_n~6_combout $end
$var wire 1 I seq_n~0_combout $end
$var wire 1 J state[1]~reg0_q $end
$var wire 1 K state[0]~reg0_q $end
$var wire 1 L Mux1~0_combout $end
$var wire 1 M state[1]~reg0DUPLICATE_q $end
$var wire 1 N Mux0~0_combout $end
$var wire 1 O state[2]~reg0_q $end
$var wire 1 P Mux2~0_combout $end
$var wire 1 Q state[0]~reg0DUPLICATE_q $end
$var wire 1 R led~0_combout $end
$var wire 1 S seq_n [15] $end
$var wire 1 T seq_n [14] $end
$var wire 1 U seq_n [13] $end
$var wire 1 V seq_n [12] $end
$var wire 1 W seq_n [11] $end
$var wire 1 X seq_n [10] $end
$var wire 1 Y seq_n [9] $end
$var wire 1 Z seq_n [8] $end
$var wire 1 [ seq_n [7] $end
$var wire 1 \ seq_n [6] $end
$var wire 1 ] seq_n [5] $end
$var wire 1 ^ seq_n [4] $end
$var wire 1 _ seq_n [3] $end
$var wire 1 ` seq_n [2] $end
$var wire 1 a seq_n [1] $end
$var wire 1 b seq_n [0] $end
$upscope $end
$upscope $end
$enddefinitions $end
#0
$dumpvars
0!
1"
1#
0$
0*
1)
0(
1'
1&
0%
0-
0,
0+
x.
0/
10
x1
12
13
14
05
06
07
18
19
1:
1;
1<
0=
1>
1?
0@
1A
0B
1C
1D
1E
0F
0G
1H
0I
0J
0K
0L
0M
0N
0O
0P
0Q
0R
0b
0a
0`
0_
0^
0]
0\
0[
0Z
0Y
0X
0W
0V
0U
0T
0S
$end
#50000
1!
16
17
0.
1S
1V
1W
1X
1Z
1\
1_
1a
1]
1`
1I
1P
1F
0E
0D
1B
1@
1=
0;
0?
0<
0'
0)
1%
1(
#100000
0!
06
07
1.
#150000
1!
16
17
0.
1K
1U
0V
0W
1Y
1[
0\
1^
0_
1Q
1b
0`
1L
0P
1G
0F
1E
0C
0A
0@
0>
0=
09
1<
0&
1'
1-
1*
0(
#200000
0!
06
07
1.
#250000
1!
16
17
0.
0K
1J
1T
0U
1V
0X
0Z
0[
0^
1_
0a
0Q
1M
0]
0H
0G
1F
1D
0B
1A
1>
1=
1;
1?
1&
0'
1)
0-
1,
0%
#300000
0!
06
07
1.
#350000
1!
16
17
0.
0S
0T
1U
1W
0Y
1Z
1\
1^
1]
1`
0I
1P
1H
1G
0E
1C
1B
1@
0>
0?
0<
0&
1%
1(
#400000
0!
06
07
1.
#450000
1!
16
17
0.
1K
1S
1T
0V
1X
1Y
1[
0\
0_
1Q
0b
0]
0L
1N
0P
1I
0H
0F
0D
0C
0A
0@
0=
19
1?
1'
1-
0*
0%
#500000
0!
06
07
1.
#550000
1!
16
17
0.
0K
0J
0S
0U
0W
0X
0Z
0[
1\
0^
1a
0Q
1O
0M
1b
1P
0I
0G
1E
1D
0B
1A
1@
1>
0;
09
1&
0)
0-
1+
0,
1*
#600000
0!
06
07
1.
#650000
1!
16
17
0.
1K
0T
1V
1W
0Y
1Z
1[
0a
1Q
0b
1]
0`
0N
0P
1H
1F
0E
1C
1B
0A
1;
19
0?
1<
1)
1-
0*
1%
0(
1R
1$
#700000
0!
06
07
1.
#750000
1!
16
17
0.
0K
1S
1U
0V
1X
1Y
0Z
0\
1_
1a
0Q
0O
1`
1P
1I
1G
0F
0D
0C
0B
0@
1=
0;
0<
0'
0)
0-
0+
1(
0R
0$
#800000
0!
06
07
1.
#850000
1!
16
17
0.
1K
1T
0U
0W
0X
0Y
0[
1^
0_
1Q
1b
0`
1L
0P
0H
0G
1E
1D
1C
1A
0>
0=
09
1<
0&
1'
1-
1*
0(
#900000
0!
06
07
1.
#950000
1!
16
17
0.
0K
1J
0S
0T
1V
1W
1X
1Z
0^
1_
0a
0Q
1M
0]
1P
0I
1H
1F
0E
0D
1B
1>
1=
1;
1?
1&
0'
1)
0-
1,
0%
#1000000
0!
06
07
1.
#1050000
1!
16
17
0.
1K
1S
1U
0V
0W
1Y
1\
1^
1Q
0b
1]
1`
0L
1N
0P
1I
1G
0F
1E
0C
1@
0>
19
0?
0<
0&
1-
0*
1%
1(
#1100000
0!
06
07
1.
#1150000
1!
16
17
0.
0K
0J
1T
0U
1V
0X
1[
0\
0_
1a
0Q
1O
0M
1b
0]
1L
0N
0H
0G
1F
1D
0A
0@
0=
0;
09
1?
1'
0)
0-
1+
0,
1*
0%
#1200000
0!
06
07
1.
#1250000
1!
16
17
0.
1J
0S
0T
1U
1W
0Z
0[
1\
0^
0a
0O
1M
0`
0I
1P
1H
1G
0E
0B
1A
1@
1>
1;
1<
1&
1)
0+
1,
0(
#1300000
0!
06
07
1.
#1350000
1!
16
17
0.
1K
1S
1T
0V
0Y
1Z
1[
1_
1Q
0b
1]
1`
0L
1N
0P
1I
0H
0F
1C
1B
0A
1=
19
0?
0<
0'
1-
0*
1%
1(
#1400000
0!
06
07
1.
#1450000
1!
16
17
0.
0K
0J
0S
0U
1X
1Y
0Z
0\
1^
0_
1a
0Q
1O
0M
1b
1P
0I
0G
0D
0C
0B
0@
0>
0=
0;
09
0&
1'
0)
0-
1+
0,
1*
#1500000
0!
06
07
1.
#1550000
1!
16
17
0.
1K
0T
0W
0X
0Y
0[
0^
0a
1Q
0b
0]
0`
0N
0P
1H
1E
1D
1C
1A
1>
1;
19
1?
1<
1&
1)
1-
0*
0%
0(
1R
1$
#1600000
0!
06
07
1.
#1650000
1!
16
17
0.
0K
1S
1V
1W
1X
1Z
1\
1_
1a
0Q
0O
1]
1`
1P
1I
1F
0E
0D
1B
1@
1=
0;
0?
0<
0'
0)
0-
0+
1%
1(
0R
0$
#1700000
0!
06
07
1.
#1750000
1!
16
17
0.
1K
1U
0V
0W
1Y
1[
0\
1^
0_
1Q
1b
0`
1L
0P
1G
0F
1E
0C
0A
0@
0>
0=
09
1<
0&
1'
1-
1*
0(
#1800000
0!
06
07
1.
#1850000
1!
16
17
0.
0K
1J
1T
0U
1V
0X
0Z
0[
0^
1_
0a
0Q
1M
0]
0H
0G
1F
1D
0B
1A
1>
1=
1;
1?
1&
0'
1)
0-
1,
0%
#1900000
0!
06
07
1.
#1950000
1!
16
17
0.
0S
0T
1U
1W
0Y
1Z
1\
1^
1]
1`
0I
1P
1H
1G
0E
1C
1B
1@
0>
0?
0<
0&
1%
1(
#2000000
0!
06
07
1.
#2050000
1!
16
17
0.
1K
1S
1T
0V
1X
1Y
1[
0\
0_
1Q
0b
0]
0L
1N
0P
1I
0H
0F
0D
0C
0A
0@
0=
19
1?
1'
1-
0*
0%
#2100000
0!
06
07
1.
#2150000
1!
16
17
0.
0K
0J
0S
0U
0W
0X
0Z
0[
1\
0^
1a
0Q
1O
0M
1b
1P
0I
0G
1E
1D
0B
1A
1@
1>
0;
09
1&
0)
0-
1+
0,
1*
#2200000
0!
06
07
1.
#2250000
1!
16
17
0.
1K
0T
1V
1W
0Y
1Z
1[
0a
1Q
0b
1]
0`
0N
0P
1H
1F
0E
1C
1B
0A
1;
19
0?
1<
1)
1-
0*
1%
0(
1R
1$
#2300000
0!
06
07
1.
#2350000
1!
16
17
0.
0K
1S
1U
0V
1X
1Y
0Z
0\
1_
1a
0Q
0O
1`
1P
1I
1G
0F
0D
0C
0B
0@
1=
0;
0<
0'
0)
0-
0+
1(
0R
0$
#2400000
0!
06
07
1.
#2450000
1!
16
17
0.
1K
1T
0U
0W
0X
0Y
0[
1^
0_
1Q
1b
0`
1L
0P
0H
0G
1E
1D
1C
1A
0>
0=
09
1<
0&
1'
1-
1*
0(
#2500000
0!
06
07
1.
#2550000
1!
16
17
0.
0K
1J
0S
0T
1V
1W
1X
1Z
0^
1_
0a
0Q
1M
0]
1P
0I
1H
1F
0E
0D
1B
1>
1=
1;
1?
1&
0'
1)
0-
1,
0%
#2600000
0!
06
07
1.
#2650000
1!
16
17
0.
1K
1S
1U
0V
0W
1Y
1\
1^
1Q
0b
1]
1`
0L
1N
0P
1I
1G
0F
1E
0C
1@
0>
19
0?
0<
0&
1-
0*
1%
1(
#2700000
0!
06
07
1.
#2750000
1!
16
17
0.
0K
0J
1T
0U
1V
0X
1[
0\
0_
1a
0Q
1O
0M
1b
0]
1L
0N
0H
0G
1F
1D
0A
0@
0=
0;
09
1?
1'
0)
0-
1+
0,
1*
0%
#2800000
0!
06
07
1.
#2850000
1!
16
17
0.
1J
0S
0T
1U
1W
0Z
0[
1\
0^
0a
0O
1M
0`
0I
1P
1H
1G
0E
0B
1A
1@
1>
1;
1<
1&
1)
0+
1,
0(
#2900000
0!
06
07
1.
#2950000
1!
16
17
0.
1K
1S
1T
0V
0Y
1Z
1[
1_
1Q
0b
1]
1`
0L
1N
0P
1I
0H
0F
1C
1B
0A
1=
19
0?
0<
0'
1-
0*
1%
1(
#3000000
0!
06
07
1.
#3050000
1!
16
17
0.
0K
0J
0S
0U
1X
1Y
0Z
0\
1^
0_
1a
0Q
1O
0M
1b
1P
0I
0G
0D
0C
0B
0@
0>
0=
0;
09
0&
1'
0)
0-
1+
0,
1*
#3100000
0!
06
07
1.
#3150000
1!
16
17
0.
1K
0T
0W
0X
0Y
0[
0^
0a
1Q
0b
0]
0`
0N
0P
1H
1E
1D
1C
1A
1>
1;
19
1?
1<
1&
1)
1-
0*
0%
0(
1R
1$
#3200000
0!
06
07
1.
#3250000
1!
16
17
0.
0K
1S
1V
1W
1X
1Z
1\
1_
1a
0Q
0O
1]
1`
1P
1I
1F
0E
0D
1B
1@
1=
0;
0?
0<
0'
0)
0-
0+
1%
1(
0R
0$
#3300000
0!
06
07
1.
#3350000
1!
16
17
0.
1K
1U
0V
0W
1Y
1[
0\
1^
0_
1Q
1b
0`
1L
0P
1G
0F
1E
0C
0A
0@
0>
0=
09
1<
0&
1'
1-
1*
0(
#3400000
0!
06
07
1.
#3450000
1!
16
17
0.
0K
1J
1T
0U
1V
0X
0Z
0[
0^
1_
0a
0Q
1M
0]
0H
0G
1F
1D
0B
1A
1>
1=
1;
1?
1&
0'
1)
0-
1,
0%
#3500000
0!
06
07
1.
#3550000
1!
16
17
0.
0S
0T
1U
1W
0Y
1Z
1\
1^
1]
1`
0I
1P
1H
1G
0E
1C
1B
1@
0>
0?
0<
0&
1%
1(
#3600000
0!
06
07
1.
#3650000
1!
16
17
0.
1K
1S
1T
0V
1X
1Y
1[
0\
0_
1Q
0b
0]
0L
1N
0P
1I
0H
0F
0D
0C
0A
0@
0=
19
1?
1'
1-
0*
0%
#3680000
0#
0:
1.
0K
0J
0S
0T
0U
0W
0X
0Y
0Z
0[
0^
0Q
0M
0`
0N
0I
1H
0G
1E
1D
1C
0B
1A
1>
1<
1&
0-
0,
0(
#3700000
0!
06
07
0.
#3750000
1!
16
17
1.
#3800000
0!
06
07
0.
#3840000
1#
1:
1.
#3850000
1!
16
17
0.
1S
1V
1W
1X
1Z
1\
1_
1a
1]
1`
1I
1P
1F
0E
0D
1B
1@
1=
0;
0?
0<
0'
0)
1%
1(
#3900000
0!
06
07
1.
#3950000
1!
16
17
0.
1K
1U
0V
0W
1Y
1[
0\
1^
0_
1Q
1b
0`
1L
0P
1G
0F
1E
0C
0A
0@
0>
0=
09
1<
0&
1'
1-
1*
0(
#4000000
0!
06
07
1.
#4050000
1!
16
17
0.
0K
1J
1T
0U
1V
0X
0Z
0[
0^
1_
0a
0Q
1M
0]
0H
0G
1F
1D
0B
1A
1>
1=
1;
1?
1&
0'
1)
0-
1,
0%
#4100000
0!
06
07
1.
#4150000
1!
16
17
0.
0S
0T
1U
1W
0Y
1Z
1\
1^
1]
1`
0I
1P
1H
1G
0E
1C
1B
1@
0>
0?
0<
0&
1%
1(
#4200000
0!
06
07
1.
#4250000
1!
16
17
0.
1K
1S
1T
0V
1X
1Y
1[
0\
0_
1Q
0b
0]
0L
1N
0P
1I
0H
0F
0D
0C
0A
0@
0=
19
1?
1'
1-
0*
0%
#4300000
0!
06
07
1.
#4350000
1!
16
17
0.
0K
0J
0S
0U
0W
0X
0Z
0[
1\
0^
1a
0Q
1O
0M
1b
1P
0I
0G
1E
1D
0B
1A
1@
1>
0;
09
1&
0)
0-
1+
0,
1*
#4400000
0!
06
07
1.
#4450000
1!
16
17
0.
1K
0T
1V
1W
0Y
1Z
1[
0a
1Q
0b
1]
0`
0N
0P
1H
1F
0E
1C
1B
0A
1;
19
0?
1<
1)
1-
0*
1%
0(
1R
1$
#4500000
0!
06
07
1.
#4550000
1!
16
17
0.
0K
1S
1U
0V
1X
1Y
0Z
0\
1_
1a
0Q
0O
1`
1P
1I
1G
0F
0D
0C
0B
0@
1=
0;
0<
0'
0)
0-
0+
1(
0R
0$
#4600000
0!
06
07
1.
#4650000
1!
16
17
0.
1K
1T
0U
0W
0X
0Y
0[
1^
0_
1Q
1b
0`
1L
0P
0H
0G
1E
1D
1C
1A
0>
0=
09
1<
0&
1'
1-
1*
0(
#4700000
0!
06
07
1.
#4750000
1!
16
17
0.
0K
1J
0S
0T
1V
1W
1X
1Z
0^
1_
0a
0Q
1M
0]
1P
0I
1H
1F
0E
0D
1B
1>
1=
1;
1?
1&
0'
1)
0-
1,
0%
#4800000
0!
06
07
1.
#4850000
1!
16
17
0.
1K
1S
1U
0V
0W
1Y
1\
1^
1Q
0b
1]
1`
0L
1N
0P
1I
1G
0F
1E
0C
1@
0>
19
0?
0<
0&
1-
0*
1%
1(
#4900000
0!
06
07
1.
#4950000
1!
16
17
0.
0K
0J
1T
0U
1V
0X
1[
0\
0_
1a
0Q
1O
0M
1b
0]
1L
0N
0H
0G
1F
1D
0A
0@
0=
0;
09
1?
1'
0)
0-
1+
0,
1*
0%
#5000000
0!
06
07
1.
#5050000
1!
16
17
0.
1J
0S
0T
1U
1W
0Z
0[
1\
0^
0a
0O
1M
0`
0I
1P
1H
1G
0E
0B
1A
1@
1>
1;
1<
1&
1)
0+
1,
0(
#5100000
0!
06
07
1.
#5150000
1!
16
17
0.
1K
1S
1T
0V
0Y
1Z
1[
1_
1Q
0b
1]
1`
0L
1N
0P
1I
0H
0F
1C
1B
0A
1=
19
0?
0<
0'
1-
0*
1%
1(
#5200000
0!
06
07
1.
#5250000
1!
16
17
0.
0K
0J
0S
0U
1X
1Y
0Z
0\
1^
0_
1a
0Q
1O
0M
1b
1P
0I
0G
0D
0C
0B
0@
0>
0=
0;
09
0&
1'
0)
0-
1+
0,
1*
#5300000
0!
06
07
1.
#5350000
1!
16
17
0.
1K
0T
0W
0X
0Y
0[
0^
0a
1Q
0b
0]
0`
0N
0P
1H
1E
1D
1C
1A
1>
1;
19
1?
1<
1&
1)
1-
0*
0%
0(
1R
1$
#5400000
0!
06
07
1.
#5450000
1!
16
17
0.
0K
1S
1V
1W
1X
1Z
1\
1_
1a
0Q
0O
1]
1`
1P
1I
1F
0E
0D
1B
1@
1=
0;
0?
0<
0'
0)
0-
0+
1%
1(
0R
0$
#5500000
0!
06
07
1.
#5550000
1!
16
17
0.
1K
1U
0V
0W
1Y
1[
0\
1^
0_
1Q
1b
0`
1L
0P
1G
0F
1E
0C
0A
0@
0>
0=
09
1<
0&
1'
1-
1*
0(
#5600000
0!
06
07
1.
#5650000
1!
16
17
0.
0K
1J
1T
0U
1V
0X
0Z
0[
0^
1_
0a
0Q
1M
0]
0H
0G
1F
1D
0B
1A
1>
1=
1;
1?
1&
0'
1)
0-
1,
0%
#5700000
0!
06
07
1.
#5750000
1!
16
17
0.
0S
0T
1U
1W
0Y
1Z
1\
1^
1]
1`
0I
1P
1H
1G
0E
1C
1B
1@
0>
0?
0<
0&
1%
1(
#5800000
0!
06
07
1.
#5850000
1!
16
17
0.
1K
1S
1T
0V
1X
1Y
1[
0\
0_
1Q
0b
0]
0L
1N
0P
1I
0H
0F
0D
0C
0A
0@
0=
19
1?
1'
1-
0*
0%
#5900000
0!
06
07
1.
#5950000
1!
16
17
0.
0K
0J
0S
0U
0W
0X
0Z
0[
1\
0^
1a
0Q
1O
0M
1b
1P
0I
0G
1E
1D
0B
1A
1@
1>
0;
09
1&
0)
0-
1+
0,
1*
#6000000
0!
06
07
1.
#6050000
1!
16
17
0.
1K
0T
1V
1W
0Y
1Z
1[
0a
1Q
0b
1]
0`
0N
0P
1H
1F
0E
1C
1B
0A
1;
19
0?
1<
1)
1-
0*
1%
0(
1R
1$
#6100000
0!
06
07
1.
#6150000
1!
16
17
0.
0K
1S
1U
0V
1X
1Y
0Z
0\
1_
1a
0Q
0O
1`
1P
1I
1G
0F
0D
0C
0B
0@
1=
0;
0<
0'
0)
0-
0+
1(
0R
0$
#6200000
0!
06
07
1.
#6250000
1!
16
17
0.
1K
1T
0U
0W
0X
0Y
0[
1^
0_
1Q
1b
0`
1L
0P
0H
0G
1E
1D
1C
1A
0>
0=
09
1<
0&
1'
1-
1*
0(
#6300000
0!
06
07
1.
#6350000
1!
16
17
0.
0K
1J
0S
0T
1V
1W
1X
1Z
0^
1_
0a
0Q
1M
0]
1P
0I
1H
1F
0E
0D
1B
1>
1=
1;
1?
1&
0'
1)
0-
1,
0%
#6400000
0!
06
07
1.
#6450000
1!
16
17
0.
1K
1S
1U
0V
0W
1Y
1\
1^
1Q
0b
1]
1`
0L
1N
0P
1I
1G
0F
1E
0C
1@
0>
19
0?
0<
0&
1-
0*
1%
1(
#6500000
0!
06
07
1.
#6550000
1!
16
17
0.
0K
0J
1T
0U
1V
0X
1[
0\
0_
1a
0Q
1O
0M
1b
0]
1L
0N
0H
0G
1F
1D
0A
0@
0=
0;
09
1?
1'
0)
0-
1+
0,
1*
0%
#6600000
0!
06
07
1.
#6650000
1!
16
17
0.
1J
0S
0T
1U
1W
0Z
0[
1\
0^
0a
0O
1M
0`
0I
1P
1H
1G
0E
0B
1A
1@
1>
1;
1<
1&
1)
0+
1,
0(
#6700000
0!
06
07
1.
#6750000
1!
16
17
0.
1K
1S
1T
0V
0Y
1Z
1[
1_
1Q
0b
1]
1`
0L
1N
0P
1I
0H
0F
1C
1B
0A
1=
19
0?
0<
0'
1-
0*
1%
1(
#6800000
0!
06
07
1.
#6850000
1!
16
17
0.
0K
0J
0S
0U
1X
1Y
0Z
0\
1^
0_
1a
0Q
1O
0M
1b
1P
0I
0G
0D
0C
0B
0@
0>
0=
0;
09
0&
1'
0)
0-
1+
0,
1*
#6900000
0!
06
07
1.
#6950000
1!
16
17
0.
1K
0T
0W
0X
0Y
0[
0^
0a
1Q
0b
0]
0`
0N
0P
1H
1E
1D
1C
1A
1>
1;
19
1?
1<
1&
1)
1-
0*
0%
0(
1R
1$
#7000000
0!
06
07
1.
#7050000
1!
16
17
0.
0K
1S
1V
1W
1X
1Z
1\
1_
1a
0Q
0O
1]
1`
1P
1I
1F
0E
0D
1B
1@
1=
0;
0?
0<
0'
0)
0-
0+
1%
1(
0R
0$
#7100000
0!
06
07
1.
#7150000
1!
16
17
0.
1K
1U
0V
0W
1Y
1[
0\
1^
0_
1Q
1b
0`
1L
0P
1G
0F
1E
0C
0A
0@
0>
0=
09
1<
0&
1'
1-
1*
0(
#7200000
0!
06
07
1.
#7250000
1!
16
17
0.
0K
1J
1T
0U
1V
0X
0Z
0[
0^
1_
0a
0Q
1M
0]
0H
0G
1F
1D
0B
1A
1>
1=
1;
1?
1&
0'
1)
0-
1,
0%
#7300000
0!
06
07
1.
#7350000
1!
16
17
0.
0S
0T
1U
1W
0Y
1Z
1\
1^
1]
1`
0I
1P
1H
1G
0E
1C
1B
1@
0>
0?
0<
0&
1%
1(
#7400000
0!
06
07
1.
#7450000
1!
16
17
0.
1K
1S
1T
0V
1X
1Y
1[
0\
0_
1Q
0b
0]
0L
1N
0P
1I
0H
0F
0D
0C
0A
0@
0=
19
1?
1'
1-
0*
0%
#7500000
0!
06
07
1.
#7550000
1!
16
17
0.
0K
0J
0S
0U
0W
0X
0Z
0[
1\
0^
1a
0Q
1O
0M
1b
1P
0I
0G
1E
1D
0B
1A
1@
1>
0;
09
1&
0)
0-
1+
0,
1*
#7600000
0!
06
07
1.
#7650000
1!
16
17
0.
1K
0T
1V
1W
0Y
1Z
1[
0a
1Q
0b
1]
0`
0N
0P
1H
1F
0E
1C
1B
0A
1;
19
0?
1<
1)
1-
0*
1%
0(
1R
1$
#7700000
0!
06
07
1.
#7750000
1!
16
17
0.
0K
1S
1U
0V
1X
1Y
0Z
0\
1_
1a
0Q
0O
1`
1P
1I
1G
0F
0D
0C
0B
0@
1=
0;
0<
0'
0)
0-
0+
1(
0R
0$
#7800000
0!
06
07
1.
#7850000
1!
16
17
0.
1K
1T
0U
0W
0X
0Y
0[
1^
0_
1Q
1b
0`
1L
0P
0H
0G
1E
1D
1C
1A
0>
0=
09
1<
0&
1'
1-
1*
0(
#7900000
0!
06
07
1.
#7950000
1!
16
17
0.
0K
1J
0S
0T
1V
1W
1X
1Z
0^
1_
0a
0Q
1M
0]
1P
0I
1H
1F
0E
0D
1B
1>
1=
1;
1?
1&
0'
1)
0-
1,
0%
#8000000
0!
06
07
1.
#8050000
1!
16
17
0.
1K
1S
1U
0V
0W
1Y
1\
1^
1Q
0b
1]
1`
0L
1N
0P
1I
1G
0F
1E
0C
1@
0>
19
0?
0<
0&
1-
0*
1%
1(
#8100000
0!
06
07
1.
#8150000
1!
16
17
0.
0K
0J
1T
0U
1V
0X
1[
0\
0_
1a
0Q
1O
0M
1b
0]
1L
0N
0H
0G
1F
1D
0A
0@
0=
0;
09
1?
1'
0)
0-
1+
0,
1*
0%
#8200000
0!
06
07
1.
#8250000
1!
16
17
0.
1J
0S
0T
1U
1W
0Z
0[
1\
0^
0a
0O
1M
0`
0I
1P
1H
1G
0E
0B
1A
1@
1>
1;
1<
1&
1)
0+
1,
0(
#8300000
0!
06
07
1.
#8350000
1!
16
17
0.
1K
1S
1T
0V
0Y
1Z
1[
1_
1Q
0b
1]
1`
0L
1N
0P
1I
0H
0F
1C
1B
0A
1=
19
0?
0<
0'
1-
0*
1%
1(
#8400000
0!
06
07
1.
#8450000
1!
16
17
0.
0K
0J
0S
0U
1X
1Y
0Z
0\
1^
0_
1a
0Q
1O
0M
1b
1P
0I
0G
0D
0C
0B
0@
0>
0=
0;
09
0&
1'
0)
0-
1+
0,
1*
#8500000
0!
06
07
1.
#8550000
1!
16
17
0.
1K
0T
0W
0X
0Y
0[
0^
0a
1Q
0b
0]
0`
0N
0P
1H
1E
1D
1C
1A
1>
1;
19
1?
1<
1&
1)
1-
0*
0%
0(
1R
1$
#8600000
0!
06
07
1.
#8650000
1!
16
17
0.
0K
1S
1V
1W
1X
1Z
1\
1_
1a
0Q
0O
1]
1`
1P
1I
1F
0E
0D
1B
1@
1=
0;
0?
0<
0'
0)
0-
0+
1%
1(
0R
0$
#8700000
0!
06
07
1.
#8750000
1!
16
17
0.
1K
1U
0V
0W
1Y
1[
0\
1^
0_
1Q
1b
0`
1L
0P
1G
0F
1E
0C
0A
0@
0>
0=
09
1<
0&
1'
1-
1*
0(
#8800000
0!
06
07
1.
#8850000
1!
16
17
0.
0K
1J
1T
0U
1V
0X
0Z
0[
0^
1_
0a
0Q
1M
0]
0H
0G
1F
1D
0B
1A
1>
1=
1;
1?
1&
0'
1)
0-
1,
0%
#8900000
0!
06
07
1.
#8950000
1!
16
17
0.
0S
0T
1U
1W
0Y
1Z
1\
1^
1]
1`
0I
1P
1H
1G
0E
1C
1B
1@
0>
0?
0<
0&
1%
1(
#9000000
0!
06
07
1.
#9050000
1!
16
17
0.
1K
1S
1T
0V
1X
1Y
1[
0\
0_
1Q
0b
0]
0L
1N
0P
1I
0H
0F
0D
0C
0A
0@
0=
19
1?
1'
1-
0*
0%
#9100000
0!
06
07
1.
#9150000
1!
16
17
0.
0K
0J
0S
0U
0W
0X
0Z
0[
1\
0^
1a
0Q
1O
0M
1b
1P
0I
0G
1E
1D
0B
1A
1@
1>
0;
09
1&
0)
0-
1+
0,
1*
#9200000
0!
06
07
1.
#9250000
1!
16
17
0.
1K
0T
1V
1W
0Y
1Z
1[
0a
1Q
0b
1]
0`
0N
0P
1H
1F
0E
1C
1B
0A
1;
19
0?
1<
1)
1-
0*
1%
0(
1R
1$
#9300000
0!
06
07
1.
#9350000
1!
16
17
0.
0K
1S
1U
0V
1X
1Y
0Z
0\
1_
1a
0Q
0O
1`
1P
1I
1G
0F
0D
0C
0B
0@
1=
0;
0<
0'
0)
0-
0+
1(
0R
0$
#9400000
0!
06
07
1.
#9450000
1!
16
17
0.
1K
1T
0U
0W
0X
0Y
0[
1^
0_
1Q
1b
0`
1L
0P
0H
0G
1E
1D
1C
1A
0>
0=
09
1<
0&
1'
1-
1*
0(
#9500000
0!
06
07
1.
#9550000
1!
16
17
0.
0K
1J
0S
0T
1V
1W
1X
1Z
0^
1_
0a
0Q
1M
0]
1P
0I
1H
1F
0E
0D
1B
1>
1=
1;
1?
1&
0'
1)
0-
1,
0%
#9600000
0!
06
07
1.
#9650000
1!
16
17
0.
1K
1S
1U
0V
0W
1Y
1\
1^
1Q
0b
1]
1`
0L
1N
0P
1I
1G
0F
1E
0C
1@
0>
19
0?
0<
0&
1-
0*
1%
1(
#9700000
0!
06
07
1.
#9750000
1!
16
17
0.
0K
0J
1T
0U
1V
0X
1[
0\
0_
1a
0Q
1O
0M
1b
0]
1L
0N
0H
0G
1F
1D
0A
0@
0=
0;
09
1?
1'
0)
0-
1+
0,
1*
0%
#9800000
0!
06
07
1.
#9850000
1!
16
17
0.
1J
0S
0T
1U
1W
0Z
0[
1\
0^
0a
0O
1M
0`
0I
1P
1H
1G
0E
0B
1A
1@
1>
1;
1<
1&
1)
0+
1,
0(
#9900000
0!
06
07
1.
#9950000
1!
16
17
0.
1K
1S
1T
0V
0Y
1Z
1[
1_
1Q
0b
1]
1`
0L
1N
0P
1I
0H
0F
1C
1B
0A
1=
19
0?
0<
0'
1-
0*
1%
1(
