Exp6/simulation/qsim/digitalclock.msim.vcd
$comment
	File created using the following command:
		vcd file digitalclock.msim.vcd -direction
$end
$date
	Fri Dec 07 22:23:26 2018
$end
$version
	ModelSim Version 10.1d
$end
$timescale
	1ps
$end
$scope module digitalclock_vlg_vec_tst $end
$var reg 1 ! ad_hr $end
$var reg 1 " ad_min $end
$var reg 1 # ad_sec $end
$var reg 1 $ clk $end
$var reg 1 % rst $end
$var wire 1 & Hr_g [6] $end
$var wire 1 ' Hr_g [5] $end
$var wire 1 ( Hr_g [4] $end
$var wire 1 ) Hr_g [3] $end
$var wire 1 * Hr_g [2] $end
$var wire 1 + Hr_g [1] $end
$var wire 1 , Hr_g [0] $end
$var wire 1 - Hr_s [6] $end
$var wire 1 . Hr_s [5] $end
$var wire 1 / Hr_s [4] $end
$var wire 1 0 Hr_s [3] $end
$var wire 1 1 Hr_s [2] $end
$var wire 1 2 Hr_s [1] $end
$var wire 1 3 Hr_s [0] $end
$var wire 1 4 Min_g [6] $end
$var wire 1 5 Min_g [5] $end
$var wire 1 6 Min_g [4] $end
$var wire 1 7 Min_g [3] $end
$var wire 1 8 Min_g [2] $end
$var wire 1 9 Min_g [1] $end
$var wire 1 : Min_g [0] $end
$var wire 1 ; Min_s [6] $end
$var wire 1 < Min_s [5] $end
$var wire 1 = Min_s [4] $end
$var wire 1 > Min_s [3] $end
$var wire 1 ? Min_s [2] $end
$var wire 1 @ Min_s [1] $end
$var wire 1 A Min_s [0] $end
$var wire 1 B Sec_g [6] $end
$var wire 1 C Sec_g [5] $end
$var wire 1 D Sec_g [4] $end
$var wire 1 E Sec_g [3] $end
$var wire 1 F Sec_g [2] $end
$var wire 1 G Sec_g [1] $end
$var wire 1 H Sec_g [0] $end
$var wire 1 I Sec_s [6] $end
$var wire 1 J Sec_s [5] $end
$var wire 1 K Sec_s [4] $end
$var wire 1 L Sec_s [3] $end
$var wire 1 M Sec_s [2] $end
$var wire 1 N Sec_s [1] $end
$var wire 1 O Sec_s [0] $end
$var wire 1 P cnt_hr [7] $end
$var wire 1 Q cnt_hr [6] $end
$var wire 1 R cnt_hr [5] $end
$var wire 1 S cnt_hr [4] $end
$var wire 1 T cnt_hr [3] $end
$var wire 1 U cnt_hr [2] $end
$var wire 1 V cnt_hr [1] $end
$var wire 1 W cnt_hr [0] $end
$var wire 1 X cnt_min [7] $end
$var wire 1 Y cnt_min [6] $end
$var wire 1 Z cnt_min [5] $end
$var wire 1 [ cnt_min [4] $end
$var wire 1 \ cnt_min [3] $end
$var wire 1 ] cnt_min [2] $end
$var wire 1 ^ cnt_min [1] $end
$var wire 1 _ cnt_min [0] $end
$var wire 1 ` cnt_sec [7] $end
$var wire 1 a cnt_sec [6] $end
$var wire 1 b cnt_sec [5] $end
$var wire 1 c cnt_sec [4] $end
$var wire 1 d cnt_sec [3] $end
$var wire 1 e cnt_sec [2] $end
$var wire 1 f cnt_sec [1] $end
$var wire 1 g cnt_sec [0] $end
$var wire 1 h sampler $end
$scope module i1 $end
$var wire 1 i gnd $end
$var wire 1 j vcc $end
$var wire 1 k unknown $end
$var tri1 1 l devclrn $end
$var tri1 1 m devpor $end
$var tri1 1 n devoe $end
$var wire 1 o ad_hr~input_o $end
$var wire 1 p ad_min~input_o $end
$var wire 1 q ad_sec~input_o $end
$var wire 1 r Hr_s[0]~output_o $end
$var wire 1 s Hr_s[1]~output_o $end
$var wire 1 t Hr_s[2]~output_o $end
$var wire 1 u Hr_s[3]~output_o $end
$var wire 1 v Hr_s[4]~output_o $end
$var wire 1 w Hr_s[5]~output_o $end
$var wire 1 x Hr_s[6]~output_o $end
$var wire 1 y Hr_g[0]~output_o $end
$var wire 1 z Hr_g[1]~output_o $end
$var wire 1 { Hr_g[2]~output_o $end
$var wire 1 | Hr_g[3]~output_o $end
$var wire 1 } Hr_g[4]~output_o $end
$var wire 1 ~ Hr_g[5]~output_o $end
$var wire 1 !! Hr_g[6]~output_o $end
$var wire 1 "! Min_s[0]~output_o $end
$var wire 1 #! Min_s[1]~output_o $end
$var wire 1 $! Min_s[2]~output_o $end
$var wire 1 %! Min_s[3]~output_o $end
$var wire 1 &! Min_s[4]~output_o $end
$var wire 1 '! Min_s[5]~output_o $end
$var wire 1 (! Min_s[6]~output_o $end
$var wire 1 )! Min_g[0]~output_o $end
$var wire 1 *! Min_g[1]~output_o $end
$var wire 1 +! Min_g[2]~output_o $end
$var wire 1 ,! Min_g[3]~output_o $end
$var wire 1 -! Min_g[4]~output_o $end
$var wire 1 .! Min_g[5]~output_o $end
$var wire 1 /! Min_g[6]~output_o $end
$var wire 1 0! Sec_s[0]~output_o $end
$var wire 1 1! Sec_s[1]~output_o $end
$var wire 1 2! Sec_s[2]~output_o $end
$var wire 1 3! Sec_s[3]~output_o $end
$var wire 1 4! Sec_s[4]~output_o $end
$var wire 1 5! Sec_s[5]~output_o $end
$var wire 1 6! Sec_s[6]~output_o $end
$var wire 1 7! Sec_g[0]~output_o $end
$var wire 1 8! Sec_g[1]~output_o $end
$var wire 1 9! Sec_g[2]~output_o $end
$var wire 1 :! Sec_g[3]~output_o $end
$var wire 1 ;! Sec_g[4]~output_o $end
$var wire 1 <! Sec_g[5]~output_o $end
$var wire 1 =! Sec_g[6]~output_o $end
$var wire 1 >! cnt_sec[0]~output_o $end
$var wire 1 ?! cnt_sec[1]~output_o $end
$var wire 1 @! cnt_sec[2]~output_o $end
$var wire 1 A! cnt_sec[3]~output_o $end
$var wire 1 B! cnt_sec[4]~output_o $end
$var wire 1 C! cnt_sec[5]~output_o $end
$var wire 1 D! cnt_sec[6]~output_o $end
$var wire 1 E! cnt_sec[7]~output_o $end
$var wire 1 F! cnt_min[0]~output_o $end
$var wire 1 G! cnt_min[1]~output_o $end
$var wire 1 H! cnt_min[2]~output_o $end
$var wire 1 I! cnt_min[3]~output_o $end
$var wire 1 J! cnt_min[4]~output_o $end
$var wire 1 K! cnt_min[5]~output_o $end
$var wire 1 L! cnt_min[6]~output_o $end
$var wire 1 M! cnt_min[7]~output_o $end
$var wire 1 N! cnt_hr[0]~output_o $end
$var wire 1 O! cnt_hr[1]~output_o $end
$var wire 1 P! cnt_hr[2]~output_o $end
$var wire 1 Q! cnt_hr[3]~output_o $end
$var wire 1 R! cnt_hr[4]~output_o $end
$var wire 1 S! cnt_hr[5]~output_o $end
$var wire 1 T! cnt_hr[6]~output_o $end
$var wire 1 U! cnt_hr[7]~output_o $end
$var wire 1 V! clk~input_o $end
$var wire 1 W! clk~inputclkctrl_outclk $end
$var wire 1 X! cnt_sec[0]~8_combout $end
$var wire 1 Y! rst~input_o $end
$var wire 1 Z! rst~inputclkctrl_outclk $end
$var wire 1 [! cnt_sec[0]~9 $end
$var wire 1 \! cnt_sec[1]~10_combout $end
$var wire 1 ]! cnt_sec[1]~reg0_q $end
$var wire 1 ^! cnt_sec[1]~11 $end
$var wire 1 _! cnt_sec[2]~12_combout $end
$var wire 1 `! cnt_sec[2]~reg0_q $end
$var wire 1 a! cnt_sec[2]~13 $end
$var wire 1 b! cnt_sec[3]~14_combout $end
$var wire 1 c! cnt_sec[3]~reg0_q $end
$var wire 1 d! cnt_sec[3]~15 $end
$var wire 1 e! cnt_sec[4]~16_combout $end
$var wire 1 f! cnt_sec[4]~reg0_q $end
$var wire 1 g! cnt_sec[4]~17 $end
$var wire 1 h! cnt_sec[5]~18_combout $end
$var wire 1 i! cnt_sec[5]~reg0_q $end
$var wire 1 j! cnt_sec[5]~19 $end
$var wire 1 k! cnt_sec[6]~20_combout $end
$var wire 1 l! cnt_sec[6]~reg0_q $end
$var wire 1 m! cnt_sec[6]~21 $end
$var wire 1 n! cnt_sec[7]~22_combout $end
$var wire 1 o! cnt_sec[7]~reg0_q $end
$var wire 1 p! LessThan0~0_combout $end
$var wire 1 q! LessThan0~1_combout $end
$var wire 1 r! cnt_sec[0]~reg0_q $end
$var wire 1 s! cnt_min[1]~10_combout $end
$var wire 1 t! cnt_min[1]~reg0_q $end
$var wire 1 u! cnt_min[1]~11 $end
$var wire 1 v! cnt_min[2]~12_combout $end
$var wire 1 w! cnt_min[2]~reg0_q $end
$var wire 1 x! cnt_min[2]~13 $end
$var wire 1 y! cnt_min[3]~14_combout $end
$var wire 1 z! cnt_min[3]~reg0_q $end
$var wire 1 {! cnt_min[3]~15 $end
$var wire 1 |! cnt_min[4]~16_combout $end
$var wire 1 }! cnt_min[4]~reg0_q $end
$var wire 1 ~! cnt_min[4]~17 $end
$var wire 1 !" cnt_min[5]~18_combout $end
$var wire 1 "" cnt_min[5]~reg0_q $end
$var wire 1 #" LessThan1~0_combout $end
$var wire 1 $" cnt_min[5]~19 $end
$var wire 1 %" cnt_min[6]~20_combout $end
$var wire 1 &" cnt_min[6]~reg0_q $end
$var wire 1 '" cnt_min[0]~7_combout $end
$var wire 1 (" cnt_min[6]~21 $end
$var wire 1 )" cnt_min[7]~22_combout $end
$var wire 1 *" cnt_min[7]~reg0_q $end
$var wire 1 +" cnt_min[0]~8_combout $end
$var wire 1 ," cnt_min[0]~9_combout $end
$var wire 1 -" cnt_min[0]~reg0_q $end
$var wire 1 ." cnt_hr[0]~8_combout $end
$var wire 1 /" cnt_hr[0]~9 $end
$var wire 1 0" cnt_hr[1]~11_combout $end
$var wire 1 1" cnt_hr[0]~10_combout $end
$var wire 1 2" cnt_hr[1]~reg0_q $end
$var wire 1 3" cnt_hr[1]~12 $end
$var wire 1 4" cnt_hr[2]~13_combout $end
$var wire 1 5" cnt_hr[2]~reg0_q $end
$var wire 1 6" cnt_hr[2]~14 $end
$var wire 1 7" cnt_hr[3]~15_combout $end
$var wire 1 8" cnt_hr[3]~reg0_q $end
$var wire 1 9" cnt_hr[3]~16 $end
$var wire 1 :" cnt_hr[4]~17_combout $end
$var wire 1 ;" cnt_hr[4]~reg0_q $end
$var wire 1 <" cnt_hr[4]~18 $end
$var wire 1 =" cnt_hr[5]~19_combout $end
$var wire 1 >" cnt_hr[5]~reg0_q $end
$var wire 1 ?" cnt_hr[5]~20 $end
$var wire 1 @" cnt_hr[6]~21_combout $end
$var wire 1 A" cnt_hr[6]~reg0_q $end
$var wire 1 B" cnt_hr[6]~22 $end
$var wire 1 C" cnt_hr[7]~23_combout $end
$var wire 1 D" cnt_hr[7]~reg0_q $end
$var wire 1 E" LessThan2~0_combout $end
$var wire 1 F" LessThan2~1_combout $end
$var wire 1 G" cnt_hr[0]~reg0_q $end
$upscope $end
$upscope $end
$enddefinitions $end
#0
$dumpvars
0!
0"
0#
0$
1%
0,
0+
0*
0)
0(
0'
0&
03
02
01
00
0/
0.
0-
0:
09
08
07
06
05
04
0A
0@
0?
0>
0=
0<
0;
0H
0G
0F
0E
0D
0C
0B
0O
0N
0M
0L
0K
0J
0I
0W
0V
0U
0T
0S
0R
0Q
0P
0_
0^
0]
0\
0[
0Z
0Y
0X
0g
0f
0e
0d
0c
0b
0a
0`
xh
0i
1j
xk
1l
1m
1n
0o
0p
0q
0r
0s
0t
0u
0v
0w
0x
0y
0z
0{
0|
0}
0~
0!!
0"!
0#!
0$!
0%!
0&!
0'!
0(!
0)!
0*!
0+!
0,!
0-!
0.!
0/!
00!
01!
02!
03!
04!
05!
06!
07!
08!
09!
0:!
0;!
0<!
0=!
0>!
0?!
0@!
0A!
0B!
0C!
0D!
0E!
0F!
0G!
0H!
0I!
0J!
0K!
0L!
0M!
0N!
0O!
0P!
0Q!
0R!
0S!
0T!
0U!
0V!
0W!
1X!
1Y!
1Z!
0[!
0\!
0]!
1^!
0_!
0`!
0a!
0b!
0c!
1d!
0e!
0f!
0g!
0h!
0i!
1j!
0k!
0l!
0m!
0n!
0o!
1p!
0q!
0r!
0s!
0t!
0u!
0v!
0w!
1x!
0y!
0z!
0{!
0|!
0}!
1~!
0!"
0""
1#"
0$"
0%"
0&"
0'"
1("
0)"
0*"
0+"
0,"
0-"
1."
0/"
00"
01"
02"
13"
04"
05"
06"
07"
08"
19"
0:"
0;"
0<"
0="
0>"
1?"
0@"
0A"
0B"
0C"
0D"
1E"
0F"
0G"
$end
#2500
1$
1V!
1W!
0h
1r!
1[!
0X!
1>!
1g
1\!
#5000
0$
0V!
0W!
1h
#7500
1$
1V!
1W!
0h
0r!
1]!
0[!
1X!
0^!
0\!
0>!
1?!
0g
1f
1^!
1\!
1_!
0_!
#10000
0$
0V!
0W!
1h
#12500
1$
1V!
1W!
0h
1r!
1[!
0X!
1>!
1g
0^!
0\!
1_!
#15000
0$
0V!
0W!
1h
#17500
1$
1V!
1W!
0h
0r!
1`!
0]!
0[!
1X!
1a!
0_!
1^!
1\!
0>!
1@!
0?!
0g
1e
0f
0\!
1b!
0a!
1_!
0b!
#20000
0$
0V!
0W!
1h
#22500
1$
1V!
1W!
0h
1r!
1[!
0X!
1>!
1g
1\!
#25000
0$
0V!
0W!
1h
#27500
1$
1V!
1W!
0h
0r!
1]!
0[!
1X!
0^!
0\!
0>!
1?!
0g
1f
1^!
1\!
1a!
0_!
0a!
1_!
1b!
0b!
#30000
0$
0V!
0W!
1h
#32500
1$
1V!
1W!
0h
1r!
1[!
0X!
1>!
1g
0^!
0\!
1a!
0_!
1b!
#35000
0$
0V!
0W!
1h
#37500
1$
1V!
1W!
0h
0r!
1c!
0`!
0]!
0[!
1X!
0d!
0b!
0a!
1_!
1^!
1\!
0>!
1A!
0@!
0?!
0g
1d
0e
0f
0\!
1e!
1d!
1b!
0_!
0e!
#40000
0$
0V!
0W!
1h
#42500
1$
1V!
1W!
0h
1r!
1[!
0X!
1>!
1g
1\!
#45000
0$
0V!
0W!
1h
#47500
1$
1V!
1W!
0h
0r!
1]!
0[!
1X!
0^!
0\!
0>!
1?!
0g
1f
1^!
1\!
1_!
0_!
#50000
0$
0V!
0W!
1h
#52500
1$
1V!
1W!
0h
1r!
1[!
0X!
1>!
1g
0^!
0\!
1_!
#55000
0$
0V!
0W!
1h
#57500
1$
1V!
1W!
0h
0r!
1`!
0]!
0[!
1X!
1a!
0_!
1^!
1\!
0>!
1@!
0?!
0g
1e
0f
0\!
0d!
0b!
0a!
1_!
1e!
1d!
1b!
0e!
#60000
0$
0V!
0W!
1h
#62500
1$
1V!
1W!
0h
1r!
1[!
0X!
1>!
1g
1\!
#65000
0$
0V!
0W!
1h
#67500
1$
1V!
1W!
0h
0r!
1]!
0[!
1X!
0^!
0\!
0>!
1?!
0g
1f
1^!
1\!
1a!
0_!
0a!
1_!
0d!
0b!
1d!
1b!
1e!
0e!
#70000
0$
0V!
0W!
1h
#72500
1$
1V!
1W!
0h
1r!
1[!
0X!
1>!
1g
0^!
0\!
1a!
0_!
0d!
0b!
1e!
#75000
0$
0V!
0W!
1h
#77500
1$
1V!
1W!
0h
0r!
1f!
0c!
0`!
0]!
0[!
1X!
1g!
0e!
1d!
1b!
0a!
1_!
1^!
1\!
0>!
1B!
0A!
0@!
0?!
0g
1c
0d
0e
0f
0\!
1h!
0g!
1e!
0b!
0_!
0h!
#80000
0$
0V!
0W!
1h
#82500
1$
1V!
1W!
0h
1r!
1[!
0X!
1>!
1g
1\!
#85000
0$
0V!
0W!
1h
#87500
1$
1V!
1W!
0h
0r!
1]!
0[!
1X!
0^!
0\!
0>!
1?!
0g
1f
1^!
1\!
1_!
0_!
#90000
0$
0V!
0W!
1h
#92500
1$
1V!
1W!
0h
1r!
1[!
0X!
1>!
1g
0^!
0\!
1_!
#95000
0$
0V!
0W!
1h
#97500
1$
1V!
1W!
0h
0r!
1`!
0]!
0[!
1X!
1a!
0_!
1^!
1\!
0>!
1@!
0?!
0g
1e
0f
0\!
1b!
0a!
1_!
0b!
#100000
0$
0V!
0W!
1h
#102500
1$
1V!
1W!
0h
1r!
1[!
0X!
1>!
1g
1\!
#105000
0$
0V!
0W!
1h
#107500
1$
1V!
1W!
0h
0r!
1]!
0[!
1X!
0^!
0\!
0>!
1?!
0g
1f
1^!
1\!
1a!
0_!
0a!
1_!
1b!
0b!
#110000
0$
0V!
0W!
1h
#112500
1$
1V!
1W!
0h
1r!
1[!
0X!
1>!
1g
0^!
0\!
1a!
0_!
1b!
#115000
0$
0V!
0W!
1h
#117500
1$
1V!
1W!
0h
0r!
1c!
0`!
0]!
0[!
1X!
0d!
0b!
0a!
1_!
1^!
1\!
0>!
1A!
0@!
0?!
0g
1d
0e
0f
0\!
1g!
0e!
1d!
1b!
0_!
1h!
0g!
1e!
0h!
#120000
0$
0V!
0W!
1h
#122500
1$
1V!
1W!
0h
1r!
1[!
0X!
1>!
1g
1\!
#125000
0$
0V!
0W!
1h
#127500
1$
1V!
1W!
0h
0r!
1]!
0[!
1X!
0^!
0\!
0>!
1?!
0g
1f
1^!
1\!
1_!
0_!
#130000
0$
0V!
0W!
1h
#132500
1$
1V!
1W!
0h
1r!
1[!
0X!
1>!
1g
0^!
0\!
1_!
#135000
0$
0V!
0W!
1h
#137500
1$
1V!
1W!
0h
0r!
1`!
0]!
0[!
1X!
1a!
0_!
1^!
1\!
0>!
1@!
0?!
0g
1e
0f
0\!
0d!
0b!
0a!
1_!
1g!
0e!
1d!
1b!
1h!
0g!
1e!
0h!
#140000
0$
0V!
0W!
1h
#142500
1$
1V!
1W!
0h
1r!
1[!
0X!
1>!
1g
1\!
#145000
0$
0V!
0W!
1h
#147500
1$
1V!
1W!
0h
0r!
1]!
0[!
1X!
0^!
0\!
0>!
1?!
0g
1f
1^!
1\!
1a!
0_!
0a!
1_!
0d!
0b!
1d!
1b!
1g!
0e!
0g!
1e!
1h!
0h!
#150000
0$
0V!
0W!
1h
#152500
1$
1V!
1W!
0h
1r!
1[!
0X!
1>!
1g
0^!
0\!
1a!
0_!
0d!
0b!
1g!
0e!
1h!
#155000
0$
0V!
0W!
1h
#157500
1$
1V!
1W!
0h
0r!
1i!
0f!
0c!
0`!
0]!
0[!
1X!
0j!
0h!
0g!
1e!
1d!
1b!
0a!
1_!
1^!
1\!
0>!
1C!
0B!
0A!
0@!
0?!
0g
1b
0c
0d
0e
0f
0\!
1k!
1j!
1h!
0e!
0b!
0_!
0k!
#160000
0$
0V!
0W!
1h
#162500
1$
1V!
1W!
0h
1r!
1[!
0X!
1>!
1g
1\!
#165000
0$
0V!
0W!
1h
#167500
1$
1V!
1W!
0h
0r!
1]!
0[!
1X!
0^!
0\!
0>!
1?!
0g
1f
1^!
1\!
1_!
0_!
#170000
0$
0V!
0W!
1h
#172500
1$
1V!
1W!
0h
1r!
1[!
0X!
1>!
1g
0^!
0\!
1_!
#175000
0$
0V!
0W!
1h
#177500
1$
1V!
1W!
0h
0r!
1`!
0]!
0[!
1X!
1a!
0_!
1^!
1\!
0>!
1@!
0?!
0g
1e
0f
0\!
1b!
0a!
1_!
0b!
#180000
0$
0V!
0W!
1h
#182500
1$
1V!
1W!
0h
1r!
1[!
0X!
1>!
1g
1\!
#185000
0$
0V!
0W!
1h
#187500
1$
1V!
1W!
0h
0r!
1]!
0[!
1X!
0^!
0\!
0>!
1?!
0g
1f
1^!
1\!
1a!
0_!
0a!
1_!
1b!
0b!
#190000
0$
0V!
0W!
1h
#192500
1$
1V!
1W!
0h
1r!
1[!
0X!
1>!
1g
0^!
0\!
1a!
0_!
1b!
#195000
0$
0V!
0W!
1h
#197500
1$
1V!
1W!
0h
0r!
1c!
0`!
0]!
0[!
1X!
0d!
0b!
0a!
1_!
1^!
1\!
0>!
1A!
0@!
0?!
0g
1d
0e
0f
0\!
1e!
1d!
1b!
0_!
0e!
#200000
0$
0V!
0W!
1h
#202500
1$
1V!
1W!
0h
1r!
1[!
0X!
1>!
1g
1\!
#205000
0$
0V!
0W!
1h
#207500
1$
1V!
1W!
0h
0r!
1]!
0[!
1X!
0^!
0\!
0>!
1?!
0g
1f
1^!
1\!
1_!
0_!
#210000
0$
0V!
0W!
1h
#212500
1$
1V!
1W!
0h
1r!
1[!
0X!
1>!
1g
0^!
0\!
1_!
#215000
0$
0V!
0W!
1h
#217500
1$
1V!
1W!
0h
0r!
1`!
0]!
0[!
1X!
1a!
0_!
1^!
1\!
0>!
1@!
0?!
0g
1e
0f
0\!
0d!
0b!
0a!
1_!
1e!
1d!
1b!
0e!
#220000
0$
0V!
0W!
1h
#222500
1$
1V!
1W!
0h
1r!
1[!
0X!
1>!
1g
1\!
#225000
0$
0V!
0W!
1h
#227500
1$
1V!
1W!
0h
0r!
1]!
0[!
1X!
0^!
0\!
0>!
1?!
0g
1f
1^!
1\!
1a!
0_!
0a!
1_!
0d!
0b!
1d!
1b!
1e!
0e!
#230000
0$
0V!
0W!
1h
#232500
1$
1V!
1W!
0h
1r!
1[!
0X!
1>!
1g
0^!
0\!
1a!
0_!
0d!
0b!
1e!
#235000
0$
0V!
0W!
1h
#237500
1$
1V!
1W!
0h
0r!
1f!
0c!
0`!
0]!
0[!
1X!
1g!
0e!
1d!
1b!
0a!
1_!
1^!
1\!
0>!
1B!
0A!
0@!
0?!
0g
1c
0d
0e
0f
0\!
0j!
0h!
0g!
1e!
0b!
0_!
1k!
1j!
1h!
0k!
#240000
0$
0V!
0W!
1h
#242500
1$
1V!
1W!
0h
1r!
1[!
0X!
1>!
1g
1\!
#245000
0$
0V!
0W!
1h
#247500
1$
1V!
1W!
0h
0r!
1]!
0[!
1X!
0^!
0\!
0>!
1?!
0g
1f
1^!
1\!
1_!
0_!
#250000
0$
0V!
0W!
1h
#252500
1$
1V!
1W!
0h
1r!
1[!
0X!
1>!
1g
0^!
0\!
1_!
#255000
0$
0V!
0W!
1h
#257500
1$
1V!
1W!
0h
0r!
1`!
0]!
0[!
1X!
1a!
0_!
1^!
1\!
0>!
1@!
0?!
0g
1e
0f
0\!
1b!
0a!
1_!
0b!
#260000
0$
0V!
0W!
1h
#262500
1$
1V!
1W!
0h
1r!
1[!
0X!
1>!
1g
1\!
#265000
0$
0V!
0W!
1h
#267500
1$
1V!
1W!
0h
0r!
1]!
0[!
1X!
0^!
0\!
0>!
1?!
0g
1f
1^!
1\!
1a!
0_!
0a!
1_!
1b!
0b!
#270000
0$
0V!
0W!
1h
#272500
1$
1V!
1W!
0h
1r!
1[!
0X!
1>!
1g
0^!
0\!
1a!
0_!
1b!
#275000
0$
0V!
0W!
1h
#277500
1$
1V!
1W!
0h
0r!
1c!
0`!
0]!
0[!
1X!
0d!
0b!
0a!
1_!
1^!
1\!
0>!
1A!
0@!
0?!
0g
1d
0e
0f
0\!
1g!
0e!
1d!
1b!
0_!
0j!
0h!
0g!
1e!
1k!
1j!
1h!
0k!
#280000
0$
0V!
0W!
1h
#282500
1$
1V!
1W!
0h
1r!
1[!
0X!
1>!
1g
1\!
#285000
0$
0V!
0W!
1h
#287500
1$
1V!
1W!
0h
0r!
1]!
0[!
1X!
0^!
0\!
0>!
1?!
0g
1f
1^!
1\!
1_!
0_!
#290000
0$
0V!
0W!
1h
#292500
1$
1V!
1W!
0h
1r!
1[!
0X!
1>!
1g
0^!
0\!
1_!
#295000
0$
0V!
0W!
1h
#297500
1$
1V!
1W!
0h
0r!
1`!
0]!
0[!
1X!
0p!
1a!
0_!
1^!
1\!
0>!
1@!
0?!
0g
1e
0f
0\!
1'"
1q!
0d!
0b!
0a!
1_!
1+"
1g!
0e!
1d!
1b!
1,"
0j!
0h!
0g!
1e!
1k!
1j!
1h!
0k!
#300000
0$
0V!
0W!
1h
#302500
1$
1V!
1W!
0h
1-"
0i!
0f!
0c!
0`!
0,"
1s!
1p!
0h!
0e!
0b!
0_!
1F!
0C!
0B!
0A!
0@!
1_
0b
0c
0d
0e
0'"
0q!
0+"
1,"
#305000
0$
0V!
0W!
1h
#307500
1$
1V!
1W!
0h
1r!
1[!
0X!
1>!
1g
1\!
#310000
0$
0V!
0W!
1h
#312500
1$
1V!
1W!
0h
0r!
1]!
0[!
1X!
0^!
0\!
0>!
1?!
0g
1f
1^!
1\!
1_!
0_!
#315000
0$
0V!
0W!
1h
#317500
1$
1V!
1W!
0h
1r!
1[!
0X!
1>!
1g
0^!
0\!
1_!
#320000
0$
0V!
0W!
1h
#322500
1$
1V!
1W!
0h
0r!
1`!
0]!
0[!
1X!
1a!
0_!
1^!
1\!
0>!
1@!
0?!
0g
1e
0f
0\!
1b!
0a!
1_!
0b!
#325000
0$
0V!
0W!
1h
#327500
1$
1V!
1W!
0h
1r!
1[!
0X!
1>!
1g
1\!
#330000
0$
0V!
0W!
1h
#332500
1$
1V!
1W!
0h
0r!
1]!
0[!
1X!
0^!
0\!
0>!
1?!
0g
1f
1^!
1\!
1a!
0_!
0a!
1_!
1b!
0b!
#335000
0$
0V!
0W!
1h
#337500
1$
1V!
1W!
0h
1r!
1[!
0X!
1>!
1g
0^!
0\!
1a!
0_!
1b!
#340000
0$
0V!
0W!
1h
#342500
1$
1V!
1W!
0h
0r!
1c!
0`!
0]!
0[!
1X!
0d!
0b!
0a!
1_!
1^!
1\!
0>!
1A!
0@!
0?!
0g
1d
0e
0f
0\!
1e!
1d!
1b!
0_!
0e!
#345000
0$
0V!
0W!
1h
#347500
1$
1V!
1W!
0h
1r!
1[!
0X!
1>!
1g
1\!
#350000
0$
0V!
0W!
1h
#352500
1$
1V!
1W!
0h
0r!
1]!
0[!
1X!
0^!
0\!
0>!
1?!
0g
1f
1^!
1\!
1_!
0_!
#355000
0$
0V!
0W!
1h
#357500
1$
1V!
1W!
0h
1r!
1[!
0X!
1>!
1g
0^!
0\!
1_!
#360000
0$
0V!
0W!
1h
#362500
1$
1V!
1W!
0h
0r!
1`!
0]!
0[!
1X!
1a!
0_!
1^!
1\!
0>!
1@!
0?!
0g
1e
0f
0\!
0d!
0b!
0a!
1_!
1e!
1d!
1b!
0e!
#365000
0$
0V!
0W!
1h
#367500
1$
1V!
1W!
0h
1r!
1[!
0X!
1>!
1g
1\!
#370000
0$
0V!
0W!
1h
#372500
1$
1V!
1W!
0h
0r!
1]!
0[!
1X!
0^!
0\!
0>!
1?!
0g
1f
1^!
1\!
1a!
0_!
0a!
1_!
0d!
0b!
1d!
1b!
1e!
0e!
#375000
0$
0V!
0W!
1h
#377500
1$
1V!
1W!
0h
1r!
1[!
0X!
1>!
1g
0^!
0\!
1a!
0_!
0d!
0b!
1e!
#380000
0$
0V!
0W!
1h
#382500
1$
1V!
1W!
0h
0r!
1f!
0c!
0`!
0]!
0[!
1X!
1g!
0e!
1d!
1b!
0a!
1_!
1^!
1\!
0>!
1B!
0A!
0@!
0?!
0g
1c
0d
0e
0f
0\!
1h!
0g!
1e!
0b!
0_!
0h!
#385000
0$
0V!
0W!
1h
#387500
1$
1V!
1W!
0h
1r!
1[!
0X!
1>!
1g
1\!
#390000
0$
0V!
0W!
1h
#392500
1$
1V!
1W!
0h
0r!
1]!
0[!
1X!
0^!
0\!
0>!
1?!
0g
1f
1^!
1\!
1_!
0_!
#395000
0$
0V!
0W!
1h
#397500
1$
1V!
1W!
0h
1r!
1[!
0X!
1>!
1g
0^!
0\!
1_!
#400000
0$
0V!
0W!
1h
#402500
1$
1V!
1W!
0h
0r!
1`!
0]!
0[!
1X!
1a!
0_!
1^!
1\!
0>!
1@!
0?!
0g
1e
0f
0\!
1b!
0a!
1_!
0b!
#405000
0$
0V!
0W!
1h
#407500
1$
1V!
1W!
0h
1r!
1[!
0X!
1>!
1g
1\!
#410000
0$
0V!
0W!
1h
#412500
1$
1V!
1W!
0h
0r!
1]!
0[!
1X!
0^!
0\!
0>!
1?!
0g
1f
1^!
1\!
1a!
0_!
0a!
1_!
1b!
0b!
#415000
0$
0V!
0W!
1h
#417500
1$
1V!
1W!
0h
1r!
1[!
0X!
1>!
1g
0^!
0\!
1a!
0_!
1b!
#420000
0$
0V!
0W!
1h
#422500
1$
1V!
1W!
0h
0r!
1c!
0`!
0]!
0[!
1X!
0d!
0b!
0a!
1_!
1^!
1\!
0>!
1A!
0@!
0?!
0g
1d
0e
0f
0\!
1g!
0e!
1d!
1b!
0_!
1h!
0g!
1e!
0h!
#425000
0$
0V!
0W!
1h
#427500
1$
1V!
1W!
0h
1r!
1[!
0X!
1>!
1g
1\!
#430000
0$
0V!
0W!
1h
#432500
1$
1V!
1W!
0h
0r!
1]!
0[!
1X!
0^!
0\!
0>!
1?!
0g
1f
1^!
1\!
1_!
0_!
#435000
0$
0V!
0W!
1h
#437500
1$
1V!
1W!
0h
1r!
1[!
0X!
1>!
1g
0^!
0\!
1_!
#440000
0$
0V!
0W!
1h
#442500
1$
1V!
1W!
0h
0r!
1`!
0]!
0[!
1X!
1a!
0_!
1^!
1\!
0>!
1@!
0?!
0g
1e
0f
0\!
0d!
0b!
0a!
1_!
1g!
0e!
1d!
1b!
1h!
0g!
1e!
0h!
#445000
0$
0V!
0W!
1h
#447500
1$
1V!
1W!
0h
1r!
1[!
0X!
1>!
1g
1\!
#450000
0$
0V!
0W!
1h
#452500
1$
1V!
1W!
0h
0r!
1]!
0[!
1X!
0^!
0\!
0>!
1?!
0g
1f
1^!
1\!
1a!
0_!
0a!
1_!
0d!
0b!
1d!
1b!
1g!
0e!
0g!
1e!
1h!
0h!
#455000
0$
0V!
0W!
1h
#457500
1$
1V!
1W!
0h
1r!
1[!
0X!
1>!
1g
0^!
0\!
1a!
0_!
0d!
0b!
1g!
0e!
1h!
#460000
0$
0V!
0W!
1h
#462500
1$
1V!
1W!
0h
0r!
1i!
0f!
0c!
0`!
0]!
0[!
1X!
0j!
0h!
0g!
1e!
1d!
1b!
0a!
1_!
1^!
1\!
0>!
1C!
0B!
0A!
0@!
0?!
0g
1b
0c
0d
0e
0f
0\!
1k!
1j!
1h!
0e!
0b!
0_!
0k!
#465000
0$
0V!
0W!
1h
#467500
1$
1V!
1W!
0h
1r!
1[!
0X!
1>!
1g
1\!
#470000
0$
0V!
0W!
1h
