Exp2/simulation/qsim/Counter6.msim.vcd
$comment
	File created using the following command:
		vcd file Counter6.msim.vcd -direction
$end
$date
	Sat Dec 29 22:52:24 2018
$end
$version
	ModelSim Version 10.1d
$end
$timescale
	1ps
$end
$scope module Counter6_vlg_vec_tst $end
$var reg 1 ! clk $end
$var reg 1 " en $end
$var reg 1 # m $end
$var reg 1 $ rst $end
$var wire 1 % SG_0 [6] $end
$var wire 1 & SG_0 [5] $end
$var wire 1 ' SG_0 [4] $end
$var wire 1 ( SG_0 [3] $end
$var wire 1 ) SG_0 [2] $end
$var wire 1 * SG_0 [1] $end
$var wire 1 + SG_0 [0] $end
$var wire 1 , SG_1 [6] $end
$var wire 1 - SG_1 [5] $end
$var wire 1 . SG_1 [4] $end
$var wire 1 / SG_1 [3] $end
$var wire 1 0 SG_1 [2] $end
$var wire 1 1 SG_1 [1] $end
$var wire 1 2 SG_1 [0] $end
$var wire 1 3 SG_2 [6] $end
$var wire 1 4 SG_2 [5] $end
$var wire 1 5 SG_2 [4] $end
$var wire 1 6 SG_2 [3] $end
$var wire 1 7 SG_2 [2] $end
$var wire 1 8 SG_2 [1] $end
$var wire 1 9 SG_2 [0] $end
$var wire 1 : d $end
$var wire 1 ; q [11] $end
$var wire 1 < q [10] $end
$var wire 1 = q [9] $end
$var wire 1 > q [8] $end
$var wire 1 ? q [7] $end
$var wire 1 @ q [6] $end
$var wire 1 A q [5] $end
$var wire 1 B q [4] $end
$var wire 1 C q [3] $end
$var wire 1 D q [2] $end
$var wire 1 E q [1] $end
$var wire 1 F q [0] $end
$var wire 1 G sampler $end
$scope module i1 $end
$var wire 1 H gnd $end
$var wire 1 I vcc $end
$var wire 1 J unknown $end
$var tri1 1 K devclrn $end
$var tri1 1 L devpor $end
$var tri1 1 M devoe $end
$var wire 1 N ~QUARTUS_CREATED_GND~I_combout $end
$var wire 1 O clk~input_o $end
$var wire 1 P clk~inputCLKENA0_outclk $end
$var wire 1 Q Add0~97_sumout $end
$var wire 1 R Add0~98 $end
$var wire 1 S Add0~101_sumout $end
$var wire 1 T Add0~102 $end
$var wire 1 U Add0~105_sumout $end
$var wire 1 V Add0~106 $end
$var wire 1 W Add0~77_sumout $end
$var wire 1 X Add0~78 $end
$var wire 1 Y Add0~81_sumout $end
$var wire 1 Z Add0~82 $end
$var wire 1 [ Add0~85_sumout $end
$var wire 1 \ Add0~86 $end
$var wire 1 ] Add0~37_sumout $end
$var wire 1 ^ Add0~38 $end
$var wire 1 _ Add0~41_sumout $end
$var wire 1 ` Add0~42 $end
$var wire 1 a Add0~45_sumout $end
$var wire 1 b Add0~46 $end
$var wire 1 c Add0~49_sumout $end
$var wire 1 d Add0~50 $end
$var wire 1 e Add0~53_sumout $end
$var wire 1 f Add0~54 $end
$var wire 1 g Add0~89_sumout $end
$var wire 1 h Add0~90 $end
$var wire 1 i Add0~93_sumout $end
$var wire 1 j Add0~94 $end
$var wire 1 k Add0~57_sumout $end
$var wire 1 l Add0~58 $end
$var wire 1 m Add0~61_sumout $end
$var wire 1 n Add0~62 $end
$var wire 1 o Add0~17_sumout $end
$var wire 1 p Add0~18 $end
$var wire 1 q Add0~65_sumout $end
$var wire 1 r Add0~66 $end
$var wire 1 s Add0~21_sumout $end
$var wire 1 t Add0~22 $end
$var wire 1 u Add0~25_sumout $end
$var wire 1 v Add0~26 $end
$var wire 1 w Add0~29_sumout $end
$var wire 1 x Add0~30 $end
$var wire 1 y Add0~33_sumout $end
$var wire 1 z Add0~34 $end
$var wire 1 { Add0~69_sumout $end
$var wire 1 | Add0~70 $end
$var wire 1 } Add0~73_sumout $end
$var wire 1 ~ Add0~74 $end
$var wire 1 !! Add0~1_sumout $end
$var wire 1 "! Add0~2 $end
$var wire 1 #! Add0~5_sumout $end
$var wire 1 $! Add0~6 $end
$var wire 1 %! Add0~9_sumout $end
$var wire 1 &! Add0~10 $end
$var wire 1 '! Add0~13_sumout $end
$var wire 1 (! Equal0~4_combout $end
$var wire 1 )! Equal0~5_combout $end
$var wire 1 *! Equal0~2_combout $end
$var wire 1 +! Equal0~0_combout $end
$var wire 1 ,! Equal0~1_combout $end
$var wire 1 -! Equal0~3_combout $end
$var wire 1 .! clk1~q $end
$var wire 1 /! m~input_o $end
$var wire 1 0! Add3~6 $end
$var wire 1 1! Add3~10 $end
$var wire 1 2! Add3~14 $end
$var wire 1 3! Add3~17_sumout $end
$var wire 1 4! Add1~6 $end
$var wire 1 5! Add1~10 $end
$var wire 1 6! Add1~14 $end
$var wire 1 7! Add1~17_sumout $end
$var wire 1 8! q~8_combout $end
$var wire 1 9! q~9_combout $end
$var wire 1 :! rst~input_o $end
$var wire 1 ;! en~input_o $end
$var wire 1 <! q[3]~reg0_q $end
$var wire 1 =! Add1~18 $end
$var wire 1 >! Add1~21_sumout $end
$var wire 1 ?! Add3~18 $end
$var wire 1 @! Add3~21_sumout $end
$var wire 1 A! q~10_combout $end
$var wire 1 B! q~11_combout $end
$var wire 1 C! q[4]~reg0_q $end
$var wire 1 D! Add3~22 $end
$var wire 1 E! Add3~25_sumout $end
$var wire 1 F! Add1~22 $end
$var wire 1 G! Add1~25_sumout $end
$var wire 1 H! Add2~5_sumout $end
$var wire 1 I! q~12_combout $end
$var wire 1 J! q[5]~reg0_q $end
$var wire 1 K! Add3~26 $end
$var wire 1 L! Add3~30 $end
$var wire 1 M! Add3~33_sumout $end
$var wire 1 N! Add1~26 $end
$var wire 1 O! Add1~30 $end
$var wire 1 P! Add1~33_sumout $end
$var wire 1 Q! Add1~29_sumout $end
$var wire 1 R! Add2~6 $end
$var wire 1 S! Add2~10 $end
$var wire 1 T! Add2~13_sumout $end
$var wire 1 U! q~14_combout $end
$var wire 1 V! q[7]~reg0_q $end
$var wire 1 W! q[10]~0_combout $end
$var wire 1 X! Add1~34 $end
$var wire 1 Y! Add1~2 $end
$var wire 1 Z! Add1~37_sumout $end
$var wire 1 [! Add3~34 $end
$var wire 1 \! Add3~2 $end
$var wire 1 ]! Add3~37_sumout $end
$var wire 1 ^! Add1~1_sumout $end
$var wire 1 _! Add2~14 $end
$var wire 1 `! Add2~2 $end
$var wire 1 a! Add2~17_sumout $end
$var wire 1 b! q~15_combout $end
$var wire 1 c! q[9]~reg0_q $end
$var wire 1 d! Add3~38 $end
$var wire 1 e! Add3~41_sumout $end
$var wire 1 f! Add1~38 $end
$var wire 1 g! Add1~41_sumout $end
$var wire 1 h! Add2~18 $end
$var wire 1 i! Add2~21_sumout $end
$var wire 1 j! q~16_combout $end
$var wire 1 k! q[10]~reg0_q $end
$var wire 1 l! Add1~42 $end
$var wire 1 m! Add1~45_sumout $end
$var wire 1 n! Add3~42 $end
$var wire 1 o! Add3~45_sumout $end
$var wire 1 p! Add2~22 $end
$var wire 1 q! Add2~25_sumout $end
$var wire 1 r! q~17_combout $end
$var wire 1 s! q[11]~reg0_q $end
$var wire 1 t! LessThan0~2_combout $end
$var wire 1 u! Add3~5_sumout $end
$var wire 1 v! Add1~5_sumout $end
$var wire 1 w! q~2_combout $end
$var wire 1 x! q~3_combout $end
$var wire 1 y! q[0]~reg0_q $end
$var wire 1 z! LessThan0~0_combout $end
$var wire 1 {! Add3~9_sumout $end
$var wire 1 |! Add1~9_sumout $end
$var wire 1 }! q~4_combout $end
$var wire 1 ~! q~5_combout $end
$var wire 1 !" q[1]~reg0_q $end
$var wire 1 "" Equal1~0_combout $end
$var wire 1 #" Add3~1_sumout $end
$var wire 1 $" Add2~1_sumout $end
$var wire 1 %" q~1_combout $end
$var wire 1 &" q[8]~reg0_q $end
$var wire 1 '" LessThan0~3_combout $end
$var wire 1 (" Add3~29_sumout $end
$var wire 1 )" Add2~9_sumout $end
$var wire 1 *" q~13_combout $end
$var wire 1 +" q[6]~reg0_q $end
$var wire 1 ," LessThan0~1_combout $end
$var wire 1 -" Add3~13_sumout $end
$var wire 1 ." Add1~13_sumout $end
$var wire 1 /" q~6_combout $end
$var wire 1 0" q~7_combout $end
$var wire 1 1" q[2]~reg0_q $end
$var wire 1 2" SG_0~0_combout $end
$var wire 1 3" SG_0~1_combout $end
$var wire 1 4" Decoder0~0_combout $end
$var wire 1 5" WideOr3~0_combout $end
$var wire 1 6" WideOr2~0_combout $end
$var wire 1 7" WideOr1~0_combout $end
$var wire 1 8" WideOr0~0_combout $end
$var wire 1 9" SG_1~0_combout $end
$var wire 1 :" SG_1~1_combout $end
$var wire 1 ;" Decoder1~0_combout $end
$var wire 1 <" WideOr7~0_combout $end
$var wire 1 =" WideOr6~0_combout $end
$var wire 1 >" WideOr5~0_combout $end
$var wire 1 ?" WideOr4~0_combout $end
$var wire 1 @" SG_2~0_combout $end
$var wire 1 A" SG_2~1_combout $end
$var wire 1 B" Decoder2~0_combout $end
$var wire 1 C" WideOr11~0_combout $end
$var wire 1 D" WideOr10~0_combout $end
$var wire 1 E" WideOr9~0_combout $end
$var wire 1 F" WideOr8~0_combout $end
$var wire 1 G" bw [3] $end
$var wire 1 H" bw [2] $end
$var wire 1 I" bw [1] $end
$var wire 1 J" bw [0] $end
$var wire 1 K" gw [3] $end
$var wire 1 L" gw [2] $end
$var wire 1 M" gw [1] $end
$var wire 1 N" gw [0] $end
$var wire 1 O" sw [3] $end
$var wire 1 P" sw [2] $end
$var wire 1 Q" sw [1] $end
$var wire 1 R" sw [0] $end
$var wire 1 S" cnt [26] $end
$var wire 1 T" cnt [25] $end
$var wire 1 U" cnt [24] $end
$var wire 1 V" cnt [23] $end
$var wire 1 W" cnt [22] $end
$var wire 1 X" cnt [21] $end
$var wire 1 Y" cnt [20] $end
$var wire 1 Z" cnt [19] $end
$var wire 1 [" cnt [18] $end
$var wire 1 \" cnt [17] $end
$var wire 1 ]" cnt [16] $end
$var wire 1 ^" cnt [15] $end
$var wire 1 _" cnt [14] $end
$var wire 1 `" cnt [13] $end
$var wire 1 a" cnt [12] $end
$var wire 1 b" cnt [11] $end
$var wire 1 c" cnt [10] $end
$var wire 1 d" cnt [9] $end
$var wire 1 e" cnt [8] $end
$var wire 1 f" cnt [7] $end
$var wire 1 g" cnt [6] $end
$var wire 1 h" cnt [5] $end
$var wire 1 i" cnt [4] $end
$var wire 1 j" cnt [3] $end
$var wire 1 k" cnt [2] $end
$var wire 1 l" cnt [1] $end
$var wire 1 m" cnt [0] $end
$upscope $end
$upscope $end
$enddefinitions $end
#0
$dumpvars
0!
1"
1#
1$
0+
0*
0)
0(
0'
0&
1%
02
01
00
0/
0.
0-
1,
09
08
07
06
05
04
13
0:
0F
0E
0D
0C
0B
0A
0@
0?
0>
0=
0<
0;
xG
0H
1I
xJ
1K
1L
1M
0N
0O
0P
1Q
0R
0S
0T
0U
0V
0W
0X
0Y
0Z
0[
0\
0]
0^
0_
0`
0a
0b
0c
0d
0e
0f
0g
0h
0i
0j
0k
0l
0m
0n
0o
0p
0q
0r
0s
0t
0u
0v
0w
0x
0y
0z
0{
0|
0}
0~
0!!
0"!
0#!
0$!
0%!
0&!
0'!
0(!
1)!
0*!
1+!
1,!
0-!
0.!
1/!
00!
01!
02!
03!
04!
05!
06!
07!
08!
09!
1:!
1;!
0<!
0=!
0>!
0?!
0@!
0A!
0B!
0C!
0D!
0E!
0F!
0G!
1H!
0I!
0J!
0K!
0L!
0M!
0N!
0O!
0P!
0Q!
0R!
0S!
0T!
0U!
0V!
0W!
0X!
0Y!
0Z!
0[!
0\!
0]!
0^!
0_!
0`!
0a!
0b!
0c!
0d!
0e!
0f!
0g!
0h!
0i!
0j!
0k!
0l!
0m!
0n!
0o!
0p!
0q!
0r!
0s!
1t!
1u!
1v!
1w!
1x!
0y!
0z!
0{!
1|!
0}!
0~!
0!"
0""
0#"
0$"
0%"
0&"
1'"
0("
1)"
0*"
0+"
1,"
0-"
1."
0/"
00"
01"
02"
03"
04"
05"
06"
07"
08"
09"
0:"
0;"
0<"
0="
0>"
0?"
0@"
0A"
0B"
0C"
0D"
0E"
0F"
0J"
0I"
0H"
0G"
0N"
0M"
0L"
0K"
0R"
0Q"
0P"
0O"
0m"
0l"
0k"
0j"
0i"
0h"
0g"
0f"
0e"
0d"
0c"
0b"
0a"
0`"
0_"
0^"
0]"
0\"
0["
0Z"
0Y"
0X"
0W"
0V"
0U"
0T"
0S"
$end
#5000
1!
1O
1P
0G
1m"
1R
0Q
1S
1(!
1*!
1-!
#10000
0!
0O
0P
1G
#15000
1!
1O
1P
0G
1.!
0m"
0R
1Q
0S
0(!
0*!
0-!
1y!
10!
0u!
14!
0v!
1N"
1F
1{!
15!
0|!
0w!
12"
15"
16"
17"
16!
0."
1}!
0x!
1+
1(
1'
1&
17!
1~!
#20000
0!
0O
0P
1G
#25000
1!
1O
1P
0G
0.!
1m"
1R
0Q
1S
1(!
1*!
1-!
#30000
0!
0O
0P
1G
#35000
1!
1O
1P
0G
1.!
0m"
0R
1Q
0S
0(!
0*!
0-!
1!"
0y!
11!
0{!
1|!
1M"
00!
1u!
04!
1v!
0N"
1E
0F
1-"
01!
1{!
0|!
0}!
18"
1w!
02"
14"
05"
06"
0-"
1/"
1}!
0~!
1x!
0%
0+
1)
0(
0'
0/"
10"
1~!
00"
#40000
0!
0O
0P
1G
#45000
1!
1O
1P
0G
0.!
1m"
1R
0Q
1S
1(!
1*!
1-!
#50000
0!
0O
0P
1G
#55000
1!
1O
1P
0G
1.!
0m"
0R
1Q
0S
0(!
0*!
0-!
1y!
10!
0u!
14!
0v!
1N"
1F
11!
0{!
1|!
0w!
04"
16"
1-"
0}!
0x!
0)
1'
1/"
0~!
10"
#60000
0!
0O
0P
1G
#65000
1!
1O
1P
0G
0.!
1m"
1R
0Q
1S
1(!
1*!
1-!
#70000
0!
0O
0P
1G
#75000
1!
1O
1P
0G
1.!
0m"
0R
1Q
0S
0(!
0*!
0-!
11"
0!"
0y!
12!
0-"
1."
1L"
01!
1{!
0|!
0M"
00!
1u!
04!
1v!
0N"
1D
0E
0F
13!
02!
1-"
0{!
05!
1|!
0/"
1}!
1w!
12"
15"
07"
03!
0."
18!
1/"
0}!
00"
1~!
1x!
1+
1(
0&
08!
19!
10"
0~!
09!
#80000
0!
0O
0P
1G
#85000
1!
1O
1P
0G
0.!
1m"
1R
0Q
1S
1(!
1*!
1-!
#90000
0!
0O
0P
1G
#95000
1!
1O
1P
0G
1.!
0m"
0R
1Q
0S
0(!
0*!
0-!
1y!
10!
0u!
14!
0v!
1N"
1F
1{!
15!
0|!
0w!
02"
13"
05"
1."
1}!
0x!
0+
1*
0(
1~!
#100000
0!
0O
0P
1G
#105000
1!
1O
1P
0G
0.!
1m"
1R
0Q
1S
1(!
1*!
1-!
#110000
0!
0O
0P
1G
#115000
1!
1O
1P
0G
1.!
0m"
0R
1Q
0S
0(!
0*!
0-!
1!"
0y!
11!
0{!
1|!
1M"
00!
1u!
04!
1v!
0N"
1E
0F
12!
0-"
01!
1{!
0|!
0}!
1w!
06"
13!
02!
1-"
0/"
1}!
0~!
1x!
0'
03!
18!
1/"
00"
1~!
08!
19!
10"
09!
#120000
0!
0O
0P
1G
#125000
1!
1O
1P
0G
0.!
1m"
1R
0Q
1S
1(!
1*!
1-!
#130000
0!
0O
0P
1G
#135000
1!
1O
1P
0G
1.!
0m"
0R
1Q
0S
0(!
0*!
0-!
1y!
10!
0u!
14!
0v!
1N"
1F
11!
0{!
1|!
0w!
08"
03"
15"
16"
17"
12!
0-"
0}!
0x!
1%
0*
1(
1'
1&
13!
0/"
0~!
18!
00"
19!
#140000
0!
0O
0P
1G
#145000
1!
1O
1P
0G
0.!
1m"
1R
0Q
1S
1(!
1*!
1-!
#150000
0!
0O
0P
1G
#155000
1!
1O
1P
0G
1.!
0m"
0R
1Q
0S
0(!
0*!
0-!
01"
0!"
0y!
1<!
02!
1-"
0."
0L"
01!
1{!
0|!
0M"
00!
1u!
04!
1v!
0N"
1?!
03!
1=!
07!
1K"
0D
0E
0F
1C
0?!
13!
0-"
0{!
05!
1|!
1@!
1>!
1/"
18"
1}!
1w!
08!
05"
06"
07"
0@!
06!
1."
18!
0/"
0}!
1A!
10"
1~!
1x!
09!
0%
0(
0'
0&
0=!
17!
0A!
19!
00"
0~!
1B!
0>!
0B!
#160000
0!
0O
0P
1G
#165000
1!
1O
1P
0G
0.!
1m"
1R
0Q
1S
1(!
1*!
1-!
#170000
0!
0O
0P
1G
#175000
1!
1O
1P
0G
1.!
0m"
0R
1Q
0S
0(!
0*!
0-!
1y!
10!
0u!
14!
0v!
1N"
1F
1{!
15!
0|!
0w!
1""
16"
16!
0."
0x!
1/"
1'
1=!
07!
0/"
10"
1>!
08!
00"
1A!
09!
1B!
#180000
0!
0O
0P
1G
#185000
1!
1O
1P
0G
0.!
1m"
1R
0Q
1S
1(!
1*!
1-!
#190000
0!
0O
0P
1G
#195000
1!
1O
1P
0G
1.!
0m"
0R
1Q
0S
0(!
0*!
0-!
0y!
1C!
0<!
00!
1u!
04!
1v!
0N"
1F!
0>!
1@!
1R"
03!
0=!
17!
0K"
0F
1B
0C
0{!
05!
1|!
1G!
0F!
1>!
1w!
0""
08"
0A!
18!
06"
19"
1<"
1="
1>"
06!
1."
0G!
1R!
0H!
1A!
1x!
08!
0B!
19!
1%
0'
12
1/
1.
1-
07!
1S!
0)"
0R!
1H!
1B!
09!
1T!
0S!
1)"
0T!
#200000
0!
0O
0P
1G
#205000
1!
1O
1P
0G
0.!
1m"
1R
0Q
1S
1(!
1*!
1-!
#210000
0$
0!
0:!
0O
0P
1G
0C!
0>!
0@!
0R"
0B
0A!
09"
0<"
0="
0>"
0B!
02
0/
0.
0-
#215000
1!
1O
1P
0G
1.!
0m"
0R
1Q
0S
0(!
0*!
0-!
#220000
0!
0O
0P
1G
#225000
1!
1O
1P
0G
0.!
1m"
1R
0Q
1S
1(!
1*!
1-!
#230000
0!
0O
0P
1G
#235000
1!
1O
1P
0G
1.!
0m"
0R
1Q
0S
0(!
0*!
0-!
#240000
1$
0!
1:!
0O
0P
1G
#245000
1!
1O
1P
0G
0.!
1m"
1R
0Q
1S
1(!
1*!
1-!
#250000
0!
0O
0P
1G
#255000
1!
1O
1P
0G
1.!
0m"
0R
1Q
0S
0(!
0*!
0-!
1y!
10!
0u!
14!
0v!
1N"
1F
1{!
15!
0|!
0w!
12"
15"
16"
17"
16!
0."
1}!
0x!
1+
1(
1'
1&
17!
1~!
#260000
0!
0O
0P
1G
#265000
1!
1O
1P
0G
0.!
1m"
1R
0Q
1S
1(!
1*!
1-!
#270000
0!
0O
0P
1G
#275000
1!
1O
1P
0G
1.!
0m"
0R
1Q
0S
0(!
0*!
0-!
1!"
0y!
11!
0{!
1|!
1M"
00!
1u!
04!
1v!
0N"
1E
0F
1-"
01!
1{!
0|!
0}!
18"
1w!
02"
14"
05"
06"
0-"
1/"
1}!
0~!
1x!
0%
0+
1)
0(
0'
0/"
10"
1~!
00"
#280000
0!
0O
0P
1G
#285000
1!
1O
1P
0G
0.!
1m"
1R
0Q
1S
1(!
1*!
1-!
#290000
0!
0O
0P
1G
#295000
1!
1O
1P
0G
1.!
0m"
0R
1Q
0S
0(!
0*!
0-!
1y!
10!
0u!
14!
0v!
1N"
1F
11!
0{!
1|!
0w!
04"
16"
1-"
0}!
0x!
0)
1'
1/"
0~!
10"
#300000
0!
0O
0P
1G
#305000
1!
1O
1P
0G
0.!
1m"
1R
0Q
1S
1(!
1*!
1-!
#310000
0!
0O
0P
1G
#315000
1!
1O
1P
0G
1.!
0m"
0R
1Q
0S
0(!
0*!
0-!
11"
0!"
0y!
12!
0-"
1."
1L"
01!
1{!
0|!
0M"
00!
1u!
04!
1v!
0N"
1D
0E
0F
13!
02!
1-"
0{!
05!
1|!
0/"
1}!
1w!
12"
15"
07"
03!
0."
18!
1/"
0}!
00"
1~!
1x!
1+
1(
0&
08!
19!
10"
0~!
09!
#320000
0!
0O
0P
1G
#325000
1!
1O
1P
0G
0.!
1m"
1R
0Q
1S
1(!
1*!
1-!
#330000
0!
0O
0P
1G
#335000
1!
1O
1P
0G
1.!
0m"
0R
1Q
0S
0(!
0*!
0-!
1y!
10!
0u!
14!
0v!
1N"
1F
1{!
15!
0|!
0w!
02"
13"
05"
1."
1}!
0x!
0+
1*
0(
1~!
#340000
0!
0O
0P
1G
#345000
1!
1O
1P
0G
0.!
1m"
1R
0Q
1S
1(!
1*!
1-!
#350000
0!
0O
0P
1G
#355000
1!
1O
1P
0G
1.!
0m"
0R
1Q
0S
0(!
0*!
0-!
1!"
0y!
11!
0{!
1|!
1M"
00!
1u!
04!
1v!
0N"
1E
0F
12!
0-"
01!
1{!
0|!
0}!
1w!
06"
13!
02!
1-"
0/"
1}!
0~!
1x!
0'
03!
18!
1/"
00"
1~!
08!
19!
10"
09!
#360000
0!
0O
0P
1G
#365000
1!
1O
1P
0G
0.!
1m"
1R
0Q
1S
1(!
1*!
1-!
#370000
0!
0O
0P
1G
#375000
1!
1O
1P
0G
1.!
0m"
0R
1Q
0S
0(!
0*!
0-!
1y!
10!
0u!
14!
0v!
1N"
1F
11!
0{!
1|!
0w!
08"
03"
15"
16"
17"
12!
0-"
0}!
0x!
1%
0*
1(
1'
1&
13!
0/"
0~!
18!
00"
19!
#380000
0!
0O
0P
1G
#385000
1!
1O
1P
0G
0.!
1m"
1R
0Q
1S
1(!
1*!
1-!
#390000
0!
0O
0P
1G
#395000
1!
1O
1P
0G
1.!
0m"
0R
1Q
0S
0(!
0*!
0-!
01"
0!"
0y!
1<!
02!
1-"
0."
0L"
01!
1{!
0|!
0M"
00!
1u!
04!
1v!
0N"
1?!
03!
1=!
07!
1K"
0D
0E
0F
1C
0?!
13!
0-"
0{!
05!
1|!
1@!
1>!
1/"
18"
1}!
1w!
08!
05"
06"
07"
0@!
06!
1."
18!
0/"
0}!
1A!
10"
1~!
1x!
09!
0%
0(
0'
0&
0=!
17!
0A!
19!
00"
0~!
1B!
0>!
0B!
#400000
0#
0!
0/!
0O
0P
1G
#405000
1!
1O
1P
0G
0.!
1m"
1R
0Q
1S
1(!
1*!
1-!
#410000
0!
0O
0P
1G
#415000
1!
1O
1P
0G
1.!
0m"
0R
1Q
0S
0(!
0*!
0-!
1y!
10!
0u!
14!
0v!
1N"
1F
1{!
15!
0|!
0w!
1""
16"
16!
0."
0x!
1/"
1'
1=!
07!
0/"
10"
1>!
08!
00"
1A!
09!
1B!
#420000
0!
0O
0P
1G
#425000
1!
1O
1P
0G
0.!
1m"
1R
0Q
1S
1(!
1*!
1-!
#430000
0!
0O
0P
1G
#435000
1!
1O
1P
0G
1.!
0m"
0R
1Q
0S
0(!
0*!
0-!
0y!
1C!
0<!
00!
1u!
04!
1v!
0N"
1F!
0>!
1@!
1R"
03!
0=!
17!
0K"
0F
1B
0C
0{!
05!
1|!
1G!
0F!
1>!
1w!
0""
08"
0A!
18!
06"
19"
1<"
1="
1>"
06!
1."
0G!
1R!
0H!
1A!
1x!
08!
0B!
19!
1%
0'
12
1/
1.
1-
07!
1S!
0)"
0R!
1H!
1B!
09!
1T!
0S!
1)"
0T!
#440000
0!
0O
0P
1G
#445000
1!
1O
1P
0G
0.!
1m"
1R
0Q
1S
1(!
1*!
1-!
#450000
0!
0O
0P
1G
#455000
1!
1O
1P
0G
1.!
0m"
0R
1Q
0S
0(!
0*!
0-!
1y!
10!
0u!
14!
0v!
1N"
1F
1{!
15!
0|!
0w!
12"
15"
16"
17"
16!
0."
1}!
0x!
1+
1(
1'
1&
17!
1~!
#460000
0!
0O
0P
1G
#465000
1!
1O
1P
0G
0.!
1m"
1R
0Q
1S
1(!
1*!
1-!
#470000
0!
0O
0P
1G
#475000
1!
1O
1P
0G
1.!
0m"
0R
1Q
0S
0(!
0*!
0-!
1!"
0y!
11!
0{!
1|!
1M"
00!
1u!
04!
1v!
0N"
1E
0F
1-"
01!
1{!
0|!
0}!
18"
1w!
02"
14"
05"
06"
0-"
1/"
1}!
0~!
1x!
0%
0+
1)
0(
0'
0/"
10"
1~!
00"
#480000
0!
0O
0P
1G
#485000
1!
1O
1P
0G
0.!
1m"
1R
0Q
1S
1(!
1*!
1-!
#490000
0!
0O
0P
1G
#495000
1!
1O
1P
0G
1.!
0m"
0R
1Q
0S
0(!
0*!
0-!
1y!
10!
0u!
14!
0v!
1N"
1F
11!
0{!
1|!
0w!
04"
16"
1-"
0}!
0x!
0)
1'
1/"
0~!
10"
#500000
0!
0O
0P
1G
#505000
1!
1O
1P
0G
0.!
1m"
1R
0Q
1S
1(!
1*!
1-!
#510000
0!
0O
0P
1G
#515000
1!
1O
1P
0G
1.!
0m"
0R
1Q
0S
0(!
0*!
0-!
11"
0!"
0y!
12!
0-"
1."
1L"
01!
1{!
0|!
0M"
00!
1u!
04!
1v!
0N"
1D
0E
0F
13!
02!
1-"
0{!
05!
1|!
0/"
1}!
1w!
12"
15"
07"
03!
0."
18!
1/"
0}!
00"
1~!
1x!
1+
1(
0&
08!
19!
10"
0~!
09!
#520000
0!
0O
0P
1G
#525000
1!
1O
1P
0G
0.!
1m"
1R
0Q
1S
1(!
1*!
1-!
#530000
0!
0O
0P
1G
#535000
1!
1O
1P
0G
1.!
0m"
0R
1Q
0S
0(!
0*!
0-!
1y!
10!
0u!
14!
0v!
1z!
1N"
1F
1{!
15!
0|!
0w!
02"
13"
05"
1."
1}!
0x!
0+
1*
0(
1~!
#540000
0!
0O
0P
1G
#545000
1!
1O
1P
0G
0.!
1m"
1R
0Q
1S
1(!
1*!
1-!
#550000
0!
0O
0P
1G
#555000
1!
1O
1P
0G
1.!
0m"
0R
1Q
0S
0(!
0*!
0-!
1!"
0y!
11!
0{!
1|!
1M"
00!
1u!
04!
1v!
0N"
1E
0F
12!
0-"
01!
1{!
0|!
0}!
1w!
06"
13!
02!
1-"
0/"
1}!
0~!
1x!
0'
03!
18!
1/"
00"
1~!
08!
19!
10"
09!
#560000
0!
0O
0P
1G
#565000
1!
1O
1P
0G
0.!
1m"
1R
0Q
1S
1(!
1*!
1-!
#570000
0!
0O
0P
1G
#575000
1!
1O
1P
0G
1.!
0m"
0R
1Q
0S
0(!
0*!
0-!
1y!
10!
0u!
14!
0v!
1N"
1F
11!
0{!
1|!
0w!
08"
03"
15"
16"
17"
12!
0-"
0}!
0x!
1%
0*
1(
1'
1&
13!
0/"
0~!
18!
00"
19!
#580000
0!
0O
0P
1G
#585000
1!
1O
1P
0G
0.!
1m"
1R
0Q
1S
1(!
1*!
1-!
#590000
0!
0O
0P
1G
#595000
1!
1O
1P
0G
1.!
0m"
0R
1Q
0S
0(!
0*!
0-!
01"
0!"
0y!
1<!
02!
1-"
0."
0L"
01!
1{!
0|!
0M"
00!
1u!
04!
1v!
0N"
1?!
03!
1=!
07!
1K"
0D
0E
0F
1C
0?!
13!
0-"
0{!
05!
1|!
1D!
0@!
1F!
0>!
1/"
18"
1}!
1w!
08!
05"
06"
07"
0D!
1@!
06!
1."
1E!
1G!
18!
0/"
0}!
0A!
10"
1~!
1x!
09!
0%
0(
0'
0&
0E!
0=!
17!
1A!
1I!
1R!
0H!
19!
00"
0~!
0B!
0F!
1>!
1S!
0)"
0I!
1B!
0G!
1T!
0R!
1H!
0S!
1)"
0T!
#600000
0!
0O
0P
1G
#605000
1!
1O
1P
0G
0.!
1m"
1R
0Q
1S
1(!
1*!
1-!
#610000
0!
0O
0P
1G
#615000
1!
1O
1P
0G
1.!
0m"
0R
1Q
0S
0(!
0*!
0-!
1y!
10!
0u!
14!
0v!
1N"
1F
1{!
15!
0|!
0w!
1""
16"
16!
0."
0x!
1/"
1'
1=!
07!
0/"
10"
1F!
0>!
08!
00"
1G!
0A!
09!
1R!
0H!
1I!
0B!
1S!
0)"
1T!
#620000
0!
0O
0P
1G
#625000
1!
1O
1P
0G
0.!
1m"
1R
0Q
1S
1(!
1*!
1-!
#630000
0!
0O
0P
1G
#635000
1!
1O
1P
0G
1.!
0m"
0R
1Q
0S
0(!
0*!
0-!
0y!
1J!
0C!
0<!
00!
1u!
04!
1v!
0z!
0N"
1E!
1N!
0G!
1Q"
0,"
0F!
1>!
0@!
0R"
03!
0=!
17!
0K"
0F
1A
0B
0C
0{!
05!
1|!
1Q!
0N!
1G!
0>!
1w!
0""
08"
0I!
0R!
1H!
1?"
1A!
18!
06"
09"
1;"
0<"
0="
06!
1."
0Q!
1R!
0H!
1I!
0A!
1x!
08!
1B!
19!
1%
0,
0'
02
10
0/
0.
07!
0B!
09!
#640000
0!
0O
0P
1G
#645000
1!
1O
1P
0G
0.!
1m"
1R
0Q
1S
1(!
1*!
1-!
#650000
0!
0O
0P
1G
#655000
1!
1O
1P
0G
1.!
0m"
0R
1Q
0S
0(!
0*!
0-!
1y!
10!
0u!
14!
0v!
1N"
1F
1{!
15!
0|!
0w!
12"
15"
16"
17"
16!
0."
1}!
0x!
1+
1(
1'
1&
17!
1~!
#660000
0!
0O
0P
1G
#665000
1!
1O
1P
0G
0.!
1m"
1R
0Q
1S
1(!
1*!
1-!
#670000
0!
0O
0P
1G
#675000
1!
1O
1P
0G
1.!
0m"
0R
1Q
0S
0(!
0*!
0-!
1!"
0y!
11!
0{!
1|!
1M"
00!
1u!
04!
1v!
0N"
1E
0F
1-"
01!
1{!
0|!
0}!
18"
1w!
02"
14"
05"
06"
0-"
1/"
1}!
0~!
1x!
0%
0+
1)
0(
0'
0/"
10"
1~!
00"
#680000
0!
0O
0P
1G
#685000
1!
1O
1P
0G
0.!
1m"
1R
0Q
1S
1(!
1*!
1-!
#690000
0!
0O
0P
1G
#695000
1!
1O
1P
0G
1.!
0m"
0R
1Q
0S
0(!
0*!
0-!
1y!
10!
0u!
14!
0v!
1N"
1F
11!
0{!
1|!
0w!
04"
16"
1-"
0}!
0x!
0)
1'
1/"
0~!
10"
#700000
0!
0O
0P
1G
