Exp2/simulation/qsim/Counter6.msim.vcd
$comment
	File created using the following command:
		vcd file Counter6.msim.vcd -direction
$end
$date
	Fri Nov 23 11:49:14 2018
$end
$version
	ModelSim Version 10.1d
$end
$timescale
	1ps
$end
$scope module Counter6_vlg_vec_tst $end
$var reg 1 ! clk $end
$var reg 1 " en $end
$var reg 1 # m $end
$var reg 1 $ rst $end
$var wire 1 % SG_0 [6] $end
$var wire 1 & SG_0 [5] $end
$var wire 1 ' SG_0 [4] $end
$var wire 1 ( SG_0 [3] $end
$var wire 1 ) SG_0 [2] $end
$var wire 1 * SG_0 [1] $end
$var wire 1 + SG_0 [0] $end
$var wire 1 , SG_1 [6] $end
$var wire 1 - SG_1 [5] $end
$var wire 1 . SG_1 [4] $end
$var wire 1 / SG_1 [3] $end
$var wire 1 0 SG_1 [2] $end
$var wire 1 1 SG_1 [1] $end
$var wire 1 2 SG_1 [0] $end
$var wire 1 3 SG_2 [6] $end
$var wire 1 4 SG_2 [5] $end
$var wire 1 5 SG_2 [4] $end
$var wire 1 6 SG_2 [3] $end
$var wire 1 7 SG_2 [2] $end
$var wire 1 8 SG_2 [1] $end
$var wire 1 9 SG_2 [0] $end
$var wire 1 : d $end
$var wire 1 ; sampler $end
$scope module i1 $end
$var wire 1 < gnd $end
$var wire 1 = vcc $end
$var wire 1 > unknown $end
$var tri1 1 ? devclrn $end
$var tri1 1 @ devpor $end
$var tri1 1 A devoe $end
$var wire 1 B ~QUARTUS_CREATED_GND~I_combout $end
$var wire 1 C clk~input_o $end
$var wire 1 D clk~inputCLKENA0_outclk $end
$var wire 1 E Add0~97_sumout $end
$var wire 1 F Add0~98 $end
$var wire 1 G Add0~101_sumout $end
$var wire 1 H Add0~102 $end
$var wire 1 I Add0~105_sumout $end
$var wire 1 J Add0~106 $end
$var wire 1 K Add0~77_sumout $end
$var wire 1 L Add0~78 $end
$var wire 1 M Add0~81_sumout $end
$var wire 1 N Add0~82 $end
$var wire 1 O Add0~85_sumout $end
$var wire 1 P Add0~86 $end
$var wire 1 Q Add0~37_sumout $end
$var wire 1 R Add0~38 $end
$var wire 1 S Add0~41_sumout $end
$var wire 1 T Add0~42 $end
$var wire 1 U Add0~45_sumout $end
$var wire 1 V Add0~46 $end
$var wire 1 W Add0~49_sumout $end
$var wire 1 X Add0~50 $end
$var wire 1 Y Add0~53_sumout $end
$var wire 1 Z Add0~54 $end
$var wire 1 [ Add0~89_sumout $end
$var wire 1 \ Add0~90 $end
$var wire 1 ] Add0~93_sumout $end
$var wire 1 ^ Add0~94 $end
$var wire 1 _ Add0~57_sumout $end
$var wire 1 ` Add0~58 $end
$var wire 1 a Add0~61_sumout $end
$var wire 1 b Add0~62 $end
$var wire 1 c Add0~17_sumout $end
$var wire 1 d Add0~18 $end
$var wire 1 e Add0~65_sumout $end
$var wire 1 f Add0~66 $end
$var wire 1 g Add0~21_sumout $end
$var wire 1 h Add0~22 $end
$var wire 1 i Add0~25_sumout $end
$var wire 1 j Add0~26 $end
$var wire 1 k Add0~29_sumout $end
$var wire 1 l Add0~30 $end
$var wire 1 m Add0~33_sumout $end
$var wire 1 n Add0~34 $end
$var wire 1 o Add0~69_sumout $end
$var wire 1 p Add0~70 $end
$var wire 1 q Add0~73_sumout $end
$var wire 1 r Add0~74 $end
$var wire 1 s Add0~1_sumout $end
$var wire 1 t Equal0~0_combout $end
$var wire 1 u Equal0~1_combout $end
$var wire 1 v cnt[25]~feeder_combout $end
$var wire 1 w Add0~2 $end
$var wire 1 x Add0~5_sumout $end
$var wire 1 y Add0~6 $end
$var wire 1 z Add0~9_sumout $end
$var wire 1 { Add0~10 $end
$var wire 1 | Add0~13_sumout $end
$var wire 1 } Equal0~4_combout $end
$var wire 1 ~ Equal0~5_combout $end
$var wire 1 !! Equal0~2_combout $end
$var wire 1 "! Equal0~3_combout $end
$var wire 1 #! clk1~q $end
$var wire 1 $! m~input_o $end
$var wire 1 %! Add1~6 $end
$var wire 1 &! Add1~10 $end
$var wire 1 '! Add1~13_sumout $end
$var wire 1 (! Add3~6 $end
$var wire 1 )! Add3~10 $end
$var wire 1 *! Add3~13_sumout $end
$var wire 1 +! q~6_combout $end
$var wire 1 ,! q~7_combout $end
$var wire 1 -! rst~input_o $end
$var wire 1 .! en~input_o $end
$var wire 1 /! Add1~14 $end
$var wire 1 0! Add1~17_sumout $end
$var wire 1 1! Add3~14 $end
$var wire 1 2! Add3~17_sumout $end
$var wire 1 3! q~8_combout $end
$var wire 1 4! q~9_combout $end
$var wire 1 5! Add1~18 $end
$var wire 1 6! Add1~22 $end
$var wire 1 7! Add1~25_sumout $end
$var wire 1 8! Add2~5_sumout $end
$var wire 1 9! Add3~18 $end
$var wire 1 :! Add3~22 $end
$var wire 1 ;! Add3~25_sumout $end
$var wire 1 <! q~12_combout $end
$var wire 1 =! q[10]~0_combout $end
$var wire 1 >! Add1~26 $end
$var wire 1 ?! Add1~30 $end
$var wire 1 @! Add1~33_sumout $end
$var wire 1 A! Add1~29_sumout $end
$var wire 1 B! Add2~6 $end
$var wire 1 C! Add2~10 $end
$var wire 1 D! Add2~13_sumout $end
$var wire 1 E! Add3~26 $end
$var wire 1 F! Add3~30 $end
$var wire 1 G! Add3~33_sumout $end
$var wire 1 H! q~14_combout $end
$var wire 1 I! Add3~34 $end
$var wire 1 J! Add3~1_sumout $end
$var wire 1 K! Add1~34 $end
$var wire 1 L! Add1~1_sumout $end
$var wire 1 M! Add2~14 $end
$var wire 1 N! Add2~1_sumout $end
$var wire 1 O! q~1_combout $end
$var wire 1 P! LessThan0~3_combout $end
$var wire 1 Q! Add1~2 $end
$var wire 1 R! Add1~37_sumout $end
$var wire 1 S! Add3~2 $end
$var wire 1 T! Add3~37_sumout $end
$var wire 1 U! Add2~2 $end
$var wire 1 V! Add2~17_sumout $end
$var wire 1 W! q~15_combout $end
$var wire 1 X! Add3~38 $end
$var wire 1 Y! Add3~41_sumout $end
$var wire 1 Z! Add1~38 $end
$var wire 1 [! Add1~41_sumout $end
$var wire 1 \! Add2~18 $end
$var wire 1 ]! Add2~21_sumout $end
$var wire 1 ^! q~16_combout $end
$var wire 1 _! Add1~42 $end
$var wire 1 `! Add1~45_sumout $end
$var wire 1 a! Add3~42 $end
$var wire 1 b! Add3~45_sumout $end
$var wire 1 c! Add2~22 $end
$var wire 1 d! Add2~25_sumout $end
$var wire 1 e! q~17_combout $end
$var wire 1 f! LessThan0~2_combout $end
$var wire 1 g! Add1~21_sumout $end
$var wire 1 h! Add3~21_sumout $end
$var wire 1 i! q~10_combout $end
$var wire 1 j! q~11_combout $end
$var wire 1 k! LessThan0~0_combout $end
$var wire 1 l! Add3~9_sumout $end
$var wire 1 m! Add1~9_sumout $end
$var wire 1 n! q~4_combout $end
$var wire 1 o! q~5_combout $end
$var wire 1 p! Equal1~0_combout $end
$var wire 1 q! Add3~29_sumout $end
$var wire 1 r! Add2~9_sumout $end
$var wire 1 s! q~13_combout $end
$var wire 1 t! LessThan0~1_combout $end
$var wire 1 u! Add1~5_sumout $end
$var wire 1 v! Add3~5_sumout $end
$var wire 1 w! q~2_combout $end
$var wire 1 x! q~3_combout $end
$var wire 1 y! SG_0~0_combout $end
$var wire 1 z! SG_0~1_combout $end
$var wire 1 {! Decoder0~0_combout $end
$var wire 1 |! WideOr3~0_combout $end
$var wire 1 }! WideOr2~0_combout $end
$var wire 1 ~! WideOr1~0_combout $end
$var wire 1 !" WideOr0~0_combout $end
$var wire 1 "" SG_1~0_combout $end
$var wire 1 #" SG_1~1_combout $end
$var wire 1 $" Decoder1~0_combout $end
$var wire 1 %" WideOr7~0_combout $end
$var wire 1 &" WideOr6~0_combout $end
$var wire 1 '" WideOr5~0_combout $end
$var wire 1 (" WideOr4~0_combout $end
$var wire 1 )" SG_2~0_combout $end
$var wire 1 *" SG_2~1_combout $end
$var wire 1 +" Decoder2~0_combout $end
$var wire 1 ," WideOr11~0_combout $end
$var wire 1 -" WideOr10~0_combout $end
$var wire 1 ." WideOr9~0_combout $end
$var wire 1 /" WideOr8~0_combout $end
$var wire 1 0" cnt [26] $end
$var wire 1 1" cnt [25] $end
$var wire 1 2" cnt [24] $end
$var wire 1 3" cnt [23] $end
$var wire 1 4" cnt [22] $end
$var wire 1 5" cnt [21] $end
$var wire 1 6" cnt [20] $end
$var wire 1 7" cnt [19] $end
$var wire 1 8" cnt [18] $end
$var wire 1 9" cnt [17] $end
$var wire 1 :" cnt [16] $end
$var wire 1 ;" cnt [15] $end
$var wire 1 <" cnt [14] $end
$var wire 1 =" cnt [13] $end
$var wire 1 >" cnt [12] $end
$var wire 1 ?" cnt [11] $end
$var wire 1 @" cnt [10] $end
$var wire 1 A" cnt [9] $end
$var wire 1 B" cnt [8] $end
$var wire 1 C" cnt [7] $end
$var wire 1 D" cnt [6] $end
$var wire 1 E" cnt [5] $end
$var wire 1 F" cnt [4] $end
$var wire 1 G" cnt [3] $end
$var wire 1 H" cnt [2] $end
$var wire 1 I" cnt [1] $end
$var wire 1 J" cnt [0] $end
$var wire 1 K" q [11] $end
$var wire 1 L" q [10] $end
$var wire 1 M" q [9] $end
$var wire 1 N" q [8] $end
$var wire 1 O" q [7] $end
$var wire 1 P" q [6] $end
$var wire 1 Q" q [5] $end
$var wire 1 R" q [4] $end
$var wire 1 S" q [3] $end
$var wire 1 T" q [2] $end
$var wire 1 U" q [1] $end
$var wire 1 V" q [0] $end
$var wire 1 W" sw [3] $end
$var wire 1 X" sw [2] $end
$var wire 1 Y" sw [1] $end
$var wire 1 Z" sw [0] $end
$var wire 1 [" bw [3] $end
$var wire 1 \" bw [2] $end
$var wire 1 ]" bw [1] $end
$var wire 1 ^" bw [0] $end
$var wire 1 _" gw [3] $end
$var wire 1 `" gw [2] $end
$var wire 1 a" gw [1] $end
$var wire 1 b" gw [0] $end
$upscope $end
$upscope $end
$enddefinitions $end
#0
$dumpvars
0!
1"
1#
1$
0+
0*
0)
0(
0'
0&
1%
02
01
00
0/
0.
0-
1,
09
08
07
06
05
04
13
0:
x;
0<
1=
x>
1?
1@
1A
0B
0C
0D
1E
0F
0G
0H
0I
0J
0K
0L
0M
0N
0O
0P
0Q
0R
0S
0T
0U
0V
0W
0X
0Y
0Z
0[
0\
0]
0^
0_
0`
0a
0b
0c
0d
0e
0f
0g
0h
0i
0j
0k
0l
0m
0n
0o
0p
0q
0r
0s
1t
1u
0v
0w
0x
0y
0z
0{
0|
0}
1~
0!!
0"!
0#!
1$!
0%!
0&!
1'!
0(!
0)!
0*!
0+!
0,!
1-!
1.!
0/!
00!
01!
02!
03!
04!
05!
06!
07!
18!
09!
0:!
0;!
0<!
0=!
0>!
0?!
0@!
0A!
0B!
0C!
0D!
0E!
0F!
0G!
0H!
0I!
0J!
0K!
0L!
0M!
0N!
0O!
1P!
0Q!
0R!
0S!
0T!
0U!
0V!
0W!
0X!
0Y!
0Z!
0[!
0\!
0]!
0^!
0_!
0`!
0a!
0b!
0c!
0d!
0e!
1f!
0g!
0h!
0i!
0j!
0k!
0l!
1m!
0n!
0o!
0p!
0q!
1r!
0s!
1t!
1u!
1v!
1w!
1x!
0y!
0z!
0{!
0|!
0}!
0~!
0!"
0""
0#"
0$"
0%"
0&"
0'"
0("
0)"
0*"
0+"
0,"
0-"
0."
0/"
0J"
0I"
0H"
0G"
0F"
0E"
0D"
0C"
0B"
0A"
0@"
0?"
0>"
0="
0<"
0;"
0:"
09"
08"
07"
06"
05"
04"
03"
02"
01"
00"
0V"
0U"
0T"
0S"
0R"
0Q"
0P"
0O"
0N"
0M"
0L"
0K"
0Z"
0Y"
0X"
0W"
0^"
0]"
0\"
0["
0b"
0a"
0`"
0_"
$end
#5000
1!
1C
1D
0;
1J"
1F
0E
1G
1}
1!!
1"!
#10000
0!
0C
0D
1;
#15000
1!
1C
1D
0;
1#!
0J"
0F
1E
0G
0}
0!!
0"!
1V"
1%!
0u!
1(!
0v!
1b"
1&!
0m!
1l!
0w!
1y!
1|!
1}!
1~!
1/!
0'!
1n!
0x!
1+
1(
1'
1&
10!
1o!
#20000
0!
0C
0D
1;
#25000
1!
1C
1D
0;
0#!
1J"
1F
0E
1G
1}
1!!
1"!
#30000
0!
0C
0D
1;
#35000
1!
1C
1D
0;
1#!
0J"
0F
1E
0G
0}
0!!
0"!
0V"
1U"
0%!
1u!
0(!
1v!
0b"
1m!
1)!
0l!
1a"
0m!
0)!
1l!
1*!
1w!
1!"
0n!
0y!
1{!
0|!
0}!
0*!
1n!
1+!
1x!
0o!
0%
0+
1)
0(
0'
0+!
1o!
1,!
0,!
#40000
0!
0C
0D
1;
#45000
1!
1C
1D
0;
0#!
1J"
1F
0E
1G
1}
1!!
1"!
#50000
0!
0C
0D
1;
#55000
1!
1C
1D
0;
1#!
0J"
0F
1E
0G
0}
0!!
0"!
1V"
1%!
0u!
1(!
0v!
1b"
1m!
1)!
0l!
0w!
0{!
1}!
1*!
0n!
0x!
0)
1'
1+!
0o!
1,!
#60000
0!
0C
0D
1;
#65000
1!
1C
1D
0;
0#!
1J"
1F
0E
1G
1}
1!!
1"!
#70000
0!
0C
0D
1;
#75000
1!
1C
1D
0;
1#!
0J"
0F
1E
0G
0}
0!!
0"!
0V"
0U"
1T"
0%!
1u!
0(!
1v!
0b"
0m!
0)!
1l!
0a"
1'!
11!
0*!
1`"
0&!
1m!
0l!
01!
1*!
12!
1w!
1n!
0+!
1y!
1|!
0~!
0'!
02!
0n!
1+!
13!
1x!
1o!
0,!
1+
1(
0&
03!
0o!
1,!
14!
04!
#80000
0!
0C
0D
1;
#85000
1!
1C
1D
0;
0#!
1J"
1F
0E
1G
1}
1!!
1"!
#90000
0!
0C
0D
1;
#95000
1!
1C
1D
0;
1#!
0J"
0F
1E
0G
0}
0!!
0"!
1V"
1%!
0u!
1(!
0v!
1b"
1&!
0m!
1l!
0w!
0y!
1z!
0|!
1'!
1n!
0x!
0+
1*
0(
1o!
#100000
0!
0C
0D
1;
#105000
1!
1C
1D
0;
0#!
1J"
1F
0E
1G
1}
1!!
1"!
#110000
0!
0C
0D
1;
#115000
1!
1C
1D
0;
1#!
0J"
0F
1E
0G
0}
0!!
0"!
0V"
1U"
0%!
1u!
0(!
1v!
0b"
1m!
1)!
0l!
1a"
0m!
0)!
1l!
11!
0*!
1w!
0n!
0}!
01!
1*!
12!
1n!
0+!
1x!
0o!
0'
02!
1+!
13!
1o!
0,!
03!
1,!
14!
04!
#120000
0!
0C
0D
1;
#125000
1!
1C
1D
0;
0#!
1J"
1F
0E
1G
1}
1!!
1"!
#130000
0!
0C
0D
1;
#135000
1!
1C
1D
0;
1#!
0J"
0F
1E
0G
0}
0!!
0"!
1V"
1%!
0u!
1(!
0v!
1b"
1m!
1)!
0l!
0w!
0!"
0z!
1|!
1}!
1~!
11!
0*!
0n!
0x!
1%
0*
1(
1'
1&
12!
0+!
0o!
13!
0,!
14!
#140000
0!
0C
0D
1;
#145000
1!
1C
1D
0;
0#!
1J"
1F
0E
1G
1}
1!!
1"!
#150000
0!
0C
0D
1;
#155000
1!
1C
1D
0;
1#!
0J"
0F
1E
0G
0}
0!!
0"!
0V"
0U"
1S"
0T"
0%!
1u!
0(!
1v!
0b"
0m!
0)!
1l!
0a"
15!
00!
19!
02!
1_"
0'!
01!
1*!
0`"
0&!
1m!
0l!
0*!
1g!
1h!
09!
12!
1w!
1!"
1n!
03!
1+!
0|!
0}!
0~!
0/!
1'!
0h!
0n!
0+!
1i!
13!
1x!
1o!
04!
1,!
0%
0(
0'
0&
05!
10!
0i!
0o!
0,!
1j!
14!
0g!
0j!
#160000
0!
0C
0D
1;
#165000
1!
1C
1D
0;
0#!
1J"
1F
0E
1G
1}
1!!
1"!
#170000
0!
0C
0D
1;
#175000
1!
1C
1D
0;
1#!
0J"
0F
1E
0G
0}
0!!
0"!
1V"
1%!
0u!
1(!
0v!
1b"
1&!
0m!
1l!
0w!
1p!
1}!
1/!
0'!
0x!
1+!
1'
15!
00!
0+!
1,!
1g!
03!
0,!
1i!
04!
1j!
#180000
0!
0C
0D
1;
#185000
1!
1C
1D
0;
0#!
1J"
1F
0E
1G
1}
1!!
1"!
#190000
0!
0C
0D
1;
#195000
1!
1C
1D
0;
1#!
0J"
0F
1E
0G
0}
0!!
0"!
0V"
1R"
0S"
0%!
1u!
0(!
1v!
0b"
1Z"
16!
0g!
1h!
05!
10!
02!
0_"
0&!
1m!
0l!
17!
06!
1g!
1w!
0p!
0!"
0i!
13!
0}!
1""
1%"
1&"
1'"
0/!
1'!
07!
1B!
08!
1i!
1x!
03!
0j!
14!
1%
0'
12
1/
1.
1-
00!
1C!
0r!
0B!
18!
1j!
04!
1D!
0C!
1r!
0D!
#200000
0!
0C
0D
1;
#205000
1!
1C
1D
0;
0#!
1J"
1F
0E
1G
1}
1!!
1"!
#210000
0!
0C
0D
1;
#215000
1!
1C
1D
0;
1#!
0J"
0F
1E
0G
0}
0!!
0"!
1V"
1%!
0u!
1(!
0v!
1b"
1&!
0m!
1l!
0w!
1y!
1|!
1}!
1~!
1/!
0'!
1n!
0x!
1+
1(
1'
1&
10!
1o!
#220000
0!
0C
0D
1;
#225000
1!
1C
1D
0;
0#!
1J"
1F
0E
1G
1}
1!!
1"!
#230000
0!
0C
0D
1;
#235000
1!
1C
1D
0;
1#!
0J"
0F
1E
0G
0}
0!!
0"!
0V"
1U"
0%!
1u!
0(!
1v!
0b"
1m!
1)!
0l!
1a"
0m!
0)!
1l!
1*!
1w!
1!"
0n!
0y!
1{!
0|!
0}!
0*!
1n!
1+!
1x!
0o!
0%
0+
1)
0(
0'
0+!
1o!
1,!
0,!
#240000
0!
0C
0D
1;
#245000
1!
1C
1D
0;
0#!
1J"
1F
0E
1G
1}
1!!
1"!
#250000
0!
0C
0D
1;
#255000
1!
1C
1D
0;
1#!
0J"
0F
1E
0G
0}
0!!
0"!
1V"
1%!
0u!
1(!
0v!
1b"
1m!
1)!
0l!
0w!
0{!
1}!
1*!
0n!
0x!
0)
1'
1+!
0o!
1,!
#260000
0!
0C
0D
1;
#265000
1!
1C
1D
0;
0#!
1J"
1F
0E
1G
1}
1!!
1"!
#270000
0!
0C
0D
1;
#275000
1!
1C
1D
0;
1#!
0J"
0F
1E
0G
0}
0!!
0"!
0V"
0U"
1T"
0%!
1u!
0(!
1v!
0b"
0m!
0)!
1l!
0a"
1'!
11!
0*!
1`"
0&!
1m!
0l!
01!
1*!
12!
1w!
1n!
0+!
1y!
1|!
0~!
0'!
02!
0n!
1+!
13!
1x!
1o!
0,!
1+
1(
0&
03!
0o!
1,!
14!
04!
#280000
0!
0C
0D
1;
#285000
1!
1C
1D
0;
0#!
1J"
1F
0E
1G
1}
1!!
1"!
#290000
0!
0C
0D
1;
#295000
1!
1C
1D
0;
1#!
0J"
0F
1E
0G
0}
0!!
0"!
1V"
1%!
0u!
1(!
0v!
1k!
1b"
1&!
0m!
1l!
0w!
0,!
0P!
0j!
0x!
0y!
1z!
0|!
1'!
1n!
1:
0+
1*
0(
#300000
0!
0C
0D
1;
#305000
1!
1C
1D
0;
0#!
1J"
1F
0E
1G
1}
1!!
1"!
#310000
0!
0C
0D
1;
#315000
1!
1C
1D
0;
1#!
0J"
0F
1E
0G
0}
0!!
0"!
0V"
0R"
0T"
0%!
1u!
0(!
1v!
0k!
0b"
0Z"
0g!
0h!
0'!
0*!
0`"
0&!
1m!
0l!
1w!
1,!
1P!
1j!
1o!
0!"
0i!
0+!
0z!
0}!
0""
0%"
0&"
0'"
0/!
1'!
0n!
1x!
0j!
0,!
0:
1%
0*
0'
02
0/
0.
0-
00!
0o!
#320000
0!
0C
0D
1;
#325000
1!
1C
1D
0;
0#!
1J"
1F
0E
1G
1}
1!!
1"!
#330000
0!
0C
0D
1;
#335000
1!
1C
1D
0;
1#!
0J"
0F
1E
0G
0}
0!!
0"!
1V"
1%!
0u!
1(!
0v!
1b"
1&!
0m!
1l!
0w!
1y!
1|!
1}!
1~!
1/!
0'!
1n!
0x!
1+
1(
1'
1&
10!
1o!
#340000
0!
0C
0D
1;
#345000
1!
1C
1D
0;
0#!
1J"
1F
0E
1G
1}
1!!
1"!
#350000
0!
0C
0D
1;
#355000
1!
1C
1D
0;
1#!
0J"
0F
1E
0G
0}
0!!
0"!
0V"
1U"
0%!
1u!
0(!
1v!
0b"
1m!
1)!
0l!
1a"
0m!
0)!
1l!
1*!
1w!
1!"
0n!
0y!
1{!
0|!
0}!
0*!
1n!
1+!
1x!
0o!
0%
0+
1)
0(
0'
0+!
1o!
1,!
0,!
#360000
0!
0C
0D
1;
#365000
1!
1C
1D
0;
0#!
1J"
1F
0E
1G
1}
1!!
1"!
#370000
0!
0C
0D
1;
#375000
1!
1C
1D
0;
1#!
0J"
0F
1E
0G
0}
0!!
0"!
1V"
1%!
0u!
1(!
0v!
1b"
1m!
1)!
0l!
0w!
0{!
1}!
1*!
0n!
0x!
0)
1'
1+!
0o!
1,!
#380000
0!
0C
0D
1;
#385000
1!
1C
1D
0;
0#!
1J"
1F
0E
1G
1}
1!!
1"!
#390000
0!
0C
0D
1;
#395000
1!
1C
1D
0;
1#!
0J"
0F
1E
0G
0}
0!!
0"!
0V"
0U"
1T"
0%!
1u!
0(!
1v!
0b"
0m!
0)!
1l!
0a"
1'!
11!
0*!
1`"
0&!
1m!
0l!
01!
1*!
12!
1w!
1n!
0+!
1y!
1|!
0~!
0'!
02!
0n!
1+!
13!
1x!
1o!
0,!
1+
1(
0&
03!
0o!
1,!
14!
04!
#400000
0!
0C
0D
1;
#405000
1!
1C
1D
0;
0#!
1J"
1F
0E
1G
1}
1!!
1"!
#410000
0!
0C
0D
1;
#415000
1!
1C
1D
0;
1#!
0J"
0F
1E
0G
0}
0!!
0"!
1V"
1%!
0u!
1(!
0v!
1b"
1&!
0m!
1l!
0w!
0y!
1z!
0|!
1'!
1n!
0x!
0+
1*
0(
1o!
#420000
0!
0C
0D
1;
#425000
1!
1C
1D
0;
0#!
1J"
1F
0E
1G
1}
1!!
1"!
#430000
0!
0C
0D
1;
#435000
1!
1C
1D
0;
1#!
0J"
0F
1E
0G
0}
0!!
0"!
0V"
1U"
0%!
1u!
0(!
1v!
0b"
1m!
1)!
0l!
1a"
0m!
0)!
1l!
11!
0*!
1w!
0n!
0}!
01!
1*!
12!
1n!
0+!
1x!
0o!
0'
02!
1+!
13!
1o!
0,!
03!
1,!
14!
04!
#440000
0!
0C
0D
1;
#445000
1!
1C
1D
0;
0#!
1J"
1F
0E
1G
1}
1!!
1"!
#450000
0!
0C
0D
1;
#455000
1!
1C
1D
0;
1#!
0J"
0F
1E
0G
0}
0!!
0"!
1V"
1%!
0u!
1(!
0v!
1b"
1m!
1)!
0l!
0w!
0!"
0z!
1|!
1}!
1~!
11!
0*!
0n!
0x!
1%
0*
1(
1'
1&
12!
0+!
0o!
13!
0,!
14!
#460000
0!
0C
0D
1;
#465000
1!
1C
1D
0;
0#!
1J"
1F
0E
1G
1}
1!!
1"!
#470000
0!
0C
0D
1;
#475000
1!
1C
1D
0;
1#!
0J"
0F
1E
0G
0}
0!!
0"!
0V"
0U"
1S"
0T"
0%!
1u!
0(!
1v!
0b"
0m!
0)!
1l!
0a"
15!
00!
19!
02!
1_"
0'!
01!
1*!
0`"
0&!
1m!
0l!
0*!
1g!
1h!
09!
12!
1w!
1!"
1n!
03!
1+!
0|!
0}!
0~!
0/!
1'!
0h!
0n!
0+!
1i!
13!
1x!
1o!
04!
1,!
0%
0(
0'
0&
05!
10!
0i!
0o!
0,!
1j!
14!
0g!
0j!
#480000
0!
0C
0D
1;
#485000
1!
1C
1D
0;
0#!
1J"
1F
0E
1G
1}
1!!
1"!
#490000
0!
0C
0D
1;
#495000
1!
1C
1D
0;
1#!
0J"
0F
1E
0G
0}
0!!
0"!
1V"
1%!
0u!
1(!
0v!
1b"
1&!
0m!
1l!
0w!
1p!
1}!
1/!
0'!
0x!
1+!
1'
15!
00!
0+!
1,!
1g!
03!
0,!
1i!
04!
1j!
#500000
0!
0C
0D
1;
#505000
1!
1C
1D
0;
0#!
1J"
1F
0E
1G
1}
1!!
1"!
#510000
0!
0C
0D
1;
#515000
1!
1C
1D
0;
1#!
0J"
0F
1E
0G
0}
0!!
0"!
0V"
1R"
0S"
0%!
1u!
0(!
1v!
0b"
1Z"
16!
0g!
1h!
05!
10!
02!
0_"
0&!
1m!
0l!
17!
06!
1g!
1w!
0p!
0!"
0i!
13!
0}!
1""
1%"
1&"
1'"
0/!
1'!
07!
1B!
08!
1i!
1x!
03!
0j!
14!
1%
0'
12
1/
1.
1-
00!
1C!
0r!
0B!
18!
1j!
04!
1D!
0C!
1r!
0D!
#520000
0!
0C
0D
1;
#525000
1!
1C
1D
0;
0#!
1J"
1F
0E
1G
1}
1!!
1"!
#530000
0!
0C
0D
1;
#535000
1!
1C
1D
0;
1#!
0J"
0F
1E
0G
0}
0!!
0"!
1V"
1%!
0u!
1(!
0v!
1b"
1&!
0m!
1l!
0w!
1y!
1|!
1}!
1~!
1/!
0'!
1n!
0x!
1+
1(
1'
1&
10!
1o!
#540000
0!
0C
0D
1;
#545000
1!
1C
1D
0;
0#!
1J"
1F
0E
1G
1}
1!!
1"!
#550000
0!
0C
0D
1;
#555000
1!
1C
1D
0;
1#!
0J"
0F
1E
0G
0}
0!!
0"!
0V"
1U"
0%!
1u!
0(!
1v!
0b"
1m!
1)!
0l!
1a"
0m!
0)!
1l!
1*!
1w!
1!"
0n!
0y!
1{!
0|!
0}!
0*!
1n!
1+!
1x!
0o!
0%
0+
1)
0(
0'
0+!
1o!
1,!
0,!
#560000
0!
0C
0D
1;
#565000
1!
1C
1D
0;
0#!
1J"
1F
0E
1G
1}
1!!
1"!
#570000
0!
0C
0D
1;
#575000
1!
1C
1D
0;
1#!
0J"
0F
1E
0G
0}
0!!
0"!
1V"
1%!
0u!
1(!
0v!
1b"
1m!
1)!
0l!
0w!
0{!
1}!
1*!
0n!
0x!
0)
1'
1+!
0o!
1,!
#580000
0!
0C
0D
1;
#585000
1!
1C
1D
0;
0#!
1J"
1F
0E
1G
1}
1!!
1"!
#590000
0!
0C
0D
1;
#595000
1!
1C
1D
0;
1#!
0J"
0F
1E
0G
0}
0!!
0"!
0V"
0U"
1T"
0%!
1u!
0(!
1v!
0b"
0m!
0)!
1l!
0a"
1'!
11!
0*!
1`"
0&!
1m!
0l!
01!
1*!
12!
1w!
1n!
0+!
1y!
1|!
0~!
0'!
02!
0n!
1+!
13!
1x!
1o!
0,!
1+
1(
0&
03!
0o!
1,!
14!
04!
#600000
0!
0C
0D
1;
#605000
1!
1C
1D
0;
0#!
1J"
1F
0E
1G
1}
1!!
1"!
#610000
0!
0C
0D
1;
#615000
1!
1C
1D
0;
1#!
0J"
0F
1E
0G
0}
0!!
0"!
1V"
1%!
0u!
1(!
0v!
1k!
1b"
1&!
0m!
1l!
0w!
0,!
0P!
0j!
0x!
0y!
1z!
0|!
1'!
1n!
1:
0+
1*
0(
#620000
0!
0C
0D
1;
#625000
1!
1C
1D
0;
0#!
1J"
1F
0E
1G
1}
1!!
1"!
#630000
0!
0C
0D
1;
#635000
1!
1C
1D
0;
1#!
0J"
0F
1E
0G
0}
0!!
0"!
0V"
0R"
0T"
0%!
1u!
0(!
1v!
0k!
0b"
0Z"
0g!
0h!
0'!
0*!
0`"
0&!
1m!
0l!
1w!
1,!
1P!
1j!
1o!
0!"
0i!
0+!
0z!
0}!
0""
0%"
0&"
0'"
0/!
1'!
0n!
1x!
0j!
0,!
0:
1%
0*
0'
02
0/
0.
0-
00!
0o!
#640000
0!
0C
0D
1;
#645000
1!
1C
1D
0;
0#!
1J"
1F
0E
1G
1}
1!!
1"!
#650000
0!
0C
0D
1;
#655000
1!
1C
1D
0;
1#!
0J"
0F
1E
0G
0}
0!!
0"!
1V"
1%!
0u!
1(!
0v!
1b"
1&!
0m!
1l!
0w!
1y!
1|!
1}!
1~!
1/!
0'!
1n!
0x!
1+
1(
1'
1&
10!
1o!
#660000
0!
0C
0D
1;
#665000
1!
1C
1D
0;
0#!
1J"
1F
0E
1G
1}
1!!
1"!
#670000
0!
0C
0D
1;
#675000
1!
1C
1D
0;
1#!
0J"
0F
1E
0G
0}
0!!
0"!
0V"
1U"
0%!
1u!
0(!
1v!
0b"
1m!
1)!
0l!
1a"
0m!
0)!
1l!
1*!
1w!
1!"
0n!
0y!
1{!
0|!
0}!
0*!
1n!
1+!
1x!
0o!
0%
0+
1)
0(
0'
0+!
1o!
1,!
0,!
#680000
0!
0C
0D
1;
#685000
1!
1C
1D
0;
0#!
1J"
1F
0E
1G
1}
1!!
1"!
#690000
0!
0C
0D
1;
#695000
1!
1C
1D
0;
1#!
0J"
0F
1E
0G
0}
0!!
0"!
1V"
1%!
0u!
1(!
0v!
1b"
1m!
1)!
0l!
0w!
0{!
1}!
1*!
0n!
0x!
0)
1'
1+!
0o!
1,!
#700000
0!
0C
0D
1;
#705000
1!
1C
1D
0;
0#!
1J"
1F
0E
1G
1}
1!!
1"!
#710000
0!
0C
0D
1;
#715000
1!
1C
1D
0;
1#!
0J"
0F
1E
0G
0}
0!!
0"!
0V"
0U"
1T"
0%!
1u!
0(!
1v!
0b"
0m!
0)!
1l!
0a"
1'!
11!
0*!
1`"
0&!
1m!
0l!
01!
1*!
12!
1w!
1n!
0+!
1y!
1|!
0~!
0'!
02!
0n!
1+!
13!
1x!
1o!
0,!
1+
1(
0&
03!
0o!
1,!
14!
04!
#720000
0!
0C
0D
1;
#725000
1!
1C
1D
0;
0#!
1J"
1F
0E
1G
1}
1!!
1"!
#730000
0!
0C
0D
1;
