Exp3/simulation/qsim/traffic.msim.vcd
$comment
	File created using the following command:
		vcd file traffic.msim.vcd -direction
$end
$date
	Sun Dec 30 12:05:23 2018
$end
$version
	ModelSim Version 10.1d
$end
$timescale
	1ps
$end
$scope module traffic_vlg_vec_tst $end
$var reg 1 ! clk $end
$var reg 1 " rst_n $end
$var reg 1 # s $end
$var wire 1 $ CG $end
$var wire 1 % CR $end
$var wire 1 & CY $end
$var wire 1 ' MG $end
$var wire 1 ( MR $end
$var wire 1 ) MY $end
$var wire 1 * SG0 [6] $end
$var wire 1 + SG0 [5] $end
$var wire 1 , SG0 [4] $end
$var wire 1 - SG0 [3] $end
$var wire 1 . SG0 [2] $end
$var wire 1 / SG0 [1] $end
$var wire 1 0 SG0 [0] $end
$var wire 1 1 SG1 [6] $end
$var wire 1 2 SG1 [5] $end
$var wire 1 3 SG1 [4] $end
$var wire 1 4 SG1 [3] $end
$var wire 1 5 SG1 [2] $end
$var wire 1 6 SG1 [1] $end
$var wire 1 7 SG1 [0] $end
$var wire 1 8 SG4 [6] $end
$var wire 1 9 SG4 [5] $end
$var wire 1 : SG4 [4] $end
$var wire 1 ; SG4 [3] $end
$var wire 1 < SG4 [2] $end
$var wire 1 = SG4 [1] $end
$var wire 1 > SG4 [0] $end
$var wire 1 ? SG5 [6] $end
$var wire 1 @ SG5 [5] $end
$var wire 1 A SG5 [4] $end
$var wire 1 B SG5 [3] $end
$var wire 1 C SG5 [2] $end
$var wire 1 D SG5 [1] $end
$var wire 1 E SG5 [0] $end
$var wire 1 F sec_cnt [7] $end
$var wire 1 G sec_cnt [6] $end
$var wire 1 H sec_cnt [5] $end
$var wire 1 I sec_cnt [4] $end
$var wire 1 J sec_cnt [3] $end
$var wire 1 K sec_cnt [2] $end
$var wire 1 L sec_cnt [1] $end
$var wire 1 M sec_cnt [0] $end
$var wire 1 N state [2] $end
$var wire 1 O state [1] $end
$var wire 1 P state [0] $end
$var wire 1 Q sampler $end
$scope module i1 $end
$var wire 1 R gnd $end
$var wire 1 S vcc $end
$var wire 1 T unknown $end
$var tri1 1 U devclrn $end
$var tri1 1 V devpor $end
$var tri1 1 W devoe $end
$var wire 1 X ~QUARTUS_CREATED_GND~I_combout $end
$var wire 1 Y clk~input_o $end
$var wire 1 Z clk~inputCLKENA0_outclk $end
$var wire 1 [ s~input_o $end
$var wire 1 \ Mux2~0_combout $end
$var wire 1 ] rst_n~input_o $end
$var wire 1 ^ state[0]~reg0_q $end
$var wire 1 _ sec_cnt[0]~0_combout $end
$var wire 1 ` MY~0_combout $end
$var wire 1 a sec_cnt[0]~1_combout $end
$var wire 1 b Add1~1_sumout $end
$var wire 1 c sec_cnt[0]~2_combout $end
$var wire 1 d sec_cnt[0]~reg0_q $end
$var wire 1 e sec_cnt[1]~3_combout $end
$var wire 1 f always0~1_combout $end
$var wire 1 g Add1~2 $end
$var wire 1 h Add1~5_sumout $end
$var wire 1 i sec_cnt[1]~4_combout $end
$var wire 1 j sec_cnt[1]~reg0_q $end
$var wire 1 k sec_cnt[7]~5_combout $end
$var wire 1 l Add1~6 $end
$var wire 1 m Add1~9_sumout $end
$var wire 1 n sec_cnt[2]~6_combout $end
$var wire 1 o sec_cnt[2]~reg0_q $end
$var wire 1 p Add1~10 $end
$var wire 1 q Add1~13_sumout $end
$var wire 1 r sec_cnt[3]~7_combout $end
$var wire 1 s sec_cnt[3]~reg0_q $end
$var wire 1 t always0~0_combout $end
$var wire 1 u Mux1~0_combout $end
$var wire 1 v state[1]~reg0_q $end
$var wire 1 w Mux10~0_combout $end
$var wire 1 x Add0~22_cout $end
$var wire 1 y Add0~18_cout $end
$var wire 1 z Add0~1_sumout $end
$var wire 1 { Add1~14 $end
$var wire 1 | Add1~17_sumout $end
$var wire 1 } sec_cnt[4]~8_combout $end
$var wire 1 ~ sec_cnt[4]~reg0_q $end
$var wire 1 !! Add0~2 $end
$var wire 1 "! Add0~5_sumout $end
$var wire 1 #! Add1~18 $end
$var wire 1 $! Add1~21_sumout $end
$var wire 1 %! sec_cnt[5]~9_combout $end
$var wire 1 &! sec_cnt[5]~reg0_q $end
$var wire 1 '! Add0~6 $end
$var wire 1 (! Add0~9_sumout $end
$var wire 1 )! Add1~22 $end
$var wire 1 *! Add1~25_sumout $end
$var wire 1 +! Mux10~1_combout $end
$var wire 1 ,! sec_cnt[6]~reg0_q $end
$var wire 1 -! Add0~10 $end
$var wire 1 .! Add0~13_sumout $end
$var wire 1 /! Add1~26 $end
$var wire 1 0! Add1~29_sumout $end
$var wire 1 1! sec_cnt[7]~10_combout $end
$var wire 1 2! sec_cnt[7]~reg0_q $end
$var wire 1 3! Equal1~0_combout $end
$var wire 1 4! Equal2~0_combout $end
$var wire 1 5! Mux0~0_combout $end
$var wire 1 6! state[2]~reg0_q $end
$var wire 1 7! MR~0_combout $end
$var wire 1 8! MR~1_combout $end
$var wire 1 9! MR~reg0_q $end
$var wire 1 :! MY~reg0_q $end
$var wire 1 ;! Mux5~0_combout $end
$var wire 1 <! MG~reg0_q $end
$var wire 1 =! CR~reg0feeder_combout $end
$var wire 1 >! CR~reg0_q $end
$var wire 1 ?! CY~reg0_q $end
$var wire 1 @! Mux8~0_combout $end
$var wire 1 A! CG~reg0_q $end
$upscope $end
$upscope $end
$enddefinitions $end
#0
$dumpvars
0!
1"
1#
0$
1%
0&
1'
0(
0)
00
0/
0.
0-
0,
0+
0*
07
06
05
04
03
02
01
0>
0=
0<
0;
0:
09
08
0E
0D
0C
0B
0A
0@
0?
0M
0L
0K
0J
0I
0H
0G
0F
0P
0O
0N
xQ
0R
1S
xT
1U
1V
1W
0X
0Y
0Z
1[
0\
1]
0^
0_
1`
0a
1b
1c
0d
1e
0f
0g
1h
0i
0j
0k
0l
1m
0n
0o
0p
1q
1r
0s
1t
0u
0v
0w
0x
0y
1z
0{
1|
1}
0~
0!!
1"!
0#!
1$!
0%!
0&!
0'!
1(!
0)!
1*!
1+!
0,!
0-!
1.!
0/!
10!
01!
02!
13!
14!
15!
06!
17!
08!
09!
0:!
1;!
0<!
1=!
0>!
0?!
1@!
0A!
$end
#5000
1!
1Y
1Z
0Q
16!
1,!
1~
1s
1d
1\
0`
0e
0+!
05!
07!
18!
0@!
1-!
0(!
1/!
0*!
03!
1!!
0z
1#!
0|
1{
0q
0t
1y
1g
0b
1N
1G
1I
1J
1M
0.!
00!
1'!
0"!
1)!
0$!
1|
1z
1l
0h
1a
1i
0r
0}
0=!
1k
1w
04!
08!
1(!
1*!
1p
0m
1}
0i
0c
1n
0\
15!
1q
1+!
0n
1r
#10000
0!
0Y
0Z
1Q
#15000
1!
1Y
1Z
0Q
0d
0g
1b
0M
0l
1h
1c
0p
1m
1i
0q
1n
0r
#20000
0!
0Y
0Z
1Q
#25000
1!
1Y
1Z
0Q
0s
1o
1j
1d
0{
1q
0y
1p
0m
1x
1l
0h
1g
0b
0J
1K
1L
1M
0|
0z
1{
0q
1y
1m
1h
1r
0n
0i
0c
1|
1z
0}
0r
1n
1i
1}
#30000
0!
0Y
0Z
1Q
#35000
1!
1Y
1Z
0Q
0d
0g
1b
0M
0h
1c
0i
#40000
0!
0Y
0Z
1Q
#45000
1!
1Y
1Z
0Q
0j
1d
0l
1h
0x
1g
0b
0L
1M
0m
0y
1l
0h
1i
0c
0z
1m
0n
0i
1n
#50000
0!
0Y
0Z
1Q
#55000
1!
1Y
1Z
0Q
0d
0g
1b
0M
0l
1h
1c
0m
1i
0n
#60000
0!
0Y
0Z
1Q
#65000
1!
1Y
1Z
0Q
0o
1j
1d
0p
1m
1l
0h
1g
0b
0K
1L
1M
0{
1q
1p
0m
1h
1n
0i
0c
0|
1{
0q
1r
0n
1i
1|
0}
0r
1}
#70000
0!
0Y
0Z
1Q
#75000
1!
1Y
1Z
0Q
0d
0g
1b
0M
0h
1c
0i
#80000
0!
0Y
0Z
1Q
#85000
1!
1Y
1Z
0Q
0j
1d
0l
1h
1g
0b
0L
1M
0p
1m
1l
0h
1i
0c
0{
1q
1p
0m
1n
0i
0|
1{
0q
1r
0n
1|
0}
0r
1}
#90000
0!
0Y
0Z
1Q
#95000
1!
1Y
1Z
0Q
0d
0g
1b
1t
0M
0l
1h
1c
1f
0p
1m
1i
1l
0h
1q
0|
0q
1p
0m
1n
0i
1r
0}
1q
0r
0n
1r
#100000
0!
0Y
0Z
1Q
#105000
1!
1Y
1Z
0Q
0~
1s
1d
0!!
1z
0t
1y
1g
0b
0I
1J
1M
0'!
1"!
1!!
0z
1h
1|
0f
0c
0(!
1'!
0"!
0|
1i
1}
0h
1(!
0}
0i
#110000
0!
0Y
0Z
1Q
#115000
1!
1Y
1Z
0Q
0d
0g
1b
0M
0l
1h
1c
0p
1m
1i
0q
1n
0r
#120000
0!
0Y
0Z
1Q
#125000
1!
1Y
1Z
0Q
0s
1o
1j
1d
0{
1q
0y
1p
0m
1x
1l
0h
1g
0b
0J
1K
1L
1M
0#!
1|
0!!
1z
1{
0q
1y
1m
1h
1r
0n
0i
0c
0)!
1$!
0'!
1"!
1#!
0|
1!!
0z
1}
0r
1n
1i
0*!
0(!
1)!
0$!
1'!
0"!
1%!
0}
1*!
1(!
0+!
0%!
1+!
#130000
0!
0Y
0Z
1Q
#135000
1!
1Y
1Z
0Q
0d
0g
1b
0M
0h
1c
0i
#140000
0!
0Y
0Z
1Q
#145000
1!
1Y
1Z
0Q
0j
1d
0l
1h
0x
1g
0b
0L
1M
0m
0y
1l
0h
1i
0c
0!!
1z
1m
0n
0i
0'!
1"!
1n
0(!
#150000
0!
0Y
0Z
1Q
#155000
1!
1Y
1Z
0Q
0d
0g
1b
0M
0l
1h
1c
0m
1i
0n
#160000
0!
0Y
0Z
1Q
#165000
1!
1Y
1Z
0Q
0o
1j
1d
0p
1m
1l
0h
1g
0b
0K
1L
1M
0{
1q
1p
0m
1h
1n
0i
0c
0#!
1|
1{
0q
1r
0n
1i
0)!
1$!
1#!
0|
1}
0r
0*!
1)!
0$!
1%!
0}
1*!
0+!
0%!
1+!
#170000
0!
0Y
0Z
1Q
#175000
1!
1Y
1Z
0Q
0d
0g
1b
0M
0h
1c
0i
#180000
0!
0Y
0Z
1Q
#185000
1!
1Y
1Z
0Q
0j
1d
0l
1h
1g
0b
0L
1M
0p
1m
1l
0h
1i
0c
0{
1q
1p
0m
1n
0i
0#!
1|
1{
0q
1r
0n
0)!
1$!
1#!
0|
1}
0r
0*!
1)!
0$!
1%!
0}
1*!
0+!
0%!
1+!
#190000
0!
0Y
0Z
1Q
#195000
1!
1Y
1Z
0Q
0d
0g
1b
1t
0M
0l
1h
1c
1f
0p
1m
1i
1l
0h
1q
1|
1$!
0*!
0q
1p
0m
1n
0i
1r
1}
1%!
0+!
1q
0r
0n
1r
#200000
0!
0Y
0Z
1Q
#205000
1!
1Y
1Z
0Q
0,!
1&!
1~
1s
1d
0-!
1(!
1'!
0"!
1!!
0z
0t
1y
1g
0b
0G
1H
1I
1J
1M
1.!
1-!
0(!
1"!
1z
1h
1*!
0$!
0|
0f
0c
0.!
0*!
1$!
1|
1i
1+!
0%!
0}
0h
0+!
1%!
1}
0i
#210000
0!
0Y
0Z
1Q
#215000
1!
1Y
1Z
0Q
0d
0g
1b
0M
0l
1h
1c
0p
1m
1i
0q
1n
0r
#220000
0!
0Y
0Z
1Q
#225000
1!
1Y
1Z
0Q
0s
1o
1j
1d
0{
1q
0y
1p
0m
1x
1l
0h
1g
0b
0J
1K
1L
1M
0|
0z
1{
0q
1y
1m
1h
1r
0n
0i
0c
1|
1z
0}
0r
1n
1i
1}
#230000
0!
0Y
0Z
1Q
#235000
1!
1Y
1Z
0Q
0d
0g
1b
0M
0h
1c
0i
#240000
0!
0Y
0Z
1Q
#245000
1!
1Y
1Z
0Q
0j
1d
0l
1h
0x
1g
0b
0L
1M
0m
0y
1l
0h
1i
0c
0z
1m
0n
0i
1n
#250000
0!
0Y
0Z
1Q
#255000
1!
1Y
1Z
0Q
0d
0g
1b
0M
0l
1h
1c
0m
1i
0n
#260000
0!
0Y
0Z
1Q
#265000
1!
1Y
1Z
0Q
0o
1j
1d
0p
1m
1l
0h
1g
0b
0K
1L
1M
0{
1q
1p
0m
1h
1n
0i
0c
0|
1{
0q
1r
0n
1i
1|
0}
0r
1}
#270000
0!
0Y
0Z
1Q
#275000
1!
1Y
1Z
0Q
0d
0g
1b
0M
0h
1c
0i
#280000
0!
0Y
0Z
1Q
#285000
1!
1Y
1Z
0Q
0j
1d
0l
1h
1g
0b
0L
1M
0p
1m
1l
0h
1i
0c
0{
1q
1p
0m
1n
0i
0|
1{
0q
1r
0n
1|
0}
0r
1}
#290000
0!
0Y
0Z
1Q
#295000
1!
1Y
1Z
0Q
0d
0g
1b
1t
0M
0l
1h
1c
1f
0p
1m
1i
1l
0h
1q
0|
0q
1p
0m
1n
0i
1r
0}
1q
0r
0n
1r
#300000
0!
0Y
0Z
1Q
#305000
1!
1Y
1Z
0Q
0~
1s
1d
0!!
1z
0t
1y
1g
0b
0I
1J
1M
0"!
1!!
0z
1h
1|
0f
0c
1"!
0|
1i
1}
0h
0}
0i
#310000
0!
0Y
0Z
1Q
#315000
1!
1Y
1Z
0Q
0d
0g
1b
0M
0l
1h
1c
0p
1m
1i
0q
1n
0r
#320000
0!
0Y
0Z
1Q
#325000
1!
1Y
1Z
0Q
0s
1o
1j
1d
0{
1q
0y
1p
0m
1x
1l
0h
1g
0b
0J
1K
1L
1M
0#!
1|
0!!
1z
1{
0q
1y
1m
1h
1r
0n
0i
0c
0$!
0"!
1#!
0|
1!!
0z
1}
0r
1n
1i
1$!
1"!
0%!
0}
1%!
#330000
0!
0Y
0Z
1Q
#335000
1!
1Y
1Z
0Q
0d
0g
1b
0M
0h
1c
0i
#340000
0!
0Y
0Z
1Q
#345000
1!
1Y
1Z
0Q
0j
1d
0l
1h
0x
1g
0b
0L
1M
0m
0y
1l
0h
1i
0c
0!!
1z
1m
0n
0i
0"!
1n
#350000
0!
0Y
0Z
1Q
#355000
1!
1Y
1Z
0Q
0d
0g
1b
0M
0l
1h
1c
0m
1i
0n
#360000
0!
0Y
0Z
1Q
#365000
1!
1Y
1Z
0Q
0o
1j
1d
0p
1m
1l
0h
1g
0b
0K
1L
1M
0{
1q
1p
0m
1h
1n
0i
0c
0#!
1|
1{
0q
1r
0n
1i
0$!
1#!
0|
1}
0r
1$!
0%!
0}
1%!
#370000
0!
0Y
0Z
1Q
#375000
1!
1Y
1Z
0Q
0d
0g
1b
0M
0h
1c
0i
#380000
0!
0Y
0Z
1Q
#385000
1!
1Y
1Z
0Q
0j
1d
0l
1h
1g
0b
0L
1M
0p
1m
1l
0h
1i
0c
0{
1q
1p
0m
1n
0i
0#!
1|
1{
0q
1r
0n
0$!
1#!
0|
1}
0r
1$!
0%!
0}
1%!
#390000
0!
0Y
0Z
1Q
#395000
1!
1Y
1Z
0Q
0d
0g
1b
1t
0M
0l
1h
1c
1f
0p
1m
1i
1l
0h
1q
1|
0$!
0q
1p
0m
1n
0i
1r
1}
0%!
1q
0r
0n
1r
#400000
0!
0Y
0Z
1Q
#405000
1!
1Y
1Z
0Q
0&!
1~
1s
1d
0'!
1"!
1!!
0z
0t
1y
1g
0b
0H
1I
1J
1M
0-!
1(!
1'!
0"!
1z
1h
1$!
0|
0f
0c
1.!
1-!
0(!
0$!
1|
1i
1%!
0}
0h
0.!
0%!
1}
0i
#410000
0!
0Y
0Z
1Q
#415000
1!
1Y
1Z
0Q
0d
0g
1b
0M
0l
1h
1c
0p
1m
1i
0q
1n
0r
#420000
0!
0Y
0Z
1Q
#425000
1!
1Y
1Z
0Q
0s
1o
1j
1d
0{
1q
0y
1p
0m
1x
1l
0h
1g
0b
0J
1K
1L
1M
0|
0z
1{
0q
1y
1m
1h
1r
0n
0i
0c
1|
1z
0}
0r
1n
1i
1}
#430000
0!
0Y
0Z
1Q
#435000
1!
1Y
1Z
0Q
0d
0g
1b
0M
0h
1c
0i
#440000
0!
0Y
0Z
1Q
#445000
1!
1Y
1Z
0Q
0j
1d
0l
1h
0x
1g
0b
0L
1M
0m
0y
1l
0h
1i
0c
0z
1m
0n
0i
1n
#450000
0!
0Y
0Z
1Q
#455000
1!
1Y
1Z
0Q
0d
0g
1b
0M
0l
1h
1c
0m
1i
0n
#460000
0!
0Y
0Z
1Q
#465000
1!
1Y
1Z
0Q
0o
1j
1d
0p
1m
1l
0h
1g
0b
0K
1L
1M
0{
1q
1p
0m
1h
1n
0i
0c
0|
1{
0q
1r
0n
1i
1|
0}
0r
1}
#470000
0!
0Y
0Z
1Q
#475000
1!
1Y
1Z
0Q
0d
0g
1b
0M
0h
1c
0i
#480000
0!
0Y
0Z
1Q
#485000
1!
1Y
1Z
0Q
0j
1d
0l
1h
1g
0b
0L
1M
0p
1m
1l
0h
1i
0c
0{
1q
1p
0m
1n
0i
0|
1{
0q
1r
0n
1|
0}
0r
1}
#490000
0!
0Y
0Z
1Q
#495000
1!
1Y
1Z
0Q
0d
0g
1b
1t
0M
0l
1h
1c
1f
0p
1m
1i
1l
0h
1q
0|
0q
1p
0m
1n
0i
1r
0}
1q
0r
0n
1r
#500000
0!
0Y
0Z
1Q
#505000
1!
1Y
1Z
0Q
0~
1s
1d
0!!
1z
13!
0t
1y
1g
0b
0I
1J
1M
0'!
1"!
1!!
0z
1h
1|
0f
0c
0-!
1(!
1'!
0"!
0|
1i
1}
0h
1.!
1-!
0(!
0}
0i
0.!
#510000
0!
0Y
0Z
1Q
#515000
1!
1Y
1Z
0Q
0d
0g
1b
0M
0l
1h
1c
0p
1m
1i
0q
1n
0r
#520000
0!
0Y
0Z
1Q
#525000
1!
1Y
1Z
0Q
0s
1o
1j
1d
0{
1q
0y
1p
0m
1x
1l
0h
1g
0b
0J
1K
1L
1M
0#!
1|
0!!
1z
1{
0q
1y
1m
1h
1r
0n
0i
0c
0)!
1$!
0'!
1"!
1#!
0|
1!!
0z
1}
0r
1n
1i
0/!
1*!
0-!
1(!
1)!
0$!
1'!
0"!
1%!
0}
10!
1.!
1/!
0*!
1-!
0(!
1+!
0%!
00!
0.!
11!
0+!
01!
#530000
0!
0Y
0Z
1Q
#535000
1!
1Y
1Z
0Q
0d
0g
1b
0M
0h
1c
0i
#540000
0!
0Y
0Z
1Q
#545000
1!
1Y
1Z
0Q
0j
1d
0l
1h
0x
1g
0b
0L
1M
0m
0y
1l
0h
1i
0c
0!!
1z
1m
0n
0i
0'!
1"!
1n
0-!
1(!
1.!
#550000
0!
0Y
0Z
1Q
#555000
1!
1Y
1Z
0Q
0d
0g
1b
0M
0l
1h
1c
0m
1i
0n
#560000
0!
0Y
0Z
1Q
#565000
1!
1Y
1Z
0Q
0o
1j
1d
0p
1m
1l
0h
1g
0b
0K
1L
1M
0{
1q
1p
0m
1h
1n
0i
0c
0#!
1|
1{
0q
1r
0n
1i
0)!
1$!
1#!
0|
1}
0r
0/!
1*!
1)!
0$!
1%!
0}
10!
1/!
0*!
1+!
0%!
00!
11!
0+!
01!
#570000
0!
0Y
0Z
1Q
#575000
1!
1Y
1Z
0Q
0d
0g
1b
0M
0h
1c
0i
#580000
0!
0Y
0Z
1Q
#585000
1!
1Y
1Z
0Q
0j
1d
0l
1h
1g
0b
0L
1M
0p
1m
1l
0h
1i
0c
0{
1q
1p
0m
1n
0i
0#!
1|
1{
0q
1r
0n
0)!
1$!
1#!
0|
1}
0r
0/!
1*!
1)!
0$!
1%!
0}
10!
1/!
0*!
1+!
0%!
00!
11!
0+!
01!
#590000
0!
0Y
0Z
1Q
#595000
1!
1Y
1Z
0Q
0d
0g
1b
1t
0M
0l
1h
1c
0a
0k
0w
14!
18!
0p
1m
1i
1\
05!
0{
1q
0#!
1|
0)!
1$!
0/!
1*!
10!
#600000
0!
0Y
0Z
1Q
#605000
1!
1Y
1Z
0Q
1<!
1:!
06!
1j
1d
1^
0\
1e
17!
1@!
1l
0h
0t
1g
0b
1u
0'
1)
0N
1L
1M
1P
1p
0m
1h
0i
1r
1}
1=!
1a
1k
0u
1w
04!
08!
1{
0q
1i
0c
1%!
11!
1+!
1\
1#!
0|
0r
1)!
0$!
0}
1/!
0*!
0%!
00!
0+!
01!
#610000
0!
0Y
0Z
1Q
#615000
1!
1Y
1Z
0Q
0d
0g
1b
0M
0h
1c
0i
#620000
0!
0Y
0Z
1Q
#625000
1!
1Y
1Z
0Q
0j
1d
0l
1h
1g
0b
0L
1M
0p
1m
1l
0h
1i
0c
0{
1q
1p
0m
1n
0i
0#!
1|
1{
0q
1r
0n
0)!
1$!
1#!
0|
1}
0r
0/!
1*!
1)!
0$!
1%!
0}
10!
1/!
0*!
1+!
0%!
00!
11!
0+!
01!
#630000
0!
0Y
0Z
1Q
#635000
1!
1Y
1Z
0Q
0d
0g
1b
1t
0M
0l
1h
1c
0a
0k
1u
0w
14!
18!
0p
1m
1r
1}
0\
0{
1q
0#!
1|
0)!
1$!
0/!
1*!
10!
#640000
0!
0Y
0Z
1Q
#645000
1!
1Y
1Z
0Q
1>!
1A!
0:!
19!
1~
1v
1s
1d
0^
1!!
0z
1#!
0|
03!
1\
0e
0@!
1{
0q
0t
1y
1g
0b
1`
0%
1$
0)
1(
1I
1O
1J
1M
0P
1'!
0"!
1)!
0$!
1|
1z
1l
0h
0}
1a
1k
1w
04!
08!
1i
0r
1-!
0(!
1/!
0*!
1p
0m
1}
0i
0c
1n
11!
1+!
0\
0.!
00!
1q
0+!
0n
01!
1r
#650000
0!
0Y
0Z
1Q
#655000
1!
1Y
1Z
0Q
0d
0g
1b
0M
0l
1h
1c
0p
1m
1i
0q
1n
0r
#660000
0!
0Y
0Z
1Q
#665000
1!
1Y
1Z
0Q
0s
1o
1j
1d
0{
1q
0y
1p
0m
1x
1l
0h
1g
0b
0J
1K
1L
1M
0|
0z
1{
0q
1y
1m
1h
1r
0n
0i
0c
1|
1z
0}
0r
1n
1i
1}
#670000
0!
0Y
0Z
1Q
#675000
1!
1Y
1Z
0Q
0d
0g
1b
0M
0h
1c
0i
#680000
0!
0Y
0Z
1Q
#685000
1!
1Y
1Z
0Q
0j
1d
0l
1h
0x
1g
0b
0L
1M
0m
0y
1l
0h
1i
0c
0z
1m
0n
0i
1n
#690000
0!
0Y
0Z
1Q
#695000
1!
1Y
1Z
0Q
0d
0g
1b
0M
0l
1h
1c
0m
1i
0n
#700000
0!
0Y
0Z
1Q
#705000
1!
1Y
1Z
0Q
0o
1j
1d
0p
1m
1l
0h
1g
0b
0K
1L
1M
0{
1q
1p
0m
1h
1n
0i
0c
0|
1{
0q
1r
0n
1i
1|
0}
0r
1}
#710000
0!
0Y
0Z
1Q
#715000
1!
1Y
1Z
0Q
0d
0g
1b
0M
0h
1c
0i
#720000
0!
0Y
0Z
1Q
#725000
1!
1Y
1Z
0Q
0j
1d
0l
1h
1g
0b
0L
1M
0p
1m
1l
0h
1i
0c
0{
1q
1p
0m
1n
0i
0|
1{
0q
1r
0n
1|
0}
0r
1}
#730000
0!
0Y
0Z
1Q
#735000
1!
1Y
1Z
0Q
0d
0g
1b
1t
0M
0l
1h
1c
1f
0p
1m
1i
1l
0h
1q
0|
0q
1p
0m
1n
0i
1r
0}
1q
0r
0n
1r
#740000
0!
0Y
0Z
1Q
#745000
1!
1Y
1Z
0Q
0~
1s
1d
0!!
1z
13!
0t
1y
1g
0b
0I
1J
1M
0'!
1"!
1!!
0z
1h
1|
0f
0c
0-!
1(!
1'!
0"!
0|
1i
1}
0h
1.!
1-!
0(!
0}
0i
0.!
#750000
0!
0Y
0Z
1Q
#755000
1!
1Y
1Z
0Q
0d
0g
1b
0M
0l
1h
1c
0p
1m
1i
0q
1n
0r
#760000
0!
0Y
0Z
1Q
#765000
1!
1Y
1Z
0Q
0s
1o
1j
1d
0{
1q
0y
1p
0m
1x
1l
0h
1g
0b
0J
1K
1L
1M
0#!
1|
0!!
1z
1{
0q
1y
1m
1h
1r
0n
0i
0c
0)!
1$!
0'!
1"!
1#!
0|
1!!
0z
1}
0r
1n
1i
0/!
1*!
0-!
1(!
1)!
0$!
1'!
0"!
1%!
0}
10!
1.!
1/!
0*!
1-!
0(!
1+!
0%!
00!
0.!
11!
0+!
01!
#770000
0!
0Y
0Z
1Q
#775000
1!
1Y
1Z
0Q
0d
0g
1b
0M
0h
1c
0i
#780000
0!
0Y
0Z
1Q
#785000
1!
1Y
1Z
0Q
0j
1d
0l
1h
0x
1g
0b
0L
1M
0m
0y
1l
0h
1i
0c
0!!
1z
1m
0n
0i
0'!
1"!
1n
0-!
1(!
1.!
#790000
0!
0Y
0Z
1Q
#795000
1!
1Y
1Z
0Q
0d
0g
1b
0M
0l
1h
1c
0m
1i
0n
#800000
0!
0Y
0Z
1Q
#805000
1!
1Y
1Z
0Q
0o
1j
1d
0p
1m
1l
0h
1g
0b
0K
1L
1M
0{
1q
1p
0m
1h
1n
0i
0c
0#!
1|
1{
0q
1r
0n
1i
0)!
1$!
1#!
0|
1}
0r
0/!
1*!
1)!
0$!
1%!
0}
10!
1/!
0*!
1+!
0%!
00!
11!
0+!
01!
#810000
0!
0Y
0Z
1Q
#815000
1!
1Y
1Z
0Q
0d
0g
1b
0M
0h
1c
0i
#820000
0!
0Y
0Z
1Q
#825000
1!
1Y
1Z
0Q
0j
1d
0l
1h
1g
0b
0L
1M
0p
1m
1l
0h
1i
0c
0{
1q
1p
0m
1n
0i
0#!
1|
1{
0q
1r
0n
0)!
1$!
1#!
0|
1}
0r
0/!
1*!
1)!
0$!
1%!
0}
10!
1/!
0*!
1+!
0%!
00!
11!
0+!
01!
#830000
0!
0Y
0Z
1Q
#835000
1!
1Y
1Z
0Q
0d
0g
1b
1t
0M
0l
1h
1c
0a
0k
0w
14!
18!
0p
1m
1i
1\
0{
1q
0#!
1|
0)!
1$!
0/!
1*!
10!
#840000
0!
0Y
0Z
1Q
#845000
1!
1Y
1Z
0Q
0A!
1?!
1j
1d
1^
1l
0h
0t
1g
0b
0\
0`
1e
0u
1w
15!
07!
0;!
0$
1&
1L
1M
1P
1p
0m
1h
0i
1a
1k
1u
04!
08!
1r
1}
1+!
0=!
1{
0q
1i
0c
1%!
11!
1\
05!
1#!
0|
0r
1)!
0$!
0}
1/!
0*!
0%!
00!
0+!
01!
#850000
0!
0Y
0Z
1Q
#855000
1!
1Y
1Z
0Q
0d
0g
1b
0M
0h
1c
0i
#860000
0!
0Y
0Z
1Q
#865000
1!
1Y
1Z
0Q
0j
1d
0l
1h
1g
0b
0L
1M
0p
1m
1l
0h
1i
0c
0{
1q
1p
0m
1n
0i
0#!
1|
1{
0q
1r
0n
0)!
1$!
1#!
0|
1}
0r
0/!
1*!
1)!
0$!
1%!
0}
10!
1/!
0*!
1+!
0%!
00!
11!
0+!
01!
#870000
0!
0Y
0Z
1Q
#875000
1!
1Y
1Z
0Q
0d
0g
1b
1t
0M
0l
1h
1c
0a
0k
0u
14!
18!
0p
1m
1r
1}
0\
15!
0{
1q
0#!
1|
0)!
1$!
0/!
1*!
10!
1+!
#880000
0!
0Y
0Z
1Q
#885000
1!
1Y
1Z
0Q
0>!
0<!
0?!
09!
16!
1,!
1~
0v
1s
1d
0^
1\
0e
0w
05!
1;!
1-!
0(!
1/!
0*!
03!
1!!
0z
1#!
0|
1{
0q
0t
1y
1g
0b
1%
1'
0&
0(
1N
1G
1I
0O
1J
1M
0P
0.!
00!
1'!
0"!
1)!
0$!
1|
1z
1l
0h
1i
0r
0}
0+!
1a
1k
1w
04!
08!
1(!
1*!
1p
0m
1}
0i
0c
1n
0\
15!
1q
1+!
0n
1r
#890000
0!
0Y
0Z
1Q
#895000
1!
1Y
1Z
0Q
0d
0g
1b
0M
0l
1h
1c
0p
1m
1i
0q
1n
0r
#900000
0!
0Y
0Z
1Q
#905000
1!
1Y
1Z
0Q
0s
1o
1j
1d
0{
1q
0y
1p
0m
1x
1l
0h
1g
0b
0J
1K
1L
1M
0|
0z
1{
0q
1y
1m
1h
1r
0n
0i
0c
1|
1z
0}
0r
1n
1i
1}
#910000
0!
0Y
0Z
1Q
#915000
1!
1Y
1Z
0Q
0d
0g
1b
0M
0h
1c
0i
#920000
0!
0Y
0Z
1Q
#925000
1!
1Y
1Z
0Q
0j
1d
0l
1h
0x
1g
0b
0L
1M
0m
0y
1l
0h
1i
0c
0z
1m
0n
0i
1n
#930000
0!
0Y
0Z
1Q
#935000
1!
1Y
1Z
0Q
0d
0g
1b
0M
0l
1h
1c
0m
1i
0n
#940000
0!
0Y
0Z
1Q
#945000
1!
1Y
1Z
0Q
0o
1j
1d
0p
1m
1l
0h
1g
0b
0K
1L
1M
0{
1q
1p
0m
1h
1n
0i
0c
0|
1{
0q
1r
0n
1i
1|
0}
0r
1}
#950000
0!
0Y
0Z
1Q
#955000
1!
1Y
1Z
0Q
0d
0g
1b
0M
0h
1c
0i
#960000
0!
0Y
0Z
1Q
#965000
1!
1Y
1Z
0Q
0j
1d
0l
1h
1g
0b
0L
1M
0p
1m
1l
0h
1i
0c
0{
1q
1p
0m
1n
0i
0|
1{
0q
1r
0n
1|
0}
0r
1}
#970000
0!
0Y
0Z
1Q
#975000
1!
1Y
1Z
0Q
0d
0g
1b
1t
0M
0l
1h
1c
1f
0p
1m
1i
1l
0h
1q
0|
0q
1p
0m
1n
0i
1r
0}
1q
0r
0n
1r
#980000
0!
0Y
0Z
1Q
#985000
1!
1Y
1Z
0Q
0~
1s
1d
0!!
1z
0t
1y
1g
0b
0I
1J
1M
0'!
1"!
1!!
0z
1h
1|
0f
0c
0(!
1'!
0"!
0|
1i
1}
0h
1(!
0}
0i
#990000
0!
0Y
0Z
1Q
#995000
1!
1Y
1Z
0Q
0d
0g
1b
0M
0l
1h
1c
0p
1m
1i
0q
1n
0r
