Exp3/simulation/qsim/traffic.msim.vcd
$comment
	File created using the following command:
		vcd file traffic.msim.vcd -direction
$end
$date
	Fri Nov 30 11:50:54 2018
$end
$version
	ModelSim Version 10.1d
$end
$timescale
	1ps
$end
$scope module traffic_vlg_vec_tst $end
$var reg 1 ! clk $end
$var reg 1 " rst_n $end
$var reg 1 # s $end
$var wire 1 $ CG $end
$var wire 1 % CR $end
$var wire 1 & CY $end
$var wire 1 ' MG $end
$var wire 1 ( MR $end
$var wire 1 ) MY $end
$var wire 1 * SG0 [6] $end
$var wire 1 + SG0 [5] $end
$var wire 1 , SG0 [4] $end
$var wire 1 - SG0 [3] $end
$var wire 1 . SG0 [2] $end
$var wire 1 / SG0 [1] $end
$var wire 1 0 SG0 [0] $end
$var wire 1 1 SG1 [6] $end
$var wire 1 2 SG1 [5] $end
$var wire 1 3 SG1 [4] $end
$var wire 1 4 SG1 [3] $end
$var wire 1 5 SG1 [2] $end
$var wire 1 6 SG1 [1] $end
$var wire 1 7 SG1 [0] $end
$var wire 1 8 SG4 [6] $end
$var wire 1 9 SG4 [5] $end
$var wire 1 : SG4 [4] $end
$var wire 1 ; SG4 [3] $end
$var wire 1 < SG4 [2] $end
$var wire 1 = SG4 [1] $end
$var wire 1 > SG4 [0] $end
$var wire 1 ? SG5 [6] $end
$var wire 1 @ SG5 [5] $end
$var wire 1 A SG5 [4] $end
$var wire 1 B SG5 [3] $end
$var wire 1 C SG5 [2] $end
$var wire 1 D SG5 [1] $end
$var wire 1 E SG5 [0] $end
$var wire 1 F state [2] $end
$var wire 1 G state [1] $end
$var wire 1 H state [0] $end
$var wire 1 I sampler $end
$scope module i1 $end
$var wire 1 J gnd $end
$var wire 1 K vcc $end
$var wire 1 L unknown $end
$var tri1 1 M devclrn $end
$var tri1 1 N devpor $end
$var tri1 1 O devoe $end
$var wire 1 P ~QUARTUS_CREATED_GND~I_combout $end
$var wire 1 Q clk~input_o $end
$var wire 1 R clk~inputCLKENA0_outclk $end
$var wire 1 S s~input_o $end
$var wire 1 T sec_cnt[7]~0_combout $end
$var wire 1 U sec_cnt[2]~1_combout $end
$var wire 1 V always0~1_combout $end
$var wire 1 W rst_n~input_o $end
$var wire 1 X Mux10~0_combout $end
$var wire 1 Y MY~0_combout $end
$var wire 1 Z sec_cnt[7]~4_combout $end
$var wire 1 [ Add1~29_sumout $end
$var wire 1 \ sec_cnt[0]~9_combout $end
$var wire 1 ] Add1~30 $end
$var wire 1 ^ Add1~25_sumout $end
$var wire 1 _ sec_cnt[1]~8_combout $end
$var wire 1 ` Add1~26 $end
$var wire 1 a Add1~21_sumout $end
$var wire 1 b sec_cnt[2]~7_combout $end
$var wire 1 c Add0~22_cout $end
$var wire 1 d Add0~18_cout $end
$var wire 1 e Add0~13_sumout $end
$var wire 1 f Add1~22 $end
$var wire 1 g Add1~18 $end
$var wire 1 h Add1~13_sumout $end
$var wire 1 i sec_cnt[4]~5_combout $end
$var wire 1 j Add0~14 $end
$var wire 1 k Add0~9_sumout $end
$var wire 1 l Add1~14 $end
$var wire 1 m Add1~9_sumout $end
$var wire 1 n sec_cnt[5]~3_combout $end
$var wire 1 o Add0~10 $end
$var wire 1 p Add0~5_sumout $end
$var wire 1 q Add1~10 $end
$var wire 1 r Add1~5_sumout $end
$var wire 1 s Mux10~1_combout $end
$var wire 1 t Add0~6 $end
$var wire 1 u Add0~1_sumout $end
$var wire 1 v Add1~6 $end
$var wire 1 w Add1~1_sumout $end
$var wire 1 x sec_cnt[7]~2_combout $end
$var wire 1 y Equal1~0_combout $end
$var wire 1 z Equal2~0_combout $end
$var wire 1 { Mux2~0_combout $end
$var wire 1 | state[0]~reg0_q $end
$var wire 1 } Mux0~0_combout $end
$var wire 1 ~ state[2]~reg0_q $end
$var wire 1 !! Mux12~0_combout $end
$var wire 1 "! Add1~17_sumout $end
$var wire 1 #! sec_cnt[3]~6_combout $end
$var wire 1 $! always0~0_combout $end
$var wire 1 %! Mux1~0_combout $end
$var wire 1 &! state[1]~reg0_q $end
$var wire 1 '! MR~0_combout $end
$var wire 1 (! MR~1_combout $end
$var wire 1 )! MR~reg0_q $end
$var wire 1 *! MY~reg0_q $end
$var wire 1 +! Mux5~0_combout $end
$var wire 1 ,! MG~reg0_q $end
$var wire 1 -! CR~reg0_q $end
$var wire 1 .! CY~reg0_q $end
$var wire 1 /! Mux8~0_combout $end
$var wire 1 0! CG~reg0_q $end
$var wire 1 1! sec_cnt [7] $end
$var wire 1 2! sec_cnt [6] $end
$var wire 1 3! sec_cnt [5] $end
$var wire 1 4! sec_cnt [4] $end
$var wire 1 5! sec_cnt [3] $end
$var wire 1 6! sec_cnt [2] $end
$var wire 1 7! sec_cnt [1] $end
$var wire 1 8! sec_cnt [0] $end
$upscope $end
$upscope $end
$enddefinitions $end
#0
$dumpvars
0!
1"
1#
0$
1%
0&
1'
0(
0)
00
0/
0.
0-
0,
0+
0*
07
06
05
04
03
02
01
0>
0=
0<
0;
0:
09
08
0E
0D
0C
0B
0A
0@
0?
0H
0G
0F
xI
0J
1K
xL
1M
1N
1O
0P
0Q
0R
1S
0T
0U
0V
1W
0X
1Y
0Z
1[
1\
0]
1^
0_
0`
1a
0b
0c
0d
1e
0f
0g
1h
1i
0j
1k
0l
1m
0n
0o
1p
0q
1r
1s
0t
1u
0v
1w
0x
1y
1z
0{
0|
1}
0~
1!!
1"!
1#!
1$!
0%!
0&!
1'!
0(!
0)!
0*!
1+!
0,!
0-!
0.!
1/!
00!
08!
07!
06!
05!
04!
03!
02!
01!
$end
#5000
1!
1Q
1R
0I
15!
12!
14!
18!
1~
1d
1g
0"!
0$!
1t
0p
1v
0r
0s
0y
1j
0e
1l
0h
1]
0[
0Y
1{
0}
0!!
0'!
1(!
0/!
1F
1e
1h
0u
0w
1o
0k
1q
0m
1`
0^
0#!
1U
1X
1Z
0z
0(!
0i
1_
1p
1r
1f
0a
1i
0_
1b
0\
0{
1}
1"!
1s
0b
1#!
#10000
0!
0Q
0R
1I
#15000
1!
1Q
1R
0I
08!
0]
1[
0`
1^
1\
0f
1a
1_
0"!
1b
0#!
#20000
0!
0Q
0R
1I
#25000
1!
1Q
1R
0I
05!
16!
17!
18!
0d
0g
1"!
1f
0a
1c
1`
0^
1]
0[
0e
0h
1g
0"!
1d
1a
1^
1#!
0b
0_
0\
1h
1e
0i
0#!
1b
1_
1i
#30000
0!
0Q
0R
1I
#35000
1!
1Q
1R
0I
08!
0]
1[
0^
1\
0_
#40000
0!
0Q
0R
1I
#45000
1!
1Q
1R
0I
07!
18!
0`
1^
0c
1]
0[
0a
0d
1`
0^
1_
0\
0e
1a
0b
0_
1b
#50000
0!
0Q
0R
1I
#55000
1!
1Q
1R
0I
08!
0]
1[
0`
1^
1\
0a
1_
0b
#60000
0!
0Q
0R
1I
#65000
1!
1Q
1R
0I
06!
17!
18!
0f
1a
1`
0^
1]
0[
0g
1"!
1f
0a
1^
1b
0_
0\
0h
1g
0"!
1#!
0b
1_
1h
0i
0#!
1i
#70000
0!
0Q
0R
1I
#75000
1!
1Q
1R
0I
08!
0]
1[
0^
1\
0_
#80000
0!
0Q
0R
1I
#85000
1!
1Q
1R
0I
07!
18!
0`
1^
1]
0[
0f
1a
1`
0^
1_
0\
0g
1"!
1f
0a
1b
0_
0h
1g
0"!
1#!
0b
1h
0i
0#!
1i
#90000
0!
0Q
0R
1I
#95000
1!
1Q
1R
0I
08!
0]
1[
1$!
0`
1^
1\
1V
0f
1a
1_
1`
0^
1"!
0h
0"!
1f
0a
1b
0_
1#!
0i
1"!
0#!
0b
1#!
#100000
0!
0Q
0R
1I
#105000
1!
1Q
1R
0I
15!
04!
18!
1d
0$!
0j
1e
1]
0[
1j
0e
0o
1k
1^
0V
1h
0\
1o
0k
0p
0h
1_
0^
1i
1p
0i
0_
#110000
0!
0Q
0R
1I
#115000
1!
1Q
1R
0I
08!
0]
1[
0`
1^
1\
0f
1a
1_
0"!
1b
0#!
#120000
0!
0Q
0R
1I
#125000
1!
1Q
1R
0I
05!
16!
17!
18!
0d
0g
1"!
1f
0a
1c
1`
0^
1]
0[
0j
1e
0l
1h
1g
0"!
1d
1a
1^
1#!
0b
0_
0\
0o
1k
0q
1m
1l
0h
1j
0e
1i
0#!
1b
1_
0p
0r
1q
0m
1o
0k
1n
0i
1r
1p
0s
0n
1s
#130000
0!
0Q
0R
1I
#135000
1!
1Q
1R
0I
08!
0]
1[
0^
1\
0_
#140000
0!
0Q
0R
1I
#145000
1!
1Q
1R
0I
07!
18!
0`
1^
0c
1]
0[
0a
0d
1`
0^
1_
0\
0j
1e
1a
0b
0_
0o
1k
1b
0p
#150000
0!
0Q
0R
1I
#155000
1!
1Q
1R
0I
08!
0]
1[
0`
1^
1\
0a
1_
0b
#160000
0!
0Q
0R
1I
#165000
1!
1Q
1R
0I
06!
17!
18!
0f
1a
1`
0^
1]
0[
0g
1"!
1f
0a
1^
1b
0_
0\
0l
1h
1g
0"!
1#!
0b
1_
0q
1m
1l
0h
1i
0#!
0r
1q
0m
1n
0i
1r
0s
0n
1s
#170000
0!
0Q
0R
1I
#175000
1!
1Q
1R
0I
08!
0]
1[
0^
1\
0_
#180000
0!
0Q
0R
1I
#185000
1!
1Q
1R
0I
07!
18!
0`
1^
1]
0[
0f
1a
1`
0^
1_
0\
0g
1"!
1f
0a
1b
0_
0l
1h
1g
0"!
1#!
0b
0q
1m
1l
0h
1i
0#!
0r
1q
0m
1n
0i
1r
0s
0n
1s
#190000
0!
0Q
0R
1I
#195000
1!
1Q
1R
0I
08!
0]
1[
1$!
0`
1^
1\
1V
0f
1a
1_
1`
0^
1"!
1h
1m
0r
0"!
1f
0a
1b
0_
1#!
1i
1n
0s
1"!
0#!
0b
1#!
#200000
0!
0Q
0R
1I
#205000
1!
1Q
1R
0I
15!
02!
13!
14!
18!
1d
0$!
0t
1p
1o
0k
1j
0e
1]
0[
1e
1u
1t
0p
1k
1^
0V
1r
0m
0h
0\
0u
1h
0r
1m
1_
0^
1s
0n
0i
1i
0s
1n
0_
#210000
0!
0Q
0R
1I
#215000
1!
1Q
1R
0I
08!
0]
1[
0`
1^
1\
0f
1a
1_
0"!
1b
0#!
#220000
0!
0Q
0R
1I
#225000
1!
1Q
1R
0I
05!
16!
17!
18!
0d
0g
1"!
1f
0a
1c
1`
0^
1]
0[
0e
0h
1g
0"!
1d
1a
1^
1#!
0b
0_
0\
1h
1e
0i
0#!
1b
1_
1i
#230000
0!
0Q
0R
1I
#235000
1!
1Q
1R
0I
08!
0]
1[
0^
1\
0_
#240000
0!
0Q
0R
1I
#245000
1!
1Q
1R
0I
07!
18!
0`
1^
0c
1]
0[
0a
0d
1`
0^
1_
0\
0e
1a
0b
0_
1b
#250000
0!
0Q
0R
1I
#255000
1!
1Q
1R
0I
08!
0]
1[
0`
1^
1\
0a
1_
0b
#260000
0!
0Q
0R
1I
#265000
1!
1Q
1R
0I
06!
17!
18!
0f
1a
1`
0^
1]
0[
0g
1"!
1f
0a
1^
1b
0_
0\
0h
1g
0"!
1#!
0b
1_
1h
0i
0#!
1i
#270000
0!
0Q
0R
1I
#275000
1!
1Q
1R
0I
08!
0]
1[
0^
1\
0_
#280000
0!
0Q
0R
1I
#285000
1!
1Q
1R
0I
07!
18!
0`
1^
1]
0[
0f
1a
1`
0^
1_
0\
0g
1"!
1f
0a
1b
0_
0h
1g
0"!
1#!
0b
1h
0i
0#!
1i
#290000
0!
0Q
0R
1I
#295000
1!
1Q
1R
0I
08!
0]
1[
1$!
0`
1^
1\
1V
0f
1a
1_
1`
0^
1"!
0h
0"!
1f
0a
1b
0_
1#!
0i
1"!
0#!
0b
1#!
#300000
0!
0Q
0R
1I
#305000
1!
1Q
1R
0I
15!
04!
18!
1d
0$!
0j
1e
1]
0[
1j
0e
0k
1^
0V
1h
0\
1k
0h
1_
0^
1i
0i
0_
#310000
0!
0Q
0R
1I
#315000
1!
1Q
1R
0I
08!
0]
1[
0`
1^
1\
0f
1a
1_
0"!
1b
0#!
#320000
0!
0Q
0R
1I
#325000
1!
1Q
1R
0I
05!
16!
17!
18!
0d
0g
1"!
1f
0a
1c
1`
0^
1]
0[
0j
1e
0l
1h
1g
0"!
1d
1a
1^
1#!
0b
0_
0\
0k
0m
1l
0h
1j
0e
1i
0#!
1b
1_
1m
1k
0n
0i
1n
#330000
0!
0Q
0R
1I
#335000
1!
1Q
1R
0I
08!
0]
1[
0^
1\
0_
#340000
0!
0Q
0R
1I
#345000
1!
1Q
1R
0I
07!
18!
0`
1^
0c
1]
0[
0a
0d
1`
0^
1_
0\
0j
1e
1a
0b
0_
0k
1b
#350000
0!
0Q
0R
1I
#355000
1!
1Q
1R
0I
08!
0]
1[
0`
1^
1\
0a
1_
0b
#360000
0!
0Q
0R
1I
#365000
1!
1Q
1R
0I
06!
17!
18!
0f
1a
1`
0^
1]
0[
0g
1"!
1f
0a
1^
1b
0_
0\
0l
1h
1g
0"!
1#!
0b
1_
0m
1l
0h
1i
0#!
1m
0n
0i
1n
#370000
0!
0Q
0R
1I
#375000
1!
1Q
1R
0I
08!
0]
1[
0^
1\
0_
#380000
0!
0Q
0R
1I
#385000
1!
1Q
1R
0I
07!
18!
0`
1^
1]
0[
0f
1a
1`
0^
1_
0\
0g
1"!
1f
0a
1b
0_
0l
1h
1g
0"!
1#!
0b
0m
1l
0h
1i
0#!
1m
0n
0i
1n
#390000
0!
0Q
0R
1I
#395000
1!
1Q
1R
0I
08!
0]
1[
1$!
0`
1^
1\
1V
0f
1a
1_
1`
0^
1"!
1h
0m
0"!
1f
0a
1b
0_
1#!
1i
0n
1"!
0#!
0b
1#!
#400000
0!
0Q
0R
1I
#405000
1!
1Q
1R
0I
15!
03!
14!
18!
1d
0$!
0o
1k
1j
0e
1]
0[
1e
0t
1p
1o
0k
1^
0V
1m
0h
0\
1u
1t
0p
1h
0m
1_
0^
1n
0i
0u
1i
0n
0_
#410000
0!
0Q
0R
1I
#415000
1!
1Q
1R
0I
08!
0]
1[
0`
1^
1\
0f
1a
1_
0"!
1b
0#!
#420000
0!
0Q
0R
1I
#425000
1!
1Q
1R
0I
05!
16!
17!
18!
0d
0g
1"!
1f
0a
1c
1`
0^
1]
0[
0e
0h
1g
0"!
1d
1a
1^
1#!
0b
0_
0\
1h
1e
0i
0#!
1b
1_
1i
#430000
0!
0Q
0R
1I
#435000
1!
1Q
1R
0I
08!
0]
1[
0^
1\
0_
#440000
0!
0Q
0R
1I
#445000
1!
1Q
1R
0I
07!
18!
0`
1^
0c
1]
0[
0a
0d
1`
0^
1_
0\
0e
1a
0b
0_
1b
#450000
0!
0Q
0R
1I
#455000
1!
1Q
1R
0I
08!
0]
1[
0`
1^
1\
0a
1_
0b
#460000
0!
0Q
0R
1I
#465000
1!
1Q
1R
0I
06!
17!
18!
0f
1a
1`
0^
1]
0[
0g
1"!
1f
0a
1^
1b
0_
0\
0h
1g
0"!
1#!
0b
1_
1h
0i
0#!
1i
#470000
0!
0Q
0R
1I
#475000
1!
1Q
1R
0I
08!
0]
1[
0^
1\
0_
#480000
0!
0Q
0R
1I
#485000
1!
1Q
1R
0I
07!
18!
0`
1^
1]
0[
0f
1a
1`
0^
1_
0\
0g
1"!
1f
0a
1b
0_
0h
1g
0"!
1#!
0b
1h
0i
0#!
1i
#490000
0!
0Q
0R
1I
#495000
1!
1Q
1R
0I
08!
0]
1[
1$!
0`
1^
1\
1V
0f
1a
1_
1`
0^
1"!
0h
0"!
1f
0a
1b
0_
1#!
0i
1"!
0#!
0b
1#!
#500000
0!
0Q
0R
1I
#505000
1!
1Q
1R
0I
15!
04!
18!
1d
0$!
0j
1e
1y
1]
0[
1j
0e
0o
1k
1^
0V
1h
0\
1o
0k
0t
1p
0h
1_
0^
1i
1t
0p
1u
0i
0_
0u
#510000
0!
0Q
0R
1I
#515000
1!
1Q
1R
0I
08!
0]
1[
0`
1^
1\
0f
1a
1_
0"!
1b
0#!
#520000
0!
0Q
0R
1I
#525000
1!
1Q
1R
0I
05!
16!
17!
18!
0d
0g
1"!
1f
0a
1c
1`
0^
1]
0[
0j
1e
0l
1h
1g
0"!
1d
1a
1^
1#!
0b
0_
0\
0o
1k
0q
1m
1l
0h
1j
0e
1i
0#!
1b
1_
0t
1p
0v
1r
1q
0m
1o
0k
1n
0i
1u
1w
1v
0r
1t
0p
1s
0n
0w
0u
1x
0s
0x
#530000
0!
0Q
0R
1I
#535000
1!
1Q
1R
0I
08!
0]
1[
0^
1\
0_
#540000
0!
0Q
0R
1I
#545000
1!
1Q
1R
0I
07!
18!
0`
1^
0c
1]
0[
0a
0d
1`
0^
1_
0\
0j
1e
1a
0b
0_
0o
1k
1b
0t
1p
1u
#550000
0!
0Q
0R
1I
#555000
1!
1Q
1R
0I
08!
0]
1[
0`
1^
1\
0a
1_
0b
#560000
0!
0Q
0R
1I
#565000
1!
1Q
1R
0I
06!
17!
18!
0f
1a
1`
0^
1]
0[
0g
1"!
1f
0a
1^
1b
0_
0\
0l
1h
1g
0"!
1#!
0b
1_
0q
1m
1l
0h
1i
0#!
0v
1r
1q
0m
1n
0i
1w
1v
0r
1s
0n
0w
1x
0s
0x
#570000
0!
0Q
0R
1I
#575000
1!
1Q
1R
0I
08!
0]
1[
0^
1\
0_
#580000
0!
0Q
0R
1I
#585000
1!
1Q
1R
0I
07!
18!
0`
1^
1]
0[
0f
1a
1`
0^
1_
0\
0g
1"!
1f
0a
1b
0_
0l
1h
1g
0"!
1#!
0b
0q
1m
1l
0h
1i
0#!
0v
1r
1q
0m
1n
0i
1w
1v
0r
1s
0n
0w
1x
0s
0x
#590000
0!
0Q
0R
1I
#595000
1!
1Q
1R
0I
08!
0]
1[
1$!
0`
1^
1\
0U
0X
0Z
1z
1(!
0f
1a
1_
1{
0}
0g
1"!
0l
1h
0q
1m
0v
1r
1w
#600000
0!
0Q
0R
1I
#605000
1!
1Q
1R
0I
1,!
17!
18!
1*!
0~
1|
1`
0^
0$!
1]
0[
0{
1!!
1'!
1/!
1%!
0'
1)
0F
1H
1f
0a
1^
0_
1U
1X
1Z
0z
0%!
0(!
1i
1#!
1g
0"!
1_
1n
1x
1s
0\
1{
1l
0h
0#!
1q
0m
0i
1v
0r
0n
0w
0s
0x
#610000
0!
0Q
0R
1I
#615000
1!
1Q
1R
0I
08!
0]
1[
0^
1\
0_
#620000
0!
0Q
0R
1I
#625000
1!
1Q
1R
0I
07!
18!
0`
1^
1]
0[
0f
1a
1`
0^
1_
0\
0g
1"!
1f
0a
1b
0_
0l
1h
1g
0"!
1#!
0b
0q
1m
1l
0h
1i
0#!
0v
1r
1q
0m
1n
0i
1w
1v
0r
1s
0n
0w
1x
0s
0x
#630000
0!
0Q
0R
1I
#635000
1!
1Q
1R
0I
08!
0]
1[
1$!
0`
1^
1\
0U
0X
0Z
1z
1%!
1(!
0f
1a
1i
1#!
0{
0g
1"!
0l
1h
0q
1m
0v
1r
1w
#640000
0!
0Q
0R
1I
#645000
1!
1Q
1R
0I
1-!
15!
14!
18!
10!
0*!
1)!
1&!
0|
1d
1g
0"!
0$!
1j
0e
1l
0h
0y
1]
0[
1{
0!!
0/!
1Y
0%
1$
0)
1(
1G
0H
1e
1h
1o
0k
1q
0m
1`
0^
0#!
1U
1X
1Z
0z
0(!
0i
1_
1t
0p
1v
0r
1f
0a
1i
0_
1b
1x
1s
0\
0{
0u
0w
1"!
0s
0b
0x
1#!
#650000
0!
0Q
0R
1I
#655000
1!
1Q
1R
0I
08!
0]
1[
0`
1^
1\
0f
1a
1_
0"!
1b
0#!
#660000
0!
0Q
0R
1I
#665000
1!
1Q
1R
0I
05!
16!
17!
18!
0d
0g
1"!
1f
0a
1c
1`
0^
1]
0[
0e
0h
1g
0"!
1d
1a
1^
1#!
0b
0_
0\
1h
1e
0i
0#!
1b
1_
1i
#670000
0!
0Q
0R
1I
#675000
1!
1Q
1R
0I
08!
0]
1[
0^
1\
0_
#680000
0!
0Q
0R
1I
#685000
1!
1Q
1R
0I
07!
18!
0`
1^
0c
1]
0[
0a
0d
1`
0^
1_
0\
0e
1a
0b
0_
1b
#690000
0!
0Q
0R
1I
#695000
1!
1Q
1R
0I
08!
0]
1[
0`
1^
1\
0a
1_
0b
#700000
0!
0Q
0R
1I
#705000
1!
1Q
1R
0I
06!
17!
18!
0f
1a
1`
0^
1]
0[
0g
1"!
1f
0a
1^
1b
0_
0\
0h
1g
0"!
1#!
0b
1_
1h
0i
0#!
1i
#710000
0!
0Q
0R
1I
#715000
1!
1Q
1R
0I
08!
0]
1[
0^
1\
0_
#720000
0!
0Q
0R
1I
#725000
1!
1Q
1R
0I
07!
18!
0`
1^
1]
0[
0f
1a
1`
0^
1_
0\
0g
1"!
1f
0a
1b
0_
0h
1g
0"!
1#!
0b
1h
0i
0#!
1i
#730000
0!
0Q
0R
1I
#735000
1!
1Q
1R
0I
08!
0]
1[
1$!
0`
1^
1\
1V
0f
1a
1_
1`
0^
1"!
0h
0"!
1f
0a
1b
0_
1#!
0i
1"!
0#!
0b
1#!
#740000
0!
0Q
0R
1I
#745000
1!
1Q
1R
0I
15!
04!
18!
1d
0$!
0j
1e
1y
1]
0[
1j
0e
0o
1k
1^
0V
1h
0\
1o
0k
0t
1p
0h
1_
0^
1i
1t
0p
1u
0i
0_
0u
#750000
0!
0Q
0R
1I
#755000
1!
1Q
1R
0I
08!
0]
1[
0`
1^
1\
0f
1a
1_
0"!
1b
0#!
#760000
0!
0Q
0R
1I
#765000
1!
1Q
1R
0I
05!
16!
17!
18!
0d
0g
1"!
1f
0a
1c
1`
0^
1]
0[
0j
1e
0l
1h
1g
0"!
1d
1a
1^
1#!
0b
0_
0\
0o
1k
0q
1m
1l
0h
1j
0e
1i
0#!
1b
1_
0t
1p
0v
1r
1q
0m
1o
0k
1n
0i
1u
1w
1v
0r
1t
0p
1s
0n
0w
0u
1x
0s
0x
#770000
0!
0Q
0R
1I
#775000
1!
1Q
1R
0I
08!
0]
1[
0^
1\
0_
#780000
0!
0Q
0R
1I
#785000
1!
1Q
1R
0I
07!
18!
0`
1^
0c
1]
0[
0a
0d
1`
0^
1_
0\
0j
1e
1a
0b
0_
0o
1k
1b
0t
1p
1u
#790000
0!
0Q
0R
1I
#795000
1!
1Q
1R
0I
08!
0]
1[
0`
1^
1\
0a
1_
0b
#800000
0!
0Q
0R
1I
#805000
1!
1Q
1R
0I
06!
17!
18!
0f
1a
1`
0^
1]
0[
0g
1"!
1f
0a
1^
1b
0_
0\
0l
1h
1g
0"!
1#!
0b
1_
0q
1m
1l
0h
1i
0#!
0v
1r
1q
0m
1n
0i
1w
1v
0r
1s
0n
0w
1x
0s
0x
#810000
0!
0Q
0R
1I
#815000
1!
1Q
1R
0I
08!
0]
1[
0^
1\
0_
#820000
0!
0Q
0R
1I
#825000
1!
1Q
1R
0I
07!
18!
0`
1^
1]
0[
0f
1a
1`
0^
1_
0\
0g
1"!
1f
0a
1b
0_
0l
1h
1g
0"!
1#!
0b
0q
1m
1l
0h
1i
0#!
0v
1r
1q
0m
1n
0i
1w
1v
0r
1s
0n
0w
1x
0s
0x
#830000
0!
0Q
0R
1I
#835000
1!
1Q
1R
0I
08!
0]
1[
1$!
0`
1^
1\
0U
0X
0Z
1z
1(!
0f
1a
1_
1{
0g
1"!
0l
1h
0q
1m
0v
1r
1w
#840000
0!
0Q
0R
1I
#845000
1!
1Q
1R
0I
17!
18!
00!
1.!
1|
1`
0^
0$!
1]
0[
1X
0Y
0{
1}
1!!
0%!
0'!
0+!
0$
1&
1H
1f
0a
1^
0_
1U
1Z
0z
1%!
0(!
1s
1i
1#!
1g
0"!
1_
1n
1x
0\
1{
0}
1l
0h
0#!
1q
0m
0i
1v
0r
0n
0w
0s
0x
#850000
0!
0Q
0R
1I
#855000
1!
1Q
1R
0I
08!
0]
1[
0^
1\
0_
#860000
0!
0Q
0R
1I
#865000
1!
1Q
1R
0I
07!
18!
0`
1^
1]
0[
0f
1a
1`
0^
1_
0\
0g
1"!
1f
0a
1b
0_
0l
1h
1g
0"!
1#!
0b
0q
1m
1l
0h
1i
0#!
0v
1r
1q
0m
1n
0i
1w
1v
0r
1s
0n
0w
1x
0s
0x
#870000
0!
0Q
0R
1I
#875000
1!
1Q
1R
0I
08!
0]
1[
1$!
0`
1^
1\
0U
0Z
1z
0%!
1(!
0f
1a
1i
1#!
0{
1}
0g
1"!
0l
1h
0q
1m
0v
1r
1w
1s
#880000
0!
0Q
0R
1I
#885000
1!
1Q
1R
0I
0-!
0,!
15!
12!
14!
18!
0.!
0)!
0&!
1~
0|
1d
1g
0"!
0$!
1t
0p
1v
0r
0y
1j
0e
1l
0h
1]
0[
0X
1{
0}
0!!
1+!
1%
1'
0&
0(
0G
1F
0H
1e
1h
0u
0w
1o
0k
1q
0m
1`
0^
0#!
1U
1X
1Z
0z
0(!
0s
0i
1_
1p
1r
1f
0a
1i
0_
1b
0\
0{
1}
1"!
1s
0b
1#!
#890000
0!
0Q
0R
1I
#895000
1!
1Q
1R
0I
08!
0]
1[
0`
1^
1\
0f
1a
1_
0"!
1b
0#!
#900000
0!
0Q
0R
1I
#905000
1!
1Q
1R
0I
05!
16!
17!
18!
0d
0g
1"!
1f
0a
1c
1`
0^
1]
0[
0e
0h
1g
0"!
1d
1a
1^
1#!
0b
0_
0\
1h
1e
0i
0#!
1b
1_
1i
#910000
0!
0Q
0R
1I
#915000
1!
1Q
1R
0I
08!
0]
1[
0^
1\
0_
#920000
0!
0Q
0R
1I
#925000
1!
1Q
1R
0I
07!
18!
0`
1^
0c
1]
0[
0a
0d
1`
0^
1_
0\
0e
1a
0b
0_
1b
#930000
0!
0Q
0R
1I
#935000
1!
1Q
1R
0I
08!
0]
1[
0`
1^
1\
0a
1_
0b
#940000
0!
0Q
0R
1I
#945000
1!
1Q
1R
0I
06!
17!
18!
0f
1a
1`
0^
1]
0[
0g
1"!
1f
0a
1^
1b
0_
0\
0h
1g
0"!
1#!
0b
1_
1h
0i
0#!
1i
#950000
0!
0Q
0R
1I
#955000
1!
1Q
1R
0I
08!
0]
1[
0^
1\
0_
#960000
0!
0Q
0R
1I
#965000
1!
1Q
1R
0I
07!
18!
0`
1^
1]
0[
0f
1a
1`
0^
1_
0\
0g
1"!
1f
0a
1b
0_
0h
1g
0"!
1#!
0b
1h
0i
0#!
1i
#970000
0!
0Q
0R
1I
#975000
1!
1Q
1R
0I
08!
0]
1[
1$!
0`
1^
1\
1V
0f
1a
1_
1`
0^
1"!
0h
0"!
1f
0a
1b
0_
1#!
0i
1"!
0#!
0b
1#!
#980000
0!
0Q
0R
1I
#985000
1!
1Q
1R
0I
15!
04!
18!
1d
0$!
0j
1e
1]
0[
1j
0e
0o
1k
1^
0V
1h
0\
1o
0k
0p
0h
1_
0^
1i
1p
0i
0_
#990000
0!
0Q
0R
1I
#995000
1!
1Q
1R
0I
08!
0]
1[
0`
1^
1\
0f
1a
1_
0"!
1b
0#!
#1000000
0!
0Q
0R
1I
#1005000
1!
1Q
1R
0I
05!
16!
17!
18!
0d
0g
1"!
1f
0a
1c
1`
0^
1]
0[
0j
1e
0l
1h
1g
0"!
1d
1a
1^
1#!
0b
0_
0\
0o
1k
0q
1m
1l
0h
1j
0e
1i
0#!
1b
1_
0p
0r
1q
0m
1o
0k
1n
0i
1r
1p
0s
0n
1s
#1010000
0!
0Q
0R
1I
#1015000
1!
1Q
1R
0I
08!
0]
1[
0^
1\
0_
#1020000
0!
0Q
0R
1I
#1025000
1!
1Q
1R
0I
07!
18!
0`
1^
0c
1]
0[
0a
0d
1`
0^
1_
0\
0j
1e
1a
0b
0_
0o
1k
1b
0p
#1030000
0!
0Q
0R
1I
#1035000
1!
1Q
1R
0I
08!
0]
1[
0`
1^
1\
0a
1_
0b
#1040000
0!
0Q
0R
1I
#1045000
1!
1Q
1R
0I
06!
17!
18!
0f
1a
1`
0^
1]
0[
0g
1"!
1f
0a
1^
1b
0_
0\
0l
1h
1g
0"!
1#!
0b
1_
0q
1m
1l
0h
1i
0#!
0r
1q
0m
1n
0i
1r
0s
0n
1s
#1050000
0!
0Q
0R
1I
#1055000
1!
1Q
1R
0I
08!
0]
1[
0^
1\
0_
#1060000
0!
0Q
0R
1I
#1065000
1!
1Q
1R
0I
07!
18!
0`
1^
1]
0[
0f
1a
1`
0^
1_
0\
0g
1"!
1f
0a
1b
0_
0l
1h
1g
0"!
1#!
0b
0q
1m
1l
0h
1i
0#!
0r
1q
0m
1n
0i
1r
0s
0n
1s
#1070000
0!
0Q
0R
1I
#1075000
1!
1Q
1R
0I
08!
0]
1[
1$!
0`
1^
1\
1V
0f
1a
1_
1`
0^
1"!
1h
1m
0r
0"!
1f
0a
1b
0_
1#!
1i
1n
0s
1"!
0#!
0b
1#!
#1080000
0!
0Q
0R
1I
#1085000
1!
1Q
1R
0I
15!
02!
13!
14!
18!
1d
0$!
0t
1p
1o
0k
1j
0e
1]
0[
1e
1u
1t
0p
1k
1^
0V
1r
0m
0h
0\
0u
1h
0r
1m
1_
0^
1s
0n
0i
1i
0s
1n
0_
#1090000
0!
0Q
0R
1I
#1095000
1!
1Q
1R
0I
08!
0]
1[
0`
1^
1\
0f
1a
1_
0"!
1b
0#!
#1100000
0!
0Q
0R
1I
#1105000
1!
1Q
1R
0I
05!
16!
17!
18!
0d
0g
1"!
1f
0a
1c
1`
0^
1]
0[
0e
0h
1g
0"!
1d
1a
1^
1#!
0b
0_
0\
1h
1e
0i
0#!
1b
1_
1i
#1110000
0!
0Q
0R
1I
#1115000
1!
1Q
1R
0I
08!
0]
1[
0^
1\
0_
#1120000
0!
0Q
0R
1I
